autoflake==0.6.6
autopep8==1.2.4
backports-abc==0.4
backports.ssl-match-hostname==3.5.0.1
bokeh==0.12.0
certifi==2016.2.28
click==6.6
decorator==4.0.10
futures==3.0.5
geocoder==1.15.1
importmagic==0.1.7
jedi==0.8.1
Jinja2==2.8
json-rpc==1.8.1
MarkupSafe==0.23
numpy==1.11.1
pandas==0.18.1
pep8==1.7.0
pyflakes==1.2.3
python-dateutil==2.5.3
pytz==2016.6
PyYAML==3.11
ratelim==0.1.6
requests==2.10.0
rope==0.10.3
service-factory==0.1.2
singledispatch==3.4.0.3
six==1.10.0
tornado==4.3
yapf==0.10.0
