7999,1600 W WALNUT ST,JACKSONVILLE,IL,62650
8000,200 FAIRMAN STREET,WATSEKA,IL,60970
8001,801 ILLINI DRIVE,SILVIS,IL,61282
8002,900 N ROBERT AVE,ARCADIA,FL,34265
8003,1400 WEST PARK AVENUE,URBANA,IL,61801
8004,45 W 111TH STREET,CHICAGO,IL,60628
8005,301 W HOMER ST,MICHIGAN CITY,IN,46360
8006,100 EAST LEFEVRE ROAD,STERLING,IL,61081
8007,250 MERCY DRIVE,DUBUQUE,IA,52001
8008,610 SPARTA ROAD,SANDERSVILLE,GA,31082
8009,1902 SOUTH US HWY 59,PARSONS,KS,67357
8010,701 W COCOA BEACH CAUSEWAY,COCOA BEACH,FL,32932
8011,204 NORTH 4TH AVENUE EAST,NEWTON,IA,50208
8012,2001 W 86TH ST,INDIANAPOLIS,IN,46260
8013,1717 ARLINGTON STREET,CALDWELL,ID,83605
8014,4900 HOUSTON ROAD,FLORENCE,KY,41042
8015,1373 EAST SR 62,MADISON,IN,47250
8016,677 CHURCH STREET,MARIETTA,GA,30060
8017,3333 NORTH SEMINARY,GALESBURG,IL,61401
8018,10101 FOREST HILL BLVD,WELLINGTON,FL,33414
8019,541 HISTORIC HIGHWAY 441-NORTH,DEMOREST,GA,30535
8020,701 N FIRST ST,SPRINGFIELD,IL,62781
8021,1266 HIGHWAY 515 SOUTH,JASPER,GA,30143
8022,1067 PEACHTREE ST,LOUISVILLE,GA,30434
8023,1001 SAINT JOSEPH LANE,LONDON,KY,40741
8024,5353 REYNOLDS STREET,SAVANNAH,GA,31412
8025,1324 NORTH SHERIDAN ROAD,WAUKEGAN,IL,60085
8026,1600 MORGAN STREET,KEOKUK,IA,52632
8027,1199 PRINCE AVENUE,ATHENS,GA,30606
8028,525 EAST GRANT STREET,MACOMB,IL,61455
8029,355 RIDGE AVE,EVANSTON,IL,60202
8030,1601 WATSON BOULEVARD,WARNER ROBINS,GA,31093
8031,201 14TH ST SW,LARGO,FL,33770
8032,240 HOSPITAL ROAD,WHITESBURG,KY,41858
8033,2720 STONE PARK BOULEVARD,SIOUX CITY,IA,51104
8034,1201 HADLEY RD,MOORESVILLE,IN,46158
8035,6201 N SUNCOAST BLVD,CRYSTAL RIVER,FL,34428
8036,801 N STATE ST,GREENFIELD,IN,46140
8037,"2501 NORTH PATTERSON STREET, PO BOX 1727",VALDOSTA,GA,31603
8038,1775 DEMPSTER ST,PARK RIDGE,IL,60068
8039,5145 N CALIFORNIA AVE,CHICAGO,IL,60625
8040,2300 NORTH EDWARD STREET,DECATUR,IL,62526
8041,1801 HICKMAN ROAD,DES MOINES,IA,50314
8042,15TH STREET AT CALIFORNIA,CHICAGO,IL,60608
8043,163 HOSPITAL DRIVE,TOCCOA,GA,30577
8044,1111 6TH AVE,DES MOINES,IA,50314
8045,200 S CEDAR ST,SHELBYVILLE,IL,62565
8046,5101 S WILLOW SPRINGS RD,LA GRANGE,IL,60525
8047,117 KITE ROAD,SWAINSBORO,GA,30401
8048,1200 PLEASANT STREET,DES MOINES,IA,50309
8049,701 SUPERIOR AVE,MUNSTER,IN,46321
8050,800 W 9TH ST,JASPER,IN,47546
8051,1000 FOURTH STREET SW,MASON CITY,IA,50401
8052,1825 LOGAN AVENUE,WATERLOO,IA,50703
8053,12251 SOUTH 80TH AVENUE,PALOS HEIGHTS,IL,60463
8054,1101 OCILLA ROAD,DOUGLAS,GA,31533
8055,3601 NORTH WEBB ROAD,WICHITA,KS,67226
8056,3249 SOUTH OAK PARK AVENUE,BERWYN,IL,60402
8057,600 E BLVD,ELKHART,IN,46514
8058,340 NW COMMERCE DR,LAKE CITY,FL,32055
8059,190 EAST BANNOCK STREET,BOISE,ID,83712
8060,150 W HIGH ST,MORRIS,IL,60450
8061,2701 17TH ST,ROCK ISLAND,IL,61201
8062,1000 E MAIN ST,DANVILLE,IN,46122
8063,175 HOSPITAL DRIVE,WINCHESTER,KY,40391
8064,85 NORTH GRAND AVENUE,FORT THOMAS,KY,41075
8065,2900 NORTH LAKE SHORE DRIVE,CHICAGO,IL,60657
8066,1 GOOD SAMARITAN WAY,MOUNT VERNON,IL,62864
8067,500 E MARKET STREET,IOWA CITY,IA,52245
8068,1500 N RITTER AVE,INDIANAPOLIS,IN,46219
8069,2400 E 17TH ST,COLUMBUS,IN,47201
8070,2151 WEST SPRING STREET,MONROE,GA,30655
8071,2015 JACKSON ST,ANDERSON,IN,46016
8072,3 ERIE COURT,OAK PARK,IL,60302
8073,636 DEL PRADO BLVD,CAPE CORAL,FL,33990
8074,11375 CORTEZ BLVD,BROOKSVILLE,FL,34613
8075,4250 HOSPITAL DR,MARIANNA,FL,32446
8076,7150 CLEARVISTA DR,INDIANAPOLIS,IN,46256
8077,7800 SHERIDAN ST,PEMBROKE PINES,FL,33024
8078,4011 S MONROE MEDICAL PARK BLVD,BLOOMINGTON,IN,47403
8079,251 E HURON ST,CHICAGO,IL,60611
8080,7531 S STONY ISLAND AVE,CHICAGO,IL,60649
8081,1410 NORTH 4TH STREET,CLINTON,IA,52732
8082,1401 EAST STATE STREET,ROCKFORD,IL,61104
8083,1000 HOSPITAL DRIVE,MCPHERSON,KS,67460
8084,1111 N RONALD REAGAN PKWY,AVON,IN,46123
8085,8201 W BROWARD BLVD,PLANTATION,FL,33324
8086,915 GORDON AVENUE & MIMOSA DRIVE,THOMASVILLE,GA,31792
8087,3100 E FLETCHER AVE,TAMPA,FL,33613
8088,351 LIBERTY STREET,WAYNESBORO,GA,30830
8089,989 MEDICAL PARK DRIVE,MAYSVILLE,KY,41056
8090,2101 E DUBOIS DR,WARSAW,IN,46580
8091,1402 E COUNTY LINE RD S,INDIANAPOLIS,IN,46227
8092,911 BYPASS ROAD,PIKEVILLE,KY,41501
8093,2000 OGDEN AVENUE,AURORA,IL,60504
8094,1499 FAIR ROAD,STATESBORO,GA,30458
8095,901 MACARTHUR BLVD,MUNSTER,IN,46321
8096,11700 N MERIDIAN ST,CARMEL,IN,46032
8097,111  SPRING STREET,STREATOR,IL,61364
8098,4500 SAN PABLO RD,JACKSONVILLE,FL,32224
8099,1000 HEALTH CENTER DRIVE P O BOX 372,MATTOON,IL,61938
8100,250 PARK STREET,BOWLING GREEN,KY,42101
8101,902 7TH STREET NORTH,CORDELE,GA,31015
8102,1850 STATE ST,NEW ALBANY,IN,47150
8103,1120 15TH STREET,AUGUSTA,GA,30912
8104,316 NORTH BROAD STREET,WINDER,GA,30680
8105,5215 HOLY CROSS PKWY,MISHAWAKA,IN,46545
8106,1314 E WALNUT ST,WASHINGTON,IN,47501
8107,14000 FIVAY RD,HUDSON,FL,34667
8108,1301 PUNCHBOWL ST,HONOLULU,HI,96813
8109,7435 W TALCOTT AVENUE,CHICAGO,IL,60631
8110,3700 WASHINGTON AVE,EVANSVILLE,IN,47750
8111,5409 N KNOXVILLE AVE,PEORIA,IL,61614
8112,777 HOSPITAL WAY,POCATELLO,ID,83201
8113,1823 COLLEGE AVE,MANHATTAN,KS,66502
8114,615 N MICHIGAN ST,SOUTH BEND,IN,46601
8115,2320 E 93RD ST,CHICAGO,IL,60617
8116,403 E 1ST ST,DIXON,IL,61021
8117,1301 NORTH RACE STREET,GLASGOW,KY,42141
8118,3500 S LAFOUNTAIN ST,KOKOMO,IN,46902
8119,1133 EAGLE'S LANDING PARKWAY,STOCKBRIDGE,GA,30281
8120,530 NE GLEN OAK AVE,PEORIA,IL,61637
8121,1740 WEST TAYLOR ST SUITE 1400,CHICAGO,IL,60612
8122,711 MARSHALL STREET,LEAVENWORTH,KS,66048
8123,6500 NEWBERRY RD,GAINESVILLE,FL,32605
8124,700 BROADWAY,FORT WAYNE,IN,46802
8125,3131 THOMASVILLE HWY BOX 40,MOULTRIE,GA,31768
8126,ONE INGALLS DRIVE,HARVEY,IL,60426
8127,5352 LINTON BLVD,DELRAY BEACH,FL,33484
8128,333 N MADISON,JOLIET,IL,60435
8129,ONE MEMORIAL DRIVE,ALTON,IL,62002
8130,"200 PERRY HOUSE ROAD, BOX 1447",FITZGERALD,GA,31750
8131,395 WESTFIELD RD,NOBLESVILLE,IN,46060
8132,11109 PARKVIEW PLAZA DRIVE,FORT WAYNE,IN,46845
8133,"1412 MILSTEAD AVENUE, NE",CONYERS,GA,30012
8134,1701 N SENATE BLVD,INDIANAPOLIS,IN,46202
8135,901 GRIFFIN AVE,EASTMAN,GA,31023
8136,802 KENYON RD,FORT DODGE,IA,50501
8137,720 W CENTRAL ST,EL DORADO,KS,67042
8138,601 W SECOND ST,BLOOMINGTON,IN,47403
8139,200 EAST CHESTNUT STREET,LOUISVILLE,KY,40202
8140,450 WEST HIGHWAY 22,BARRINGTON,IL,60010
8141,5666 EAST STATE STREET,ROCKFORD,IL,61108
8142,1210 KY HWY 36 E,CYNTHIANA,KY,41031
8143,1227 EAST RUSHOLME STREET,DAVENPORT,IA,52803
8144,445 N HILLTOP,ELKHART,KS,67950
8145,743 SPRING STREET,GAINESVILLE,GA,30501
8146,3901 S SEVENTH ST,TERRE HAUTE,IN,47802
8147,304 TURNER MCCALL BLVD P O BOX 233,ROME,GA,30162
8148,6800 STATE ROUTE 162,MARYVILLE,IL,62062
8149,929 NORTH ST FRANCIS STREET,WICHITA,KS,67214
8150,520 S 7TH ST,VINCENNES,IN,47591
8151,"1000 JOHNSON FERRY ROAD, NE",ATLANTA,GA,30342
8152,2650 RIDGE AVE,EVANSTON,IL,60201
8153,1700 MEDICAL WAY,SNELLVILLE,GA,30078
8154,3100 CHANNING WAY,IDAHO FALLS,ID,83404
8155,367 CLEAR CREEK PARKWAY,LAVONIA,GA,30553
8156,1701 S CREASY LN,LAFAYETTE,IN,47905
8157,1500 S LAKE PARK AVE,HOBART,IN,46342
8158,1026 A AVE NE,CEDAR RAPIDS,IA,52402
8159,1250 S 18TH ST,FERNANDINA BEAC,FL,32034
8160,803 POPLAR STREET,MURRAY,KY,42071
8161,1309 N FLAGLER DR,WEST PALM BEACH,FL,33401
8162,1100 REID PKWY,RICHMOND,IN,47374
8163,1055 NORTH CURTIS ROAD,BOISE,ID,83706
8164,1710 LAFAYETTE RD,CRAWFORDSVILLE,IN,47933
8165,4321 FIR ST,EAST CHICAGO,IN,46312
8166,155 EAST BRUSH HILL ROAD,ELMHURST,IL,60126
8167,217 SOUTH THIRD STREET,DANVILLE,KY,40422
8168,2301 HIGHWAY 71,SPIRIT LAKE,IA,51360
8169,1515 N MADISON AVE,ANDERSON,IN,46011
8170,441 N WABASH AVE,MARION,IN,46952
8171,5721 WEST 119TH STREET,OVERLAND PARK,KS,66209
8172,1907 W SYCAMORE ST,KOKOMO,IN,46904
8173,5445 AVE O,FORT MADISON,IA,52627
8174,1220 MISSOURI AVE,JEFFERSONVILLE,IN,47130
8175,5126 HOSPITAL DRIVE NE,COVINGTON,GA,30014
8176,933 EAST PIERCE STREET,COUNCIL BLUFFS,IA,51503
8177,55 FOUNDATION DRIVE,FLEMINGSBURG,KY,41041
8178,1007 LINCOLNWAY,LA PORTE,IN,46350
8179,888 SO KING STREET,HONOLULU,HI,96813
8180,9515 HOLY CROSS LN,BREESE,IL,62230
8181,5454 HOHMAN AVE,HAMMOND,IN,46320
8182,5841 SOUTH MARYLAND,CHICAGO,IL,60637
8183,200 ABRAHAM FLEXNER WAY,LOUISVILLE,KY,40202
8184,100 DOCTOR WARREN TUTTLE DR,HARRISBURG,IL,62946
8185,1125 W JEFFERSON ST,FRANKLIN,IN,46131
8186,400 MAPLE SUMMIT ROAD,JERSEYVILLE,IL,62052
8187,13500 N MERIDIAN ST,CARMEL,IN,46032
8188,8 DOCTORS PARK ROAD,MOUNT VERNON,IL,62864
8189,210 WEST WALNUT STREET,CANTON,IL,61520
8190,200 INDUSTRIAL BOULEVARD,DUBLIN,GA,31021
8191,801 S MILWAUKEE AVE,LIBERTYVILLE,IL,60048
8192,705 DIXIE STREET,CARROLLTON,GA,30117
8193,611 WEST PARK STREET,URBANA,IL,61801
8194,1555 N BARRINGTON RD,HOFFMAN ESTATES,IL,60194
8195,1700 OLD LEBANON ROAD,CAMPBELLSVILLE,KY,42718
8196,2415 PARKWOOD DRIVE,BRUNSWICK,GA,31520
8197,3815 HIGHLAND AVENUE,DOWNERS GROVE,IL,60515
8198,"1364 CLIFTON ROAD, NE",ATLANTA,GA,30322
8199,550 PEACHTREE ST NE,ATLANTA,GA,30308
8200,ONE KISH HOSPITAL DRIVE,DEKALB,IL,60115
8201,1653 WEST CONGRESS PARKWAY,CHICAGO,IL,60612
8202,801 POLE LINE ROAD WEST,TWIN FALLS,ID,83301
8203,6325 HOSPITAL PARKWAY,JOHNS CREEK,GA,30097
8204,1225 LAKE ST,MELROSE PARK,IL,60160
8205,17800 S KEDZIE AVE,HAZEL CREST,IL,60429
8206,200 HAWKINS DRIVE,IOWA CITY,IA,52242
8207,2233 W DIVISION ST,CHICAGO,IL,60622
8208,745 POPLAR ROAD,NEWNAN,GA,30265
8209,ST ANTHONY'S WAY,ALTON,IL,62002
8210,2160 S 1ST AVENUE,MAYWOOD,IL,60153
8211,2801 DEKALB MEDICAL PARKWAY,LITHONIA,GA,30058
8212,222 MEDICAL CIRCLE,MOREHEAD,KY,40351
8213,24 JOLIET ST,DYER,IN,46311
8214,1101 MICHIGAN AVE,LOGANSPORT,IN,46947
8215,417 THIRD AVENUE,ALBANY,GA,31703
8216,8330 LAKEWOOD RANCH BLVD,BRADENTON,FL,34202
8217,800 W CENTRAL ROAD,ARLINGTON HEIGH,IL,60005
8218,1255 HIGHWAY 54 WEST,FAYETTEVILLE,GA,30214
8219,500 W COURT ST,KANKAKEE,IL,60901
8220,5645 W ADDISON,CHICAGO,IL,60634
8221,2323 9TH AVE N,SAINT PETERSBUR,FL,33713
8222,720 ESKENAZI AVENUE,INDIANAPOLIS,IN,46202
8223,150 W WASHINGTON ST,SHELBYVILLE,IN,46176
8224,25 NORTH WINFIELD ROAD,WINFIELD,IL,60190
8225,1230 BAXTER STREET,ATHENS,GA,30606
8226,701 10TH STREET SE,CEDAR RAPIDS,IA,52403
8227,701 WINTHROP AVENUE,GLENDALE HEIGHT,IL,60139
8228,850 W IRVING PARK RD,CHICAGO,IL,60613
8229,13681 DOCTOR'S WAY,FORT MYERS,FL,33912
8230,2400 NORTH ROCKTON AVENUE,ROCKFORD,IL,61103
8231,7950 W JEFFERSON BLVD,FORT WAYNE,IN,46804
8232,1210 S OLD DIXIE HWY,JUPITER,FL,33458
8233,4500 UTICA RIDGE ROAD,BETTENDORF,IA,52722
8234,925 WEST ST,PERU,IL,61354
8235,1700 SW 7TH STREET,TOPEKA,KS,66606
8236,801 SOUTH WASHINGTON,NAPERVILLE,IL,60540
8237,1000 SAINT CHRISTOPHER DRIVE,ASHLAND,KY,41101
8238,201 S 14TH ST,HERRIN,IL,62948
8239,4440 W 95TH STREET,OAK LAWN,IL,60453
8240,801 5TH ST,SIOUX CITY,IA,51101
8241,1900 TEBEAU STREET,WAYCROSS,GA,31501
8242,1900 SILVER CROSS BLVD,NEW LENOX,IL,60451
8243,3421 WEST NINTH STREET,WATERLOO,IA,50702
8244,20201 S CRAWFORD AVENUE,OLYMPIA FIELDS,IL,60461
8245,300 RANDALL RD,GENEVA,IL,60134
8246,640 ULUKAHIKI ST,KAILUA,HI,96734
8247,401 WOODLAND HILLS BLVD,FORT SCOTT,KS,66701
8248,221 N E GLEN OAK AVE,PEORIA,IL,61636
8249,801 W GORDON STREET,THOMASTON,GA,30286
8250,1350 WALTON WAY,AUGUSTA,GA,30901
8251,1044 N FRANCISCO AVE,CHICAGO,IL,60622
8252,1800 E LAKE SHORE DR,DECATUR,IL,62521
8253,"80 JESSE HILL, JR DRIVE SE",ATLANTA,GA,30303
8254,1305 N ELM ST,HENDERSON,KY,42420
8255,1200 MEMORIAL DRIVE,DALTON,GA,30720
8256,5025 N PAULINA STREET,CHICAGO,IL,60640
8257,910 WALLACE AVENUE,LEITCHFIELD,KY,42754
8258,1530 LONE OAK ROAD,PADUCAH,KY,42003
8259,1201 PLEASANT VALLEY ROAD,OWENSBORO,KY,42303
8260,1000 MEDICAL CENTER BOULEVARD,LAWRENCEVILLE,GA,30045
8261,2201 LEXINGTON AVENUE,ASHLAND,KY,41101
8262,2325 CORONADO STREET,IDAHO FALLS,ID,83404
8263,401 NW 42ND AVE,PLANTATION,FL,33317
8264,211 S THIRD ST,BELLEVILLE,IL,62220
8265,2003 KOOTENAI HEALTH WAY,COEUR D'ALENE,ID,83814
8266,2000 DAN PROCTOR DRIVE,SAINT MARYS,GA,31558
8267,350 N WALL ST,KANKAKEE,IL,60901
8268,3625 UNIVERSITY BLVD S,JACKSONVILLE,FL,32216
8269,1110 GULF BREEZE PKWY,GULF BREEZE,FL,32561
8270,4500 MEMORIAL DRIVE,BELLEVILLE,IL,62226
8271,400 NORTH PLEASANT AVENUE,CENTRALIA,IL,62801
8272,3333 W DE YOUNG,MARION,IL,62959
8273,6245 INKSTER RD,GARDEN CITY,MI,48135
8274,1105 SIXTH STREET,TRAVERSE CITY,MI,49684
8275,500 W BROADWAY,MISSOULA,MT,59806
8276,4100 RIVER RD,EAST CHINA,MI,48054
8277,16001 W NINE MILE RD,SOUTHFIELD,MI,48075
8278,100 MEDICAL PLAZA,LAKE SAINT LOUI,MO,63367
8279,201 NW R D MIZE RD,BLUE SPRINGS,MO,64014
8280,1101 MEDICAL CENTER BLVD,MARRERO,LA,70072
8281,2800 10TH AVE N,BILLINGS,MT,59101
8282,"5900 BYRON CENTER AVENUE, SW",WYOMING,MI,49519
8283,4050 COON RAPIDS BLVD,COON RAPIDS,MN,55433
8284,1215 E MICHIGAN AVENUE,LANSING,MI,48912
8285,2301 HOLMES STREET,KANSAS CITY,MO,64108
8286,1000 HARRINGTON BLVD,MOUNT CLEMENS,MI,48043
8287,17000 MEDICAL CENTER DR,BATON ROUGE,LA,70816
8288,17065 S 71 HIGHWAY,BELTON,MO,64012
8289,35 MEDICAL CENTER PARKWAY,AUGUSTA,ME,4330
8290,1100 E MICHIGAN AVE,GRAYLING,MI,49738
8291,6420 CLAYTON RD,RICHMOND HEIGHT,MO,63117
8292,2500 BELLEVUE MEDICAL CENTER DR,BELLEVUE,NE,68123
8293,200 N MADISON,MARSHALL,MI,49068
8294,915 EAST 1ST STREET,DULUTH,MN,55805
8295,350 CROSSGATES BLVD,BRANDON,MS,39042
8296,723 BURKESVILLE ROAD,ALBANY,KY,42602
8297,401 W GREENLAWN AVE,LANSING,MI,48910
8298,401 S BALLENGER HIGHWAY,FLINT,MI,48532
8299,725 NORTH STREET,PITTSFIELD,MA,1201
8300,795 MIDDLE STREET,FALL RIVER,MA,2721
8301,115 LINCOLN STREET,FRAMINGHAM,MA,1701
8302,1008 NORTH MAIN ST,SIKESTON,MO,63801
8303,250 PLEASANT ST,CONCORD,NH,3301
8304,1212 WEBER RD,FARMINGTON,MO,63640
8305,1740 NICHOLASVILLE ROAD,LEXINGTON,KY,40503
8306,55 LAKE AVENUE NORTH,WORCESTER,MA,1655
8307,4200 HOUMA BLVD,METAIRIE,LA,70006
8308,22101 MOROSS RD,DETROIT,MI,48236
8309,1600 E BROADWAY,COLUMBIA,MO,65201
8310,1105 EARL FRYE BLVD,AMORY,MS,38821
8311,6900 N DURANGO DR,LAS VEGAS,NV,89149
8312,524 DR MICHAEL DEBAKEY STREET,LAKE CHARLES,LA,70601
8313,50 UNION STREET,ELLSWORTH,ME,4605
8314,"525 BRANSON LANDING BLVD, PO BOX 650",BRANSON,MO,65615
8315,1101 W LIBERTY,FARMINGTON,MO,63640
8316,2475 BROADWAY,HELENA,MT,59601
8317,2001 ERRECART BLVD,ELKO,NV,89801
8318,1415 TULANE AVE,NEW ORLEANS,LA,70112
8319,2520 5TH ST N,COLUMBUS,MS,39701
8320,801 EAST WILLIAMS AVENUE,FALLON,NV,89406
8321,2450 RIVERSIDE AVENUE,MINNEAPOLIS,MN,55454
8322,400 HOSPITAL ROAD,STARKVILLE,MS,39759
8323,2500 N STATE ST,JACKSON,MS,39216
8324,3330 MASONIC DRIVE,ALEXANDRIA,LA,71301
8325,2700 WEST NORFOLK AVE,NORFOLK,NE,68701
8326,85 HERRICK STREET,BEVERLY,MA,1915
8327,1900 COLUMBUS AVE,BAY CITY,MI,48708
8328,"ONE HOSPITAL DRIVE, ROOM CE121, DC031,00",COLUMBIA,MO,65212
8329,1009 W GREEN ST,HASTINGS,MI,49058
8330,1153 CENTRE STREET,BOSTON,MA,2130
8331,200 JEFFERSON AVENUE SE,GRAND RAPIDS,MI,49503
8332,468 CADIEUX RD,GROSSE POINTE,MI,48230
8333,825 N CENTER AVE,GAYLORD,MI,49735
8334,3990 JOHN R STREET,DETROIT,MI,48201
8335,52 SERGEANT PRENTISS DRIVE,NATCHEZ,MS,39120
8336,3601 W THIRTEEN MILE RD,ROYAL OAK,MI,48073
8337,1 BOSTON MEDICAL CENTER PLACE,BOSTON,MA,2118
8338,303 MEDICAL CENTER DRIVE,BATESVILLE,MS,38606
8339,7500 SOUTH 91ST ST,LINCOLN,NE,68526
8340,12303 DEPAUL DRIVE,BRIDGETON,MO,63044
8341,1099 MEDICAL CENTER CIRCLE,MAYFIELD,KY,42066
8342,2075 EAST FLAMINGO ROAD,LAS VEGAS,NV,89119
8343,1411 9TH ST S,GREAT FALLS,MT,59405
8344,615 S BOWER STREET,GREENVILLE,MI,48838
8345,503 MCMILLAN ROAD,WEST MONROE,LA,71291
8346,1 N ATKINSON DRIVE,LUDINGTON,MI,49431
8347,6300 MAIN STREET,ZACHARY,LA,70791
8348,207 JEFFERSON STREET,MANSFIELD,LA,71052
8349,30 LOCUST STREET,NORTHAMPTON,MA,1060
8350,620 SHADOW LANE,LAS VEGAS,NV,89106
8351,800 WASHINGTON STREET,BOSTON,MA,2111
8352,88 LEWIS BAY ROAD,HYANNIS,MA,2601
8353,2800 CLAY EDWARDS DRIVE,NORTH KANSAS CI,MO,64116
8354,1001 GAUSE BLVD,SLIDELL,LA,70458
8355,200 HEMLOCK,TAWAS CITY,MI,48764
8356,718 N MACOMB ST,MONROE,MI,48162
8357,129 JEFFERSON DAVIS BLVD BOX 1203,NATCHEZ,MS,39120
8358,28050 GRAND RIVER AVENUE,FARMINGTON HILL,MI,48336
8359,1220 JEFFERSON ST BOX 607,LAUREL,MS,39440
8360,5301 E HURON RIVER DR,ANN ARBOR,MI,48106
8361,14 PROSPECT STREET,MILFORD,MA,1757
8362,830 S GLOSTER,TUPELO,MS,38801
8363,2100 DORCHESTER AVENUE,BOSTON,MA,2124
8364,200 KENNEDY MEMORIAL DRIVE,WATERVILLE,ME,4901
8365,5830 N W BARRY ROAD,KANSAS CITY,MO,64154
8366,1125 MADISON ST,JEFFERSON CITY,MO,65102
8367,75 FRANCIS STREET,BOSTON,MA,2115
8368,1301 FIRST ST,KENNETT,MO,63857
8369,1100 KENTUCKY AVE,WEST PLAINS,MO,65775
8370,6071 W OUTER DRIVE,DETROIT,MI,48235
8371,6500 EXCELSIOR BLVD,SAINT LOUIS PAR,MN,55426
8372,10 HOSPITAL DR,SAINT PETERS,MO,63376
8373,11111 SOUTH 84TH ST,PAPILLION,NE,68046
8374,680 CENTER STREET,BROCKTON,MA,2302
8375,2305 S 65 HIGHWAY,MARSHALL,MO,65340
8376,775 S MAIN ST,CHELSEA,MI,48118
8377,1515 UNION AVE,MOBERLY,MO,65270
8378,987400 NEBRASKA MEDICAL CENTER,OMAHA,NE,68198
8379,4401 WORNALL ROAD,KANSAS CITY,MO,64111
8380,30 13TH ST,HAVRE,MT,59501
8381,403 BURKARTH ROAD,WARRENSBURG,MO,64093
8382,1925 WOODWINDS DRIVE,WOODBURY,MN,55125
8383,200 HWY 30 WEST,NEW ALBANY,MS,38652
8384,41 & 45 MALL ROAD,BURLINGTON,MA,1803
8385,18101 OAKWOOD BLVD,DEARBORN,MI,48124
8386,3186 S MARYLAND PKWY,LAS VEGAS,NV,89109
8387,1447 N HARRISON,SAGINAW,MI,48602
8388,2345 DOUGHERTY FERRY ROAD,SAINT LOUIS,MO,63122
8389,1214 COOLIDGE AVENUE,LAFAYETTE,LA,70503
8390,148 CHESTNUT STREET,NEEDHAM,MA,2494
8391,295 VARNUM AVENUE,LOWELL,MA,1854
8392,7900 LEE'S SUMMIT RD,KANSAS CITY,MO,64139
8393,1025 NEW MOODY LANE,LA GRANGE,KY,40031
8394,111 FRANKLIN HEALTH COMMONS,FARMINGTON,ME,4938
8395,5400 SOUTH RAINBOW BLVD,LAS VEGAS,NV,89118
8396,330 MOUNT AUBURN STREET,CAMBRIDGE,MA,2138
8397,1721 S STEPHENSON AVE,IRON MOUNTAIN,MI,49801
8398,1314 19TH AVE,MERIDIAN,MS,39301
8399,1000 W 10TH ST,ROLLA,MO,65401
8400,44201 DEQUINDRE ROAD,TROY,MI,48085
8401,211 ST FRANCIS DR,CAPE GIRARDEAU,MO,63703
8402,100 ST MARY'S MEDICAL PLAZA,JEFFERSON CITY,MO,65101
8403,11 WHITEHALL ROAD,ROCHESTER,NH,3867
8404,3015 N BALLAS RD,TOWN AND COUNTR,MO,63131
8405,211 4TH STREET,ALEXANDRIA,LA,71301
8406,835 MEDICAL CENTER DR,WEST POINT,MS,39773
8407,1600 E EVERGREEN,CAMERON,MO,64429
8408,2799 W GRAND BLVD,DETROIT,MI,48202
8409,1401 FOUCHER STREET,NEW ORLEANS,LA,70115
8410,5000 HENNESSY BLVD,BATON ROUGE,LA,70808
8411,"1500 E MEDICAL CENTER DRIVE, SPC 5474",ANN ARBOR,MI,48109
8412,168 S HOWELL STREET,HILLSDALE,MI,49242
8413,800 WASHINGTON STREET,NORWOOD,MA,2062
8414,1600 MEDICAL PARKWAY,CARSON CITY,NV,89703
8415,416 CONNABLE AVE,PETOSKEY,MI,49770
8416,1225 N STATE ST,JACKSON,MS,39202
8417,ONE BARNES-JEWISH HOSPITAL PLAZA,SAINT LOUIS,MO,63110
8418,1 MEDICAL CENTER DRIVE,BIDDEFORD,ME,4005
8419,2817 ST JOHNS BLVD,JOPLIN,MO,64804
8420,1850 CHADWICK DR,JACKSON,MS,39204
8421,1777 CURTIS DRIVE,IUKA,MS,38852
8422,1400 HIGHWAY 61 SOUTH,CRYSTAL CITY,MO,63019
8423,1030 RIVER OAKS DRIVE,FLOWOOD,MS,39232
8424,759 CHESTNUT STREET,SPRINGFIELD,MA,1199
8425,15855 NINETEEN MILE RD,CLINTON TOWNSHI,MI,48038
8426,800 EAST 28TH STREET,MINNEAPOLIS,MN,55407
8427,12634 OLIVE BOULEVARD,CREVE COEUR,MO,63141
8428,8 PROSPECT STREET,NASHUA,NH,3060
8429,1101 26TH ST S,GREAT FALLS,MT,59405
8430,601 E 14TH ST,SEDALIA,MO,65302
8431,701 EAST CYPRESS STREET,SULPHUR,LA,70663
8432,80 HIGHLAND ST,LACONIA,NH,3246
8433,1541 KINGS HIGHWAY,SHREVEPORT,LA,71103
8434,1801 ASHLEY CIRCLE,BOWLING GREEN,KY,42104
8435,149 DRINKWATER BLVD,BAY SAINT LOUIS,MS,39521
8436,901 EAST 5TH STREET,WASHINGTON,MO,63090
8437,1500 N OAKLAND,BOLIVAR,MO,65613
8438,1002 EAST MADISON STREET,HOUSTON,MS,38851
8439,300 3RD AVE SE,MAGEE,MS,39111
8440,1234 NAPIER AVENUE,ST JOSEPH,MI,49085
8441,55 FRUIT STREET,BOSTON,MA,2114
8442,1309 SHELDON RD,GRAND HAVEN,MI,49417
8443,400 MEDICAL PARK DR,WATERVLIET,MI,49098
8444,111 17TH AVENUE EAST,ALEXANDRIA,MN,56308
8445,"P O BOX 1990, 10 EAST 31ST ST",KEARNEY,NE,68848
8446,235 NORTH PEARL STREET,BROCKTON,MA,2301
8447,4500 13TH ST-P O BOX 1810,GULFPORT,MS,39502
8448,1516 JEFFERSON HWY,NEW ORLEANS,LA,70121
8449,200 GROTON ROAD,AYER,MA,1432
8450,1100 SOUTH VAN DYKE ROAD,BAD AXE,MI,48413
8451,100 SOUTH STREET,SOUTHBRIDGE,MA,1550
8452,2124 14 ST,MERIDIAN,MS,39301
8453,271 CAREW STREET,SPRINGFIELD,MA,1104
8454,601 JOHN STREET 42,KALAMAZOO,MI,49007
8455,1400 E UNION ST,GREENVILLE,MS,38704
8456,PO BOX 404,BANGOR,ME,4401
8457,6051 US HIGHWAY 49,HATTIESBURG,MS,39404
8458,8303 DODGE ST,OMAHA,NE,68114
8459,818 RIVERSIDE AVENUE,ADRIAN,MI,49221
8460,5325 FARAON STREET,SAINT JOSEPH,MO,64506
8461,16901 LAKESIDE HILLS CT,OMAHA,NE,68130
8462,1375 N MAIN ST,LAPEER,MI,48446
8463,55 FOGG ROAD,SOUTH WEYMOUTH,MA,2190
8464,3600 FLORIDA STREET,BATON ROUGE,LA,70806
8465,601 WEST LEOTA ST,NORTH PLATTE,NE,69101
8466,70 MEDICAL PLAZA,EUPORA,MS,39744
8467,36475 FIVE MILE ROAD,LIVONIA,MI,48154
8468,1601 GOLF COURSE ROAD,GRAND RAPIDS,MN,55744
8469,161 RIVER OAKS DRIVE,CANTON,MS,39046
8470,100 MICHIGAN ST NE,GRAND RAPIDS,MI,49503
8471,1 ELLIOT WAY,MANCHESTER,NH,3103
8472,2301 SOUTH LAMAR,OXFORD,MS,38655
8473,300 1ST CAPITOL DR,SAINT CHARLES,MO,63301
8474,2100 HWY 61 N,VICKSBURG,MS,39183
8475,7601 SOUTHCREST PARKWAY,SOUTHAVEN,MS,38671
8476,81 HIGHLAND AVENUE,SALEM,MA,1970
8477,123 MEDICAL CENTER DRIVE,BRUNSWICK,ME,4011
8478,2375 PRATER WAY,SPARKS,NV,89434
8479,309 JACKSON STREET,MONROE,LA,71201
8480,CAMPUS AVENUE - PO BOX 291 (HOSPITAL),LEWISTON,ME,4240
8481,1701 LACEY ST,CAPE GIRARDEAU,MO,63701
8482,1000 CARONDELET DR,KANSAS CITY,MO,64114
8483,1401 RIVER RD / PO BOX 1410,GREENWOOD,MS,38930
8484,211 PARK STREET,ATTLEBORO,MA,2703
8485,201 EAST NICOLLET BOULEVARD,BURNSVILLE,MN,55337
8486,15 HOSPITAL DRIVE,YORK,ME,3909
8487,88 WASHINGTON STREET,TAUNTON,MA,2780
8488,ONE GENESYS PARKWAY,GRAND BLANC,MI,48439
8489,1155 MILL STREET,RENO,NV,89502
8490,275 SANDWICH STREET,PLYMOUTH,MA,2360
8491,333 NORTH SMITH AVENUE,SAINT PAUL,MN,55102
8492,7500 MERCY RD,OMAHA,NE,68124
8493,539 EAST PRUDHOMME STREET,OPELOUSAS,LA,70570
8494,927 WEST CHURCHILL STREET,STILLWATER,MN,55082
8495,232 S WOODS MILL RD,CHESTERFIELD,MO,63017
8496,"800 MEDICAL CENTER DRIVE, PO BOX 800",FAIRMONT,MN,56031
8497,911 NORTHLAND DR,PRINCETON,MN,55371
8498,3300 OAKDALE NORTH,ROBBINSDALE,MN,55422
