21499,445 LENOX ROAD,BROOKLYN,NY,11203
21500,240 MEETING HOUSE LANE,SOUTHAMPTON,NY,11968
21501,3404 SYLVANIA AVENUE,TOLEDO,OH,43623
21502,3130 NORTH COUNTY ROAD 25A,TROY,OH,45373
21503,4295 HEMPSTEAD TURNPIKE,BETHPAGE,NY,11714
21504,2801 BAY PARK DRIVE,OREGON,OH,43616
21505,7700 UNIVERSITY DRIVE,WEST CHESTER,OH,45069
21506,888 OLD COUNTRY ROAD,PLAINVIEW,NY,11803
21507,4000 MIAMISBURG-CENTERVILLE ROAD,MIAMISBURG,OH,45342
21508,3000 HOSPITAL DRIVE,BATAVIA,OH,45103
21509,300 SECOND AVENUE,LONG BRANCH,NJ,7740
21510,101 DATES DRIVE,ITHACA,NY,14850
21511,1341 NORTH CLARK STREET,CAMBRIDGE,OH,43725
21512,1320 WEST MAIN STREET,NEWARK,OH,43055
21513,270 PARK AVENUE,HUNTINGTON,NY,11743
21514,1600 HADDON AVENUE,CAMDEN,NJ,8103
21515,14519 DETROIT AVENUE,LAKEWOOD,OH,44107
21516,1400 EAST DOWNING STREET,TAHLEQUAH,OK,74465
21517,380 SUMMIT AVENUE,STEUBENVILLE,OH,43952
21518,41 EAST POST R0AD,WHITE PLAINS,NY,10601
21519,1801 WEST 3RD STREET,ELK CITY,OK,73644
21520,561 WEST CENTRAL AVENUE,DELAWARE,OH,43015
21521,5901 MONCLOVA ROAD,MAUMEE,OH,43537
21522,1000 MONTAUK HIGHWAY,WEST ISLIP,NY,11795
21523,1656 CHAMPLIN AVENUE,UTICA,NY,13503
21524,205 PALMER AVENUE,BELLEFONTAINE,OH,43311
21525,195 WADSWORTH ROAD,WADSWORTH,OH,44281
21526,355 GRAND STREET,JERSEY CITY,NJ,7302
21527,210 NORTH MAIN STREET,LONDON,OH,43140
21528,218A SUNSET ROAD,WILLINGBORO,NJ,8046
21529,9500 EUCLID AVENUE,CLEVELAND,OH,44195
21530,565 ABBOTT ROAD,BUFFALO,NY,14220
21531,610 WEST MAIN STREET,WILMINGTON,OH,45177
21532,179 NORTH BROAD STREET,NORWICH,NY,13815
21533,3700 KOLBE ROAD,LORAIN,OH,44053
21534,175 HIGH ST,NEWTON,NJ,7860
21535,1323 WEST 6TH STREET,STILLWATER,OK,74076
21536,600 NORTH PICKAWAY STREET,CIRCLEVILLE,OH,43113
21537,670 STONELEIGH AVENUE,CARMEL,NY,10512
21538,111 DRIVING PARK AVENUE,NEWARK,NY,14513
21539,2700 WAYNE MEMORIAL DR,GOLDSBORO,NC,27534
21540,3000 MACK ROAD,FAIRFIELD,OH,45014
21541,535 EAST 70TH STREET,NEW YORK,NY,10021
21542,667 EASTLAND AVE SE,WARREN,OH,44481
21543,1945 RTE 33,NEPTUNE,NJ,7754
21544,272 HOSPITAL ROAD,CHILLICOTHE,OH,45601
21545,355 BARD AVENUE,STATEN ISLAND,NY,10304
21546,1980 CROMPOND ROAD,CORTLANDT MANOR,NY,10567
21547,94 OLD SHORT HILLS ROAD,LIVINGSTON,NJ,7039
21548,7600 RIVER RD,NORTH BERGEN,NJ,7047
21549,1000 EAST WASHINGTON STREET,MEDINA,OH,44256
21550,333 BORTHWICK AVE,PORTSMOUTH,NH,3801
21551,5100 WEST  BROAD STREET,COLUMBUS,OH,43228
21552,70 DUBOIS STREET,NEWBURGH,NY,12550
21553,1120 SOUTH UTICA AVENUE,TULSA,OK,74104
21554,875 EIGHTH STREET NE,MASSILLON,OH,44646
21555,2201 HEMPSTEAD TURNPIKE,EAST MEADOW,NY,11554
21556,1900 23RD STREET,CUYAHOGA FALLS,OH,44223
21557,701 NORTH BROADWAY,SLEEPY HOLLOW,NY,10591
21558,TWO STONE HARBOR BLVD,CAPE MAY COURT,NJ,8210
21559,401 MATTHEW STREET,MARIETTA,OH,45750
21560,1000 NORTH VILLAGE AVENUE,ROCKVILLE CENTR,NY,11570
21561,90 NORTH FOURTH STREET,MARTINS FERRY,OH,43935
21562,254 EASTON AVE,NEW BRUNSWICK,NJ,8901
21563,12300 MCCRACKEN ROAD,GARFIELD HEIGHT,OH,44125
21564,500 GYPSY LANE,YOUNGSTOWN,OH,44501
21565,3999 RICHMOND ROAD,BEACHWOOD,OH,44122
21566,225 WILLIAMSON STREET,ELIZABETH,NJ,7207
21567,11100 EUCLID AVENUE,CLEVELAND,OH,44106
21568,200 BELLE TERRE ROAD,PORT JEFFERSON,NY,11777
21569,375 DIXMYTH AVENUE,CINCINNATI,OH,45220
21570,6780 MAYFIELD ROAD,MAYFIELD HEIGHT,OH,44124
21571,10500 MONTGOMERY ROAD,CINCINNATI,OH,45242
21572,2209 GENESEE STREET,UTICA,NY,13501
21573,45 READE PLACE,POUGHKEEPSIE,NY,12601
21574,6511 SPRINGBROOK AVENUE,RHINEBECK,NY,12572
21575,630 EATON AVENUE,HAMILTON,OH,45013
21576,501 WEST FRONT STREET,ELMER,NJ,8318
21577,200 EAST STATE STREET,ALLIANCE,OH,44601
21578,750 EAST ADAMS STREET,SYRACUSE,NY,13210
21579,500 LONDON AVENUE,MARYSVILLE,OH,43040
21580,2220 IOWA STREET,CHICKASHA,OK,73018
21581,2420 LAKE AVENUE,ASHTABULA,OH,44004
21582,1320 MERCY DRIVE NW,CANTON,OH,44708
21583,29000 CENTER RIDGE ROAD,WESTLAKE,OH,44145
21584,433 WEST HIGH STREET,BRYAN,OH,43506
21585,2222 PHILADELPHIA DRIVE,DAYTON,OH,45406
21586,89TH AVENUE AND VAN WYCK EXPRESSWAY,JAMAICA,NY,11418
21587,335 GLESSNER AVENUE,MANSFIELD,OH,44903
21588,111  CLARA BARTON STREET,DANSVILLE,NY,14437
21589,425 HOME STREET,GEORGETOWN,OH,45121
21590,2213 CHERRY STREET,TOLEDO,OH,43608
21591,1027 EAST CHERRY STREET,CUSHING,OK,74023
21592,29 EAST 29TH ST,BAYONNE,NJ,7002
21593,506 SIXTH STREET,BROOKLYN,NY,11215
21594,1460 ORANGE STREET,COSHOCTON,OH,43812
21595,1400 WEST MAIN STREET,BELLEVUE,OH,44811
21596,7590 AUBURN ROAD,CONCORD,OH,44077
21597,425 WEST 5TH STREET,EAST LIVERPOOL,OH,43920
21598,100 WOODS RD,VALHALLA,NY,10595
21599,4422 THIRD AVENUE,BRONX,NY,10457
21600,LINDEN BOULEVARD AT BROOKDALE PLAZA,BROOKLYN,NY,11212
21601,169 RIVERSIDE DRIVE,BINGHAMTON,NY,13905
21602,45 ST LAWRENCE DRIVE,TIFFIN,OH,44883
21603,1900 SOUTH MAIN STREET,FINDLAY,OH,45840
21604,1730 WEST 25TH STREET,CLEVELAND,OH,44113
21605,1300 MASSACHUSETTS AVENUE,TROY,NY,12180
21606,100 MEDICAL CENTER DRIVE,SPRINGFIELD,OH,45504
21607,410 WEST 10TH AVENUE,COLUMBUS,OH,43210
21608,529 CENTRAL AVENUE,DUNKIRK,NY,14048
21609,ONE-FIVE PLAINSBORO ROAD,PLAINSBORO,NJ,8536
21610,2600 SIXTH STREET SW,CANTON,OH,44710
21611,2139 AUBURN AVENUE,CINCINNATI,OH,45219
21612,1276 FULTON AVENUE,BRONX,NY,10456
21613,1555 LONG POND ROAD,ROCHESTER,NY,14626
21614,2600 NAVARRE AVENUE,OREGON,OH,43616
21615,865 STONE ST,RAHWAY,NJ,7065
21616,185 ROSEBERRY ST,PHILLIPSBURG,NJ,8865
21617,105 MARY'S AVENUE,KINGSTON,NY,12401
21618,3535 SOUTHERN BOULEVARD,KETTERING,OH,45429
21619,400 NORTH MAIN STREET,WARSAW,NY,14569
21620,6847 N CHESTNUT,RAVENNA,OH,44266
21621,18101 LORAIN AVENUE,CLEVELAND,OH,44111
21622,211 CHURCH STREET,SARATOGA SPRING,NY,12866
21623,127 SOUTH BROADWAY,YONKERS,NY,10701
21624,27100 CHARDON ROAD,RICHMOND HEIGHT,OH,44143
21625,374 STOCKHOLM STREET,BROOKLYN,NY,11237
21626,5200 HARROUN ROAD,SYLVANIA,OH,43560
21627,230 EAST RIDGEWOOD AVE,PARAMUS,NJ,7652
21628,462 GRIDER STREET,BUFFALO,NY,14215
21629,"726 EXCHANGE STREET, SUITE 522",BUFFALO,NY,14210
21630,1250 S WASHINGTON STREET,VAN WERT,OH,45891
21631,110 WEST SIXTH STREET,OSWEGO,NY,13126
21632,18697 BAGLEY ROAD,MIDDLEBURG HEIG,OH,44130
21633,2142 NORTH COVE BOULEVARD,TOLEDO,OH,43606
21634,1500 NORTH JAMES STREET,ROME,NY,13440
21635,730 WEST MARKET STREET,LIMA,OH,45801
21636,396 BROADWAY,KINGSTON,NY,12401
21637,272 BENEDICT AVENUE,NORWALK,OH,44857
21638,550 FIRST AVENUE,NEW YORK,NY,10016
21639,401 NORTH EWING STREET,LANCASTER,OH,43130
21640,5 ALUMNI DRIVE,EXETER,NH,3833
21641,600 NORTHERN BOULEVARD,ALBANY,NY,12204
21642,WHITEHORSE PIKE AND TOWNSEND AVENUE,BERLIN,NJ,8009
21643,214 KING STREET,OGDENSBURG,NY,13669
21644,800 WEST MAIN STREET,COLDWATER,OH,45828
21645,976 NORTH BROADWAY,YONKERS,NY,10701
21646,117 EAST 19TH STREET,ROSWELL,NM,88201
21647,1350 EAST MARKET STREET,WARREN,OH,44482
21648,301 EAST MAIN STREET,BAY SHORE,NY,11706
21649,100 JACKSON PIKE,GALLIPOLIS,OH,45631
21650,4311 EAST LOHMAN AVENUE,LAS CRUCES,NM,88011
21651,BAY AND HIGHLAND AVE,MONTCLAIR,NJ,7042
21652,3401 WEST GORE BLVD,LAWTON,OK,73505
21653,18901 LAKE SHORE BOULEVARD,EUCLID,OH,44119
21654,736 IRVING AVENUE,SYRACUSE,NY,13210
21655,ONE WYOMING STREET,DAYTON,OH,45409
21656,42121 US HIGHWAY 70,PORTALES,NM,88130
21657,3000 ARLINGTON AVENUE,TOLEDO,OH,43699
21658,585 SCHENECTADY AVENUE,BROOKLYN,NY,11203
21659,17 LANSING STREET,AUBURN,NY,13021
21660,110 NORTH POPLAR STREET,OXFORD,OH,45056
21661,835 SWEITZER STREET,GREENVILLE,OH,45331
21662,10501 GOLF COURSE ROAD NW,ALBUQUERQUE,NM,87114
21663,43 NEW SCOTLAND AVENUE,ALBANY,NY,12208
21664,ONE HEALTHY WAY,OCEANSIDE,NY,11572
21665,5419 N LOVINGTON HIGHWAY,HOBBS,NM,88240
21666,1330 COSHOCTON ROAD,MOUNT VERNON,OH,43050
21667,ONE CLARK BASS BOULEVARD,MCALESTER,OK,74501
21668,ONE CLARA MAAS DRIVE,BELLEVILLE,NJ,7109
21669,2430 WEST PIERCE STREET,CARLSBAD,NM,88220
21670,50 LEROY STREET,POTSDAM,NY,13676
21671,2951 MAPLE AVENUE,ZANESVILLE,OH,43701
21672,425 JACK MARTIN BLVD,BRICK,NJ,8724
21673,2351 EAST 22ND STREET,CLEVELAND,OH,44115
21674,75 BEEKMAN STREET,PLATTSBURGH,NY,12901
21675,1761 BEALL AVENUE,WOOSTER,OH,44691
21676,270 - 05 76TH AVENUE,NEW HYDE PARK,NY,11040
21677,1044 BELMONT AVENUE,YOUNGSTOWN,OH,44501
21678,793 WEST STATE STREET,COLUMBUS,OH,43222
21679,601 HAMILTON AVE,TRENTON,NJ,8629
21680,200 SAINT CLAIR STREET,SAINT MARYS,OH,45885
21681,4802 TENTH AVENUE,BROOKLYN,NY,11219
21682,950 WEST WOOSTER STREET,BOWLING GREEN,OH,43402
21683,702 N 13TH STREET,ARTESIA,NM,88210
21684,400 WABASH AVENUE,AKRON,OH,44307
21685,45TH AVENUE AND PARSONS BOULEVARD,FLUSHING,NY,11355
21686,1141 NORTH MONROE DRIVE,XENIA,OH,45385
21687,201 LYONS AVE,NEWARK,NJ,7112
21688,1111 HAYES AVENUE,SANDUSKY,OH,44870
21689,715 SOUTH TAFT AVENUE,FREMONT,OH,43420
21690,100 MCGREGOR STREET,MANCHESTER,NH,3102
21691,100 PARK STREET,GLENS FALLS,NY,12801
21692,"2100 N MARTIN LUTHER KING, JR, BLVD",CLOVIS,NM,88101
21693,3300 MERCY HEALTH BLVD,CINCINNATI,OH,45211
21694,525 EAST MARKET STREET,AKRON,OH,44309
21695,155 5TH STREET N E,BARBERTON,OH,44203
21696,5300 MILITARY ROAD,LEWISTON,NY,14092
21697,99 BEAUVOIR AVENUE,SUMMIT,NJ,7902
21698,111 SOUTH GRANT AVENUE,COLUMBUS,OH,43215
21699,1995 EAST STATE STREET,SALEM,OH,44460
21700,75 NORTH COUNTRY ROAD,PORT JEFFERSON,NY,11777
21701,1405 EAST KIRK ROAD,HUGO,OK,74743
21702,1100 CENTRAL AVENUE SE,ALBUQUERQUE,NM,87106
21703,55 HOSPITAL DRIVE,ATHENS,OH,45701
21704,915 WEST MICHIGAN STREET,SIDNEY,OH,45365
21705,500 SOUTH CLEVELAND AVENUE,WESTERVILLE,OH,43081
21706,100 PORT WASHINGTON BOULEVARD,ROSLYN,NY,11576
21707,1000 MCKINLEY PARK DRIVE,MARION,OH,43302
21708,659 BOULEVARD,DOVER,OH,44622
21709,101 ST ANDREWS LANE,GLEN COVE,NY,11542
21710,2450 SOUTH TELSHOR BLVD,LAS CRUCES,NM,88011
21711,1001 BELLEFONTAINE AVENUE,LIMA,OH,45804
21712,1000 NORTH LEE AVENUE,OKLAHOMA CITY,OK,73101
21713,2215 BURDETT AVENUE,TROY,NY,12180
21714,1805 27TH STREET,PORTSMOUTH,OH,45662
21715,4701 MONTGOMERY BOULEVARD NE,ALBUQUERQUE,NM,87109
21716,25 POCONO ROAD,DENVILLE,NJ,7834
21717,3535 OLENTANGY RIVER RD,COLUMBUS,OH,43214
21718,703 MAIN ST,PATERSON,NJ,7503
21719,134 HOMER AVENUE,CORTLAND,NY,13045
21720,ONE GUSTAVE L LEVY PLACE,NEW YORK,NY,10029
21721,1313 E 32ND ST,SILVER CITY,NM,88061
21722,234 GOODMAN STREET,CINCINNATI,OH,45219
21723,FIRST AVENUE AT 16TH STREET,NEW YORK,NY,10003
21724,1025 CENTER ST,ASHLAND,OH,44805
21725,7500 STATE ROAD,CINCINNATI,OH,45255
21726,1397 WEIMER ROAD,TAOS,NM,87571
21727,3000 32ND AVE SOUTH,FARGO,ND,58104
21728,259 FIRST STREET,MINEOLA,NY,11501
21729,2500 METROHEALTH DRIVE,CLEVELAND,OH,44109
21730,1200 S COLUMBIA RD,GRAND FORKS,ND,58201
21731,1010 SPRUCE STREET,ESPANOLA,NM,87532
21732,1000 SOUTH AVENUE,ROCHESTER,NY,14620
21733,300 N 7TH ST,BISMARCK,ND,58506
21734,110 REHILL AVE,SOMERVILLE,NJ,8876
21735,601 ELMWOOD AVE,ROCHESTER,NY,14642
21736,521 EAST AVENUE,LOCKPORT,NY,14094
21737,601 DR MARTIN LUTHER KING JR AVE NE,ALBUQUERQUE,NM,87102
21738,911 HOSPITAL DRIVE,SAYRE,OK,73662
21739,15 - 19  MAPLE AVENUE,WARWICK,NY,10990
21740,400 EAST MAIN STREET,MOUNT KISCO,NY,10549
21741,407 3RD ST SE,MINOT,ND,58701
21742,405 W COUNTRY CLUB ROAD,ROSWELL,NM,88201
21743,900 E BROADWAY,BISMARCK,ND,58501
21744,207 FOOTE AVENUE,JAMESTOWN,NY,14701
21745,475 SEAVIEW AVENUE,STATEN ISLAND,NY,10305
21746,628 E 12TH ST,WASHINGTON,NC,27889
21747,718 TEANECK RD,TEANECK,NJ,7666
21748,262 LEROY GEORGE DRIVE,CLYDE,NC,28721
21749,13207 RAVENNA RD,CHARDON,OH,44024
21750,10030 GILEAD ROAD,HUNTERSVILLE,NC,28078
21751,100 MEDICAL CENTER WAY,SOMERS POINT,NJ,8244
21752,255 LAFAYETTE AVENUE,SUFFERN,NY,10901
21753,801 WEST MAPLE STREET,FARMINGTON,NM,87401
21754,1900 KILDARE FARM ROAD,CARY,NC,27518
21755,1500 MATTHEWS TWNSHP PRKWY BOX 3310,MATTHEWS,NC,28106
21756,830 WASHINGTON STREET,WATERTOWN,NY,13601
21757,8800 NORTH TYRON STREET,CHARLOTTE,NC,28262
21758,97 WEST PARKWAY,POMPTON PLAINS,NJ,7444
21759,615 RIDGE RD,ROXBORO,NC,27573
21760,1 MEDICAL CENTER DR  PO BOX 139,SUPPLY,NC,28462
21761,2669 NORTH SCENIC DRIVE,ALAMOGORDO,NM,88310
21762,3643 N ROXBORO ROAD,DURHAM,NC,27704
21763,1101 NOTT STREET,SCHENECTADY,NY,12308
21764,250 SMITH CHURCH RD,ROANOKE RAPIDS,NC,27870
21765,104 LEGION DRIVE,LAS VEGAS,NM,87701
21766,65 WEST JIMMIE LEEDS ROAD,POMONA,NJ,8240
21767,2460 CURTIS ELLIS DRIVE,ROCKY MOUNT,NC,27804
21768,411 CANISTEO STREET,HORNELL,NY,14843
21769,178 GRANDVIEW DRIVE,COBLESKILL,NY,12043
21770,433 MCALISTER RD,LINCOLNTON,NC,28092
21771,7571 STATE ROUTE 54,BATH,NY,14810
21772,ONE MEDICAL CENTER DRIVE,FRANKLIN,OH,45005
21773,218 OLD MOCKSBVILLE RD PO BOX 1823,STATESVILLE,NC,28687
21774,455 ST MICHAEL'S DRIVE,SANTA FE,NM,87505
21775,101 HOSPITAL ROAD,PATCHOGUE,NY,11772
21776,810 FAIRGROVE CHURCH RD,HICKORY,NC,28602
21777,350 ENGLE ST,ENGLEWOOD,NJ,7631
21778,3500 ARENDELL ST,MOREHEAD CITY,NC,28557
21779,20000 HARVARD ROAD,WARRENSVILLE HE,OH,44122
21780,301 PROSPECT AVENUE,SYRACUSE,NY,13203
21781,2131 S 17TH ST BOX 9000,WILMINGTON,NC,28402
21782,310 S MCCASKEY RD P O BOX 1128,WILLIAMSTON,NC,27892
21783,405 GRAND AVENUE,DAYTON,OH,45405
21784,PO BOX 59,HENDERSON,NC,27536
21785,2000 NEUSE BLVD,NEW BERN,NC,28560
21786,ONE ATWELL ROAD,COOPERSTOWN,NY,13326
21787,2211 LOMAS BOULEVARD NE,ALBUQUERQUE,NM,87106
21788,600 HOSPITAL DR,MONROE,NC,28110
21789,171 FAIRVIEW ROAD,MOORESVILLE,NC,28117
21790,2825 PARKLAWN DRIVE,MIDWEST CITY,OK,73110
21791,COLLEGE ST BOX 947,OXFORD,NC,27565
21792,160 EAST MAIN STREET,PORT JERVIS,NY,12771
21793,1705 S TARBORO ST,WILSON,NC,27893
21794,100 MEMORIAL DRIVE,GOWANDA,NY,14070
21795,364 WHITE OAK STREET,ASHEBORO,NC,27204
21796,176 PALISADE AVE,JERSEY CITY,NJ,7306
21797,401 N MAIN ST,KENANSVILLE,NC,28349
21798,301 YADKIN ST,ALBEMARLE,NC,28001
21799,ONE CAPITAL WAY,PENNINGTON,NJ,8534
21800,707 EAST MAIN STREET,MIDDLETOWN,NY,10940
21801,420 N CENTER ST,HICKORY,NC,28601
21802,150 BERGEN ST,NEWARK,NJ,7103
21803,1800 UNIVERSITY BOULEVARD,DURANT,OK,74702
21804,155 MEMORIAL DRIVE,PINEHURST,NC,28374
21805,1425 PORTLAND AVENUE,ROCHESTER,NY,14621
21806,4420 LAKE BOONE TRAIL,RALEIGH,NC,27607
21807,1000 BLYTHE BLVD,CHARLOTTE,NC,28203
21808,100 EAST 77TH STREET,NEW YORK,NY,10021
21809,55 MEADOWLANDS PKWY,SECAUCUS,NJ,7094
21810,1144 N ROAD ST,ELIZABETH CITY,NC,27909
21811,111 HOSPITAL DR,TARBORO,NC,27886
21812,321 GENESEE STREET,ONEIDA,NY,13421
21813,1000 WEST HAMLET AVENUE,HAMLET,NC,28345
21814,500 S ACADEMY ST,AHOSKIE,NC,27910
21815,10628 PARK RD,CHARLOTTE,NC,28210
21816,99 RT 37 WEST,TOMS RIVER,NJ,8755
21817,651 WILLOW GROVE ST,HACKETTSTOWN,NJ,7840
21818,180 PARKWOOD DR,ELKIN,NC,28621
21819,250 HOSPITAL DRIVE PO BOX 1817,LEXINGTON,NC,27293
21820,300 COMMUNITY DRIVE,MANHASSET,NY,11030
21821,1200 N ELM ST,GREENSBORO,NC,27401
21822,509 BRIGHT LEAF BLVD,SMITHFIELD,NC,27577
21823,1140 RT 72 W,MANAHAWKIN,NJ,8050
21824,430 RANKIN DRIVE P O BOX 730,MARION,NC,28752
21825,160 NORTH MIDLAND AVENUE,NYACK,NY,10960
21826,350 BOULEVARD,PASSAIC,NJ,7055
21827,207 OLD LEXINGTON RD BOX 789,THOMASVILLE,NC,27360
21828,2301 US HIGHWAY 74 WEST,WADESBORO,NC,28170
21829,4777 EAST GALBRAITH ROAD,CINCINNATI,OH,45236
21830,2201 S STERLING ST,MORGANTON,NC,28655
21831,515 MAIN STREET,OLEAN,NY,14760
21832,3400 WAKE FOREST RD,RALEIGH,NC,27609
21833,700 W. 7TH STREET,BRISTOW,OK,74010
21834,800 TILGHMAN DR,DUNN,NC,28334
21835,2950 ELMWOOD AVENUE,KENMORE,NY,14217
21836,308 WILLOW AVE,HOBOKEN,NJ,7030
21837,100 MADISON AVE,MORRISTOWN,NJ,7962
21838,727 N BEERS ST,HOLMDEL,NJ,7733
21839,1240 HUFFMAN MILL RD,BURLINGTON,NC,27216
21840,3000 NEW BERN AVE,RALEIGH,NC,27610
21841,500 JEFFERSON ST,WHITEVILLE,NC,28472
21842,525 EAST 68TH STREET,NEW YORK,NY,10021
21843,1370 WEST D ST,NORTH WILKESBOR,NC,28659
21844,630 EAST RIVER STREET,ELYRIA,OH,44035
21845,901 WEST MAIN STREET,FREEHOLD,NJ,7728
21846,101 MANNING DRIVE,CHAPEL HILL,NC,27514
21847,191 NORTH MAIN STREET,WELLSVILLE,NY,14895
21848,117 E KINGS HIGHWAY,EDEN,NC,27288
21849,200 HAWTHORNE LANE BOX 33549,CHARLOTTE,NC,28233
21850,530 NEW BRUNSWICK AVE,PERTH AMBOY,NJ,8861
21851,336 DEERFIELD ROAD,BOONE,NC,28607
21852,ONE HAMILTON HEALTH PLACE,HAMILTON,NJ,8690
21853,300 W 27 ST  PO BOX 1408,LUMBERTON,NC,28359
21854,600 ROE AVENUE,ELMIRA,NY,14905
21855,MEDICAL CENTER BOULEVARD,WINSTON-SALEM,NC,27157
21856,317 WESTERN BOULEVARD,JACKSONVILLE,NC,28540
21857,744 WEST 9TH STREET,TULSA,OK,74127
21858,12 NORTH 7TH AVENUE,MOUNT VERNON,NY,10550
21859,321 MULBERRY ST SW,LENOIR,NC,28645
21860,65 JAMES STREET,EDISON,NJ,8818
21861,30 PROSPECT AVE,HACKENSACK,NJ,7601
21862,2100 STANTONSBURG RD,GREENVILLE,NC,27834
21863,ONE NORTON AVENUE,ONEONTA,NY,13820
21864,557 BROOKDALE DR  P O BOX 1828,STATESVILLE,NC,28677
21865,706 W KING ST,KINGS MOUNTAIN,NC,28086
21866,133 PARK STREET,MALONE,NY,12953
21867,100 HOSPITAL DR BOX 609,LOUISBURG,NC,27549
21868,7007 POWERS BOULEVARD,PARMA,OH,44129
21869,2525 COURT DR,GASTONIA,NC,28052
21870,ONE ROBERT WOOD JOHNSON PL,NEW BRUNSWICK,NJ,8901
21871,2233 STATE ROUTE 86,SARANAC LAKE,NY,12983
21872,111 CENTRAL AVENUE,NEWARK,NJ,7102
21873,PO BOX 3708 DUMC  ERWIN RD,DURHAM,NC,27710
21874,2157 MAIN STREET,BUFFALO,NY,14214
21875,1638 OWEN DRIVE P O BOX 2000,FAYETTEVILLE,NC,28302
21876,6245 INKSTER RD,GARDEN CITY,MI,48135
21877,100 MEDICAL CENTER DRIVE,SLIDELL,LA,70461
21878,600 NORTH LEWIS STREET,NEW IBERIA,LA,70563
21879,4100 RIVER RD,EAST CHINA,MI,48054
21880,115 WEST SILVER STREET,WESTFIELD,MA,1085
21881,500 OSBORN BLVD,SAULT SAINTE MA,MI,49783
21882,"5900 BYRON CENTER AVENUE, SW",WYOMING,MI,49519
21883,295 VARNUM AVENUE,LOWELL,MA,1854
21884,17000 MEDICAL CENTER DR,BATON ROUGE,LA,70816
21885,1215 E MICHIGAN AVENUE,LANSING,MI,48912
21886,11133 DUNN ROAD,SAINT LOUIS,MO,63136
21887,275 SANDWICH STREET,PLYMOUTH,MA,2360
21888,1000 HARRINGTON BLVD,MOUNT CLEMENS,MI,48043
21889,145 NEWCOMB AVENUE,MOUNT VERNON,KY,40456
21890,4000 WELLNESS DRIVE,MIDLAND,MI,48670
21891,201 HIGHLAND STREET,CLINTON,MA,1510
21892,8 PROSPECT STREET,NASHUA,NH,3060
21893,524 DR MICHAEL DEBAKEY STREET,LAKE CHARLES,LA,70601
21894,200 N MADISON,MARSHALL,MI,49068
21895,7500 MERCY RD,OMAHA,NE,68124
21896,4200 NELSON ROAD,LAKE CHARLES,LA,70605
21897,789 CENTRAL AVE,DOVER,NH,3820
21898,205 N EAST AVE,JACKSON,MI,49201
21899,601 WEST LEOTA ST,NORTH PLATTE,NE,69101
21900,2 PROGRESS POINT PKWY,O FALLON,MO,63368
21901,680 CENTER STREET,BROCKTON,MA,2302
21902,1221 PINE GROVE AVE,PORT HURON,MI,48060
21903,1 PARKLAND DRIVE,DERRY,NH,3038
21904,411 MAIN STREET,COLUMBIA,LA,71418
21905,1516 JEFFERSON HWY,NEW ORLEANS,LA,70121
21906,6420 CLAYTON RD,RICHMOND HEIGHT,MO,63117
21907,7939 U S HWY 165 SOUTH,COLUMBIA,LA,71418
21908,71 HOSPITAL AVENUE,NORTH ADAMS,MA,1247
21909,172 KINSLEY ST,NASHUA,NH,3060
21910,80 HIGHLAND ST,LACONIA,NH,3246
21911,95 JUDGE TANNER BOULEVARD,COVINGTON,LA,70433
21912,1 MEDICAL CENTER DRIVE,LEBANON,NH,3756
21913,1100 E MICHIGAN AVE,GRAYLING,MI,49738
21914,157 UNION STREET,MARLBOROUGH,MA,1752
21915,250 PLEASANT ST,CONCORD,NH,3301
21916,1375 N MAIN ST,LAPEER,MI,48446
21917,6900 N DURANGO DR,LAS VEGAS,NV,89149
21918,164 HIGH STREET,GREENFIELD,MA,1301
21919,703 N MCEWAN ST,CLARE,MI,48617
21920,657 TOWN CENTER DRIVE,LAS VEGAS,NV,89144
21921,1415 TULANE AVE,NEW ORLEANS,LA,70112
21922,3100 N TENAYA WAY,LAS VEGAS,NV,89128
21923,1309 SHELDON RD,GRAND HAVEN,MI,49417
21924,2375 PRATER WAY,SPARKS,NV,89434
21925,2075 EAST FLAMINGO ROAD,LAS VEGAS,NV,89119
21926,620 SHADOW LANE,LAS VEGAS,NV,89106
21927,401 W GREENLAWN AVE,LANSING,MI,48910
21928,1600 MEDICAL PARKWAY,CARSON CITY,NV,89703
21929,102 E LAKE MEAD DR,HENDERSON,NV,89015
21930,1521 GULL ROAD,KALAMAZOO,MI,49048
21931,22101 MOROSS RD,DETROIT,MI,48236
21932,801 EAST WILLIAMS AVENUE,FALLON,NV,89406
21933,1409 EAST LAKE MEAD BLVD,NORTH LAS VEGAS,NV,89030
21934,118 N HOSPITAL DR,ABBEVILLE,LA,70510
21935,5301 E HURON RIVER DR,ANN ARBOR,MI,48106
21936,500 RUE DE SANTE,LAPLACE,LA,70068
21937,1155 MILL STREET,RENO,NV,89502
21938,2500 BELLEVUE MEDICAL CENTER DR,BELLEVUE,NE,68123
21939,28050 GRAND RIVER AVENUE,FARMINGTON HILL,MI,48336
21940,81 HIGHLAND AVENUE,SALEM,MA,1970
21941,16901 LAKESIDE HILLS CT,OMAHA,NE,68130
21942,2485 HIGHWAY 644,LOUISA,KY,41230
21943,7500 SOUTH 91ST ST,LINCOLN,NE,68526
21944,800 E MAIN,VILLE PLATTE,LA,70586
21945,4600 38TH ST,COLUMBUS,NE,68601
21946,211 ST FRANCIS DR,CAPE GIRARDEAU,MO,63703
21947,6901 NORTH 72ND ST,OMAHA,NE,68122
21948,33155 ANNAPOLIS AVE,WAYNE,MI,48184
21949,85 HERRICK STREET,BEVERLY,MA,1915
21950,450 EAST 23RD ST,FREMONT,NE,68025
21951,401 S BALLENGER HIGHWAY,FLINT,MI,48532
21952,4021 AVE B,SCOTTSBLUFF,NE,69361
21953,1020 FERTITTA BLVD,LEESVILLE,LA,71446
21954,580 COURT STREET,KEENE,NH,3431
21955,8303 DODGE ST,OMAHA,NE,68114
21956,825 N CENTER AVE,GAYLORD,MI,49735
21957,715 N ST JOSEPH AVE,HASTINGS,NE,68901
21958,433 PLAZA ST,BOGALUSA,LA,70427
21959,2620 WEST FAIDLEY AVE,GRAND ISLAND,NE,68803
21960,555 SOUTH 70TH ST,LINCOLN,NE,68510
21961,3601 W THIRTEEN MILE RD,ROYAL OAK,MI,48073
21962,503 MCMILLAN ROAD,WEST MONROE,LA,71291
21963,987400 NEBRASKA MEDICAL CENTER,OMAHA,NE,68198
21964,"P O BOX 1990, 10 EAST 31ST ST",KEARNEY,NE,68848
21965,1600 SOUTH 48TH ST,LINCOLN,NE,68506
21966,40 WRIGHT STREET,PALMER,MA,1069
21967,1411 9TH ST S,GREAT FALLS,MT,59405
21968,723 BURKESVILLE ROAD,ALBANY,KY,42602
21969,19600 EAST 39TH STREET,INDEPENDENCE,MO,64057
21970,254 HIGHWAY 3048,RAYVILLE,LA,71269
21971,310 SUNNYVIEW LANE,KALISPELL,MT,59901
21972,25 HIGHLAND AVENUE,NEWBURYPORT,MA,1950
21973,211 4TH STREET,ALEXANDRIA,LA,71301
21974,826 WEST KING STREET,OWOSSO,MI,48867
21975,1233 N 30TH ST,BILLINGS,MT,59107
21976,1 N ATKINSON DRIVE,LUDINGTON,MI,49431
21977,30 13TH ST,HAVRE,MT,59501
21978,400 S CLARK ST,BUTTE,MT,59701
21979,4200 HOUMA BLVD,METAIRIE,LA,70006
21980,575 BEECH STREET,HOLYOKE,MA,1040
21981,500 W BROADWAY,MISSOULA,MT,59806
21982,416 CONNABLE AVE,PETOSKEY,MI,49770
21983,1101 26TH ST S,GREAT FALLS,MT,59405
21984,299 KINGS DAUGHTERS DRIVE,FRANKFORT,KY,40601
21985,901 WESTLAKE DRIVE,COLUMBIA,KY,42728
21986,605 OAK STREET,BIG RAPIDS,MI,49307
21987,3801 SOUTH NATIONAL AVENUE,SPRINGFIELD,MO,65807
21988,3990 JOHN R STREET,DETROIT,MI,48201
21989,795 MIDDLE STREET,FALL RIVER,MA,2721
21990,1600 N 2ND ST,CLINTON,MO,64735
21991,17065 S 71 HIGHWAY,BELTON,MO,64012
21992,2475 BROADWAY,HELENA,MT,59601
21993,200 HEMLOCK,TAWAS CITY,MI,48764
21994,187 NINTH ST/HWY 84 WEST,JENA,LA,71342
21995,718 N MACOMB ST,MONROE,MI,48162
21996,946 EAST REED,HAYTI,MO,63851
21997,10 SOUTH HOSPITAL DRIVE,FULTON,MO,65251
21998,100 SOUTH STREET,SOUTHBRIDGE,MA,1550
