7499,1601 YGNACIO VALLEY RD,WALNUT CREEK,CA,94598
7500,2400 SOUTH AVENUE A,YUMA,AZ,85364
7501,1900 DON WICKHAM DR,CLERMONT,FL,34711
7502,16850 BEAR VALLEY RD,VICTORVILLE,CA,92395
7503,1010 THREE SPRINGS BLVD,DURANGO,CO,81301
7504,110 IRVING ST NW,WASHINGTON,DC,20010
7505,12401 E WASHINGTON BLVD,WHITTIER,CA,90602
7506,601 E ROLLINS ST,ORLANDO,FL,32803
7507,540 THE RIALTO,VENICE,FL,34285
7508,4301 WEST MARKHAM STREET MAIL SLOT 612,LITTLE ROCK,AR,72205
7509,726 4TH ST,MARYSVILLE,CA,95901
7510,20 YORK ST,NEW HAVEN,CT,6504
7511,640 S STATE STREET,DOVER,DE,19901
7512,400 W 16TH STREET,PUEBLO,CO,81003
7513,112 MANSFIELD AVE,WILLIMANTIC,CT,6226
7514,114 WOODLAND STREET,HARTFORD,CT,6105
7515,2710 RIFE MEDICAL LANE,ROGERS,AR,72758
7516,1906 BLAKE AVE,GLENWOOD SPRING,CO,81601
7517,1055 SAXON BLVD,ORANGE CITY,FL,32763
7518,365 MONTAUK AVE,NEW LONDON,CT,6320
7519,9201 WEST THOMAS ROAD,PHOENIX,AZ,85037
7520,267 GRANT STREET,BRIDGEPORT,CT,6610
7521,805 FRIENDSHIP ROAD,TALLASSEE,AL,36078
7522,64 ROBBINS ST,WATERBURY,CT,6721
7523,326 WASHINGTON ST,NORWICH,CT,6360
7524,"505 PARNASSUS AVE, BOX 0296",SAN FRANCISCO,CA,94143
7525,1001 POTRERO AVENUE,SAN FRANCISCO,CA,94110
7526,6501 COYLE AVE,CARMICHAEL,CA,95608
7527,80 SEYMOUR STREET,HARTFORD,CT,6102
7528,8700 BEVERLY BLVD,LOS ANGELES,CA,90048
7529,638 CALIFORNIA AVENUE,CAMDEN,AR,71701
7530,29 L V STABLER DRIVE,GREENVILLE,AL,36037
7531,7063 VETERANS PARKWAY,PELL CITY,AL,35125
7532,350 7TH ST N,NAPLES,FL,34102
7533,2505 U S HIGHWAY 431 NORTH,BOAZ,AL,35957
7534,2635 N 7TH STREET,GRAND JUNCTION,CO,81502
7535,435 LEWIS AVE,MERIDEN,CT,6450
7536,1600 SW ARCHER RD,GAINESVILLE,FL,32610
7537,1400 E CHURCH ST,SANTA MARIA,CA,93454
7538,1 TAMPA GENERAL CIR,TAMPA,FL,33606
7539,ONE MEDICAL PLAZA,ROSEVILLE,CA,95661
7540,777 BANNOCK ST,DENVER,CO,80204
7541,1801 16TH STREET,GREELEY,CO,80631
7542,1400 E BOULDER ST,COLORADO SPRING,CO,80909
7543,1200 NORTH BEAVER STREET,FLAGSTAFF,AZ,86001
7544,380 WOODS COVE ROAD,SCOTTSBORO,AL,35768
7545,1001 SCHNEIDER DRIVE,MALVERN,AR,72104
7546,200 SE HOSPITAL AVE,STUART,FL,34995
7547,11234 ANDERSON ST,LOMA LINDA,CA,92354
7548,3260 HOSPITAL DR,JUNEAU,AK,99801
7549,4755 OGLETOWN-STANTON ROAD,NEWARK,DE,19718
7550,5301 EAST GRANT ROAD,TUCSON,AZ,85712
7551,1001 TOWSON AVENUE,FORT SMITH,AR,72902
7552,502 W HIGHLAND BLVD,INVERNESS,FL,34452
7553,24451 HEALTH CENTER DRIVE,LAGUNA HILLS,CA,92653
7554,751 SOUTH BASCOM AVENUE,SAN JOSE,CA,95128
7555,101 CIVIC CENTER LANE,LAKE HAVASU CIT,AZ,86403
7556,1910 MALVERN AVENUE,HOT SPRINGS,AR,71901
7557,3291 LOMA VISTA RD,VENTURA,CA,93003
7558,1600 N ROSE AVE,OXNARD,CA,93030
7559,900 WEST KINGSHIGHWAY,PARAGOULD,AR,72450
7560,4002 VISTA WAY,OCEANSIDE,CA,92056
7561,615 FAIRHURST ST,STERLING,CO,80751
7562,1100 EAST POPLAR STREET,CLARKSVILLE,AR,72830
7563,24 HOSPITAL AVE,DANBURY,CT,6810
7564,2500 ALHAMBRA AVE,MARTINEZ,CA,94553
7565,4200 SUN N LAKE BLVD,SEBRING,FL,33871
7566,1000 TRANCAS ST,NAPA,CA,94558
7567,BOX 196604,ANCHORAGE,AK,99508
7568,11815 EDUCATION STREET,AUBURN,CA,95603
7569,39-000 BOB HOPE DRIVE,RANCHO MIRAGE,CA,92270
7570,350 NORTH WILMOT ROAD,TUCSON,AZ,85711
7571,"2175 ROSALINE AVE, CLAIRMONT HGTS",REDDING,CA,96001
7572,2000 PEPPERELL PARKWAY,OPELIKA,AL,36801
7573,350 HAWTHORNE AVENUE,OAKLAND,CA,94609
7574,1611 NW 12TH AVE,MIAMI,FL,33136
7575,1007 GOODYEAR AVENUE,GADSDEN,AL,35903
7576,151 REDSTONE AVE SE,CRESTVIEW,FL,32539
7577,170 ALAMEDA DE LAS PULGAS,REDWOOD CITY,CA,94062
7578,1000 FIRST STREET NORTH,ALABASTER,AL,35007
7579,301 MEMORIAL MEDICAL PARKWAY,DAYTONA BEACH,FL,32117
7580,4725 N FEDERAL HWY,FORT LAUDERDALE,FL,33308
7581,2767 OLIVE HIGHWAY,OROVILLE,CA,95966
7582,4413 US HWY 331 S,DEFUNIAK SPRING,FL,32435
7583,757 WESTWOOD PLAZA,LOS ANGELES,CA,90095
7584,100 GRAND STREET,NEW BRITAIN,CT,6050
7585,1798 N GAREY AVE,POMONA,CA,91767
7586,300 PINELLAS ST,CLEARWATER,FL,33756
7587,106 BLANCA AVE,ALAMOSA,CO,81101
7588,2801 ATLANTIC AVE,LONG BEACH,CA,90806
7589,1900 SULLIVAN AVENUE,DALY CITY,CA,94015
7590,1501 NORTH CAMPBELL AVENUE,TUCSON,AZ,85724
7591,400 NORTHWOOD DR,CENTRE,AL,35960
7592,424 SAVANNAH RD,LEWES,DE,19958
7593,4001 J ST,SACRAMENTO,CA,95819
7594,350 WEST THOMAS ROAD,PHOENIX,AZ,85013
7595,200 WEST ARBOR DRIVE,SAN DIEGO,CA,92103
7596,300 WERNER STREET,HOT SPRINGS,AR,71903
7597,300 PASTEUR DRIVE,STANFORD,CA,94305
7598,199 EAST WEBSTER ST,COLUSA,CA,95932
7599,1501 TROUSDALE DRIVE,BURLINGAME,CA,94010
7600,4077 5TH AVE,SAN DIEGO,CA,92103
7601,3800 RESERVOIR RD,WASHINGTON,DC,20007
7602,1650 CREEKSIDE DRIVE,FOLSOM,CA,95630
7603,619 SOUTH 19TH STREET,BIRMINGHAM,AL,35233
7604,845 JACKSON ST,SAN FRANCISCO,CA,94133
7605,27200 CALAROGA AVE,HAYWARD,CA,94545
7606,5777 EAST MAYO BOULEVARD,PHOENIX,AZ,85054
7607,1500 SAN PABLO ST,LOS ANGELES,CA,90033
7608,300 SEASIDE AVENUE,MILFORD,CT,6460
7609,1719 E 19TH AVE,DENVER,CO,80218
7610,12605 EAST 16TH AVENUE,AURORA,CO,80045
7611,1710 HARRISON STREET,BATESVILLE,AR,72503
7612,303 N CLYDE MORRIS BLVD,DAYTONA BEACH,FL,32114
7613,1024 CENTRAL PARK DR,STEAMBOAT SPRIN,CO,80487
7614,2823 FRESNO STREET,FRESNO,CA,93715
7615,1303 E HERNDON AVE,FRESNO,CA,93710
7616,"50 HOSPITAL HILL ROAD, PO BOX 789",SHARON,CT,6069
7617,800 PRUDENTIAL DR,JACKSONVILLE,FL,32207
7618,101 CITY DRIVE SOUTH,ORANGE,CA,92868
7619,8300 W 38TH AVE,WHEAT RIDGE,CO,80033
7620,1000 GREENLEY ROAD,SONORA,CA,95370
7621,450 EAST ROMIE LANE,SALINAS,CA,93901
7622,410 S 11TH ST,LAKE WALES,FL,33853
7623,2000 BOISE AVE,LOVELAND,CO,80538
7624,3400 HIGHWAY 78 EAST,JASPER,AL,35502
7625,800 SOUTH MAIN STREET,CORONA,CA,92882
7626,11234 ANDERSON ST,LOMA LINDA,CA,92354
7627,2000 PEPPERELL PARKWAY,OPELIKA,AL,36801
7628,424 SAVANNAH RD,LEWES,DE,19958
7629,1600 WEST 40TH AVENUE,PINE BLUFF,AR,71603
7630,1303 E HERNDON AVE,FRESNO,CA,93710
7631,9888 GENESEE AVENUE,LA JOLLA,CA,92037
7632,7500 HOSPITAL DRIVE,SACRAMENTO,CA,95823
7633,24451 HEALTH CENTER DRIVE,LAGUNA HILLS,CA,92653
7634,1520 N DIVISION STREET,BLYTHEVILLE,AR,72315
7635,1350 13TH AVE S,JACKSONVILLE BE,FL,32250
7636,1200 SEVENTH AVE N,SAINT PETERSBUR,FL,33705
7637,"2016 SOUTH ALABAMA AVENUE, BOX 886",MONROEVILLE,AL,36460
7638,2451 FILLINGIM STREET,MOBILE,AL,36617
7639,39200 HOOKER HWY,BELLE GLADE,FL,33430
7640,1 TAMPA GENERAL CIR,TAMPA,FL,33606
7641,8900 N KENDALL DR,MIAMI,FL,33176
7642,60 MEMORIAL MEDICAL PKWY,PALM COAST,FL,32164
7643,700 WEST MARKET STREET,ATHENS,AL,35611
7644,1411 E 31ST STREET,OAKLAND,CA,94602
7645,2041 GEORGIA AVE NW,WASHINGTON,DC,20060
7646,368 NE FRANKLIN ST,LAKE CITY,FL,32055
7647,155 GLASSON WAY,GRASS VALLEY,CA,95945
7648,100 S RAYMOND AVE,ALHAMBRA,CA,91801
7649,2101 N WATERMAN AVE,SAN BERNARDINO,CA,92404
7650,64 ROBBINS ST,WATERBURY,CT,6721
7651,1808 WEST MAIN STREET,RUSSELLVILLE,AR,72801
7652,7050 GALL BLVD,ZEPHYRHILLS,FL,33541
7653,1700 S TAMIAMI TRL,SARASOTA,FL,34239
7654,6245 DE LONGPRE AVE,HOLLYWOOD,CA,90028
7655,1650 COWLES STREET,FAIRBANKS,AK,99701
7656,4002 VISTA WAY,OCEANSIDE,CA,92056
7657,151 REDSTONE AVE SE,CRESTVIEW,FL,32539
7658,5 MOBILE INFIRMARY CIRCLE,MOBILE,AL,36652
7659,1201 7TH STREET SE,DECATUR,AL,35601
7660,809 E MARION AVE,PUNTA GORDA,FL,33950
7661,225 N JACKSON AVENUE,SAN JOSE,CA,95116
7662,4725 N FEDERAL HWY,FORT LAUDERDALE,FL,33308
7663,17240 CORTEZ BLVD,BROOKSVILLE,FL,34601
7664,624 HOSPITAL DRIVE,MOUNTAIN HOME,AR,72653
7665,1900 SULLIVAN AVENUE,DALY CITY,CA,94015
7666,101 E VALENCIA MESA DRIVE,FULLERTON,CA,92835
7667,130 DIVISION ST,DERBY,CT,6418
7668,30 SHELBURNE ROAD,STAMFORD,CT,6904
7669,1200 W MAPLE AVENUE,GENEVA,AL,36340
7670,11600 WEST 2ND PLACE,LAKEWOOD,CO,80228
7671,555 E VALLEY PARKWAY,ESCONDIDO,CA,92025
7672,225 E JACKSON,JONESBORO,AR,72401
7673,30 MARK WEST SPRINGS ROAD,SANTA ROSA,CA,95403
7674,702 N MAIN ST,OPP,AL,36467
7675,1 SHIRCLIFF WAY,JACKSONVILLE,FL,32204
7676,2710 RIFE MEDICAL LANE,ROGERS,AR,72758
7677,347 ANDRIEUX ST,SONOMA,CA,95476
7678,303 N CLYDE MORRIS BLVD,DAYTONA BEACH,FL,32114
7679,1150 NORTH INDIAN CANYON DRIVE,PALM SPRINGS,CA,92262
7680,4929 VAN NUYS BLVD,SHERMAN OAKS,CA,91403
7681,1010 MURRAY ST,SAN LUIS OBISPO,CA,93405
7682,2776 CLEVELAND AVE,FORT MYERS,FL,33901
7683,701 6TH ST S,SAINT PETERSBUR,FL,33701
7684,199 EAST WEBSTER ST,COLUSA,CA,95932
7685,609 WEST MAPLE AVENUE,SPRINGDALE,AR,72764
7686,301 MEMORIAL MEDICAL PARKWAY,DAYTONA BEACH,FL,32117
7687,501 SOUTH BUENA VISTA,BURBANK,CA,91505
7688,502 W HIGHLAND BLVD,INVERNESS,FL,34452
7689,2333 BUCHANAN STREET,SAN FRANCISCO,CA,94115
7690,12601 GARDEN GROVE BLVD,GARDEN GROVE,CA,92843
7691,4200 SUN N LAKE BLVD,SEBRING,FL,33871
7692,24 HOSPITAL AVE,DANBURY,CT,6810
7693,1100 CARSON AVENUE,LA JUNTA,CO,81050
7694,5255 LOUGHBORO RD NW,WASHINGTON,DC,20016
7695,205 MARENGO STREET,FLORENCE,AL,35631
7696,5 PERRYRIDGE RD,GREENWICH,CT,6830
7697,1509 E WILSON TERRACE,GLENDALE,CA,91206
7698,1414 KUHL AVE,ORLANDO,FL,32806
7699,3330 LOMITA BLVD,TORRANCE,CA,90509
7700,24 STEVENS STREET,NORWALK,CT,6856
7701,TWO ST VINCENT CIRCLE,LITTLE ROCK,AR,72205
7702,2525 S DOWNING ST,DENVER,CO,80210
7703,75 NIELSON STREET,WATSONVILLE,CA,95076
7704,6655 ALVARADO ROAD,SAN DIEGO,CA,92120
7705,29 L V STABLER DRIVE,GREENVILLE,AL,36037
7706,3215 N NORTH HILLS BLVD,FAYETTEVILLE,AR,72703
7707,300 PASTEUR DRIVE,STANFORD,CA,94305
7708,700 WEST GROVE STREET,EL DORADO,AR,71731
7709,6200 NORTH LA CHOLLA BOULEVARD,TUCSON,AZ,85741
7710,540 THE RIALTO,VENICE,FL,34285
7711,20 YORK ST,NEW HAVEN,CT,6504
7712,2010 BROOKWOOD MEDICAL CENTER DRIVE,BIRMINGHAM,AL,35209
7713,12401 E WASHINGTON BLVD,WHITTIER,CA,90602
7714,9003 EAST SHEA BOULEVARD,SCOTTSDALE,AZ,85260
7715,400 W 16TH STREET,PUEBLO,CO,81003
7716,100 GRAND STREET,NEW BRITAIN,CT,6050
7717,726 4TH ST,MARYSVILLE,CA,95901
7718,2170 SOUTH AVENUE,SOUTH LAKE TAHO,CA,96150
7719,400 TAYLOR ROAD,MONTGOMERY,AL,36117
7720,BREWSTER RD,BRISTOL,CT,6010
7721,4567 E 9TH AVENUE,DENVER,CO,80220
7722,18300 ROSCOE BLVD,NORTHRIDGE,CA,91325
7723,3751 KATELLA AVENUE,LOS ALAMITOS,CA,90720
7724,71 HAYNES ST,MANCHESTER,CT,6040
7725,600 SOUTH THIRD STREET,GADSDEN,AL,35901
7726,2975 N SYCAMORE DR,SIMI VALLEY,CA,93065
7727,5151 N 9TH AVE,PENSACOLA,FL,32504
7728,1003 WILLOW CREEK ROAD,PRESCOTT,AZ,86301
7729,540 LITCHFIELD ST,TORRINGTON,CT,6790
7730,112 MANSFIELD AVE,WILLIMANTIC,CT,6226
7731,267 GRANT STREET,BRIDGEPORT,CT,6610
7732,2309 ANTONIO AVE,CAMARILLO,CA,93010
7733,23625 W R HOLMAN HIGHWAY,MONTEREY,CA,93940
7734,28 CRESCENT ST,MIDDLETOWN,CT,6457
7735,21 ELM ST,NEW MILFORD,CT,6776
7736,31 UNION ST,ROCKVILLE,CT,6066
7737,4101 TORRANCE BLVD,TORRANCE,CA,90503
7738,1055 SAXON BLVD,ORANGE CITY,FL,32763
7739,1906 BLAKE AVE,GLENWOOD SPRING,CO,81601
7740,9201 WEST THOMAS ROAD,PHOENIX,AZ,85037
7741,975 BAPTIST WAY,HOMESTEAD,FL,33033
7742,655 W 8TH ST,JACKSONVILLE,FL,32209
7743,1720 E CESAR AVENUE,LOS ANGELES,CA,90033
7744,365 MONTAUK AVE,NEW LONDON,CT,6320
7745,1000 FIRST STREET NORTH,ALABASTER,AL,35007
7746,1400 E BOULDER ST,COLORADO SPRING,CO,80909
7747,751 MEDICAL CENTER COURT,CHULA VISTA,CA,91911
7748,23845  MCBEAN PKWY,VALENCIA,CA,91355
7749,1401 SOUTH GRAND AVENUE,LOS ANGELES,CA,90015
7750,640 S STATE STREET,DOVER,DE,19901
7751,15107 VANOWEN ST,VAN NUYS,CA,91406
7752,380 WOODS COVE ROAD,SCOTTSBORO,AL,35768
7753,200 EXEMPLA CIRCLE,LAFAYETTE,CO,80026
7754,9395 CROWN CREST BLVD,PARKER,CO,80138
7755,7700 S BROADWAY,LITTLETON,CO,80122
7756,28062 BAXTER ROAD,MURRIETA,CA,92563
7757,525 WEST ACACIA STREET,STOCKTON,CA,95203
7758,351 S PATTERSON AVE,SANTA BARBARA,CA,93111
7759,5555 WEST LAS POSITAS BOULEVARD,PLEASANTON,CA,94588
7760,100 HEALTH PARK DRIVE,LOUISVILLE,CO,80027
7761,5777 EAST MAYO BOULEVARD,PHOENIX,AZ,85054
7762,202 HOSPITAL STREET,MOULTON,AL,35650
7763,701 W PLYMOUTH AVE,DELAND,FL,32720
7764,263 FARMINGTON AVE,FARMINGTON,CT,6032
7765,170 ALAMEDA DE LAS PULGAS,REDWOOD CITY,CA,94062
7766,1501 E 3RD STREET,DELTA,CO,81416
7767,7171 N DALE MABRY HWY,TAMPA,FL,33614
7768,ONE HOAG DRIVE,NEWPORT BEACH,CA,92663
7769,115 MALL DRIVE,HANFORD,CA,93230
7770,6501 COYLE AVE,CARMICHAEL,CA,95608
7771,2200 SHOW LOW LAKE ROAD,SHOW LOW,AZ,85901
7772,1250 16TH STREET,SANTA MONICA,CA,90404
7773,501 E HAMPDEN AVENUE,ENGLEWOOD,CO,80113
7774,350 7TH ST N,NAPLES,FL,34102
7775,400 NORTH PEPPER AVENUE,COLTON,CA,92324
7776,1650 CREEKSIDE DRIVE,FOLSOM,CA,95630
7777,19829 NORTH 27TH AVENUE,PHOENIX,AZ,85027
7778,2635 N 7TH STREET,GRAND JUNCTION,CO,81502
7779,1801 16TH STREET,GREELEY,CO,80631
7780,3316 HIGHWAY 280,ALEXANDER CITY,AL,35010
7781,800 PRUDENTIAL DR,JACKSONVILLE,FL,32207
7782,3214 EAST RACE AVENUE,SEARCY,AR,72143
7783,500 W HOSPITAL ROAD,FRENCH CAMP,CA,95231
7784,1400 E CHURCH ST,SANTA MARIA,CA,93454
7785,7901 FROST ST,SAN DIEGO,CA,92123
7786,1008 MINNEQUA AVE,PUEBLO,CO,81004
7787,777 BANNOCK ST,DENVER,CO,80204
7788,3501 JOHNSON ST,HOLLYWOOD,FL,33021
7789,1024 S LEMAY AVE,FORT COLLINS,CO,80524
7790,5974 PENTZ ROAD,PARADISE,CA,95969
7791,1100 WEST STEWART DR,ORANGE,CA,92868
7792,1100 LAS TABLAS RD,TEMPLETON,CA,93465
7793,8300 W 38TH AVE,WHEAT RIDGE,CO,80033
7794,1400 NW 12TH AVE,MIAMI,FL,33136
7795,"250 BON AIR ROAD, PO BOX 8010",GREENBRAE,CA,94904
7796,1555 SOQUEL DRIVE,SANTA CRUZ,CA,95065
7797,2815 S SEACREST BLVD,BOYNTON BEACH,FL,33435
7798,7301 ROGERS AVE,FORT SMITH,AR,72917
7799,3719 DAUPHIN STREET,MOBILE,AL,36608
7800,450 STANYAN ST,SAN FRANCISCO,CA,94117
7801,845 JACKSON ST,SAN FRANCISCO,CA,94133
7802,1800 N CALIFORNIA ST,STOCKTON,CA,95204
7803,1100 BUTTE ST,REDDING,CA,96001
7804,1600 N ROSE AVE,OXNARD,CA,93030
7805,601 E ROLLINS ST,ORLANDO,FL,32803
7806,9080 COLIMA RD,WHITTIER,CA,90605
7807,1100 MARSHALL WAY,PLACERVILLE,CA,95667
7808,2701 S BRISTOL ST,SANTA ANA,CA,92704
7809,751 SOUTH BASCOM AVENUE,SAN JOSE,CA,95128
7810,1501 NORTH CAMPBELL AVENUE,TUCSON,AZ,85724
7811,4370 WEST MAIN STREET,DOTHAN,AL,36305
7812,15615 POMERADO ROAD,POWAY,CA,92064
7813,555 EAST HARDY STREET,INGLEWOOD,CA,90301
7814,27700 MEDICAL CENTER RD,MISSION VIEJO,CA,92691
7815,15 EAST AUDUBON DRIVE,FRESNO,CA,93720
7816,"50 HOSPITAL HILL ROAD, PO BOX 789",SHARON,CT,6069
7817,1108 ROSS CLARK CIRCLE,DOTHAN,AL,36301
7818,200 MED CENTER DRIVE,FORT PAYNE,AL,35968
7819,25500 MEDICAL CENTER DRIVE,MURRIETA,CA,92562
7820,1111 W LA PALMA AVENUE,ANAHEIM,CA,92801
7821,105 HIGHWAY 80 EAST,DEMOPOLIS,AL,36732
7822,114 WOODLAND STREET,HARTFORD,CT,6105
7823,900 WEST KINGSHIGHWAY,PARAGOULD,AR,72450
7824,1501 S POTOMAC ST,AURORA,CO,80012
7825,8700 BEVERLY BLVD,LOS ANGELES,CA,90048
7826,1500 SW 1ST AVE,OCALA,FL,34474
7827,1000 GREENLEY ROAD,SONORA,CA,95370
7828,2105 FOREST AVENUE,SAN JOSE,CA,95128
7829,2700 DOLBEER ST,EUREKA,CA,95501
7830,1225 WILSHIRE BOULEVARD,LOS ANGELES,CA,90017
7831,2315 STOCKTON BOULEVARD,SACRAMENTO,CA,95817
7832,124 S MEMORIAL DR,PRATTVILLE,AL,36067
7833,5451 WALNUT AVE,CHINO,CA,91710
7834,250 HOSPITAL PLACE,SOLDOTNA,AK,99669
7835,7901 WALKER STREET,LA PALMA,CA,90623
7836,3269 STOCKTON HILL ROAD,KINGMAN,AZ,86409
7837,11815 EDUCATION STREET,AUBURN,CA,95603
7838,21530 S PIONEER BLVD,HAWAIIAN GARDEN,CA,90716
7839,39-000 BOB HOPE DRIVE,RANCHO MIRAGE,CA,92270
7840,1530 U S HIGHWAY 43,WINFIELD,AL,35594
7841,1531 ESPLANADE,CHICO,CA,95926
7842,300 EL CAMINO REAL,SIERRA VISTA,AZ,85635
7843,3333 SPRINGHILL DRIVE,NORTH LITTLE RO,AR,72117
7844,1250 E ALMOND AVE,MADERA,CA,93637
7845,1001 TOWSON AVENUE,FORT SMITH,AR,72902
7846,275 HOSPITAL DRIVE,UKIAH,CA,95482
7847,7700 EAST FLORENTINE ROAD,PRESCOTT VALLEY,AZ,86314
7848,1911 JOHNSON AVE,SAN LUIS OBISPO,CA,93401
7849,435 LEWIS AVE,MERIDEN,CT,6450
7850,20900 BISCAYNE BLVD,AVENTURA,FL,33180
7851,420 34TH ST BOX 1888,BAKERSFIELD,CA,93301
7852,215 W JANSS RD,THOUSAND OAKS,CA,91360
7853,7400 EAST OSBORN ROAD,SCOTTSDALE,AZ,85251
7854,12605 EAST 16TH AVENUE,AURORA,CO,80045
7855,1007 GOODYEAR AVENUE,GADSDEN,AL,35903
7856,2767 OLIVE HIGHWAY,OROVILLE,CA,95966
7857,14300 ORCHARD PARKWAY,BROOMFIELD,CO,80023
7858,757 WESTWOOD PLAZA,LOS ANGELES,CA,90095
7859,3901 LONE TREE WAY,ANTIOCH,CA,94509
7860,2190 HWY 85 N,NICEVILLE,FL,32578
7861,525 N GARFIELD AVE,MONTEREY PARK,CA,91754
7862,5555 GROSSMONT CENTER DRIVE BOX 58,LA MESA,CA,91942
7863,1955 WEST FRYE ROAD,CHANDLER,AZ,85224
7864,2131 W 3RD ST,LOS ANGELES,CA,90057
7865,1611 NW 12TH AVE,MIAMI,FL,33136
7866,2755 HERNDON AVE,CLOVIS,CA,93611
7867,750 MORPHY AVENUE,FAIRHOPE,AL,36532
7868,2400 EAST 4TH ST,NATIONAL CITY,CA,91950
7869,2450 ASHBY AVE,BERKELEY,CA,94705
7870,1798 N GAREY AVE,POMONA,CA,91767
7871,2801 ATLANTIC AVE,LONG BEACH,CA,90806
7872,7300 MEDICAL CENTER DR,WEST HILLS,CA,91307
7873,4747 ARAPAHOE AVENUE,BOULDER,CO,80304
7874,1725 PINE STREET,MONTGOMERY,AL,36106
7875,1145 W REDONDO BEACH BLVD,GARDENA,CA,90247
7876,5301 EAST GRANT ROAD,TUCSON,AZ,85712
7877,2615 CHESTER AVENUE,BAKERSFIELD,CA,93301
7878,"2175 ROSALINE AVE, CLAIRMONT HGTS",REDDING,CA,96001
7879,10 WOODLAND ROAD,SAINT HELENA,CA,94574
7880,80 SEYMOUR STREET,HARTFORD,CT,6102
7881,100 W  CALIFORNIA BLVD,PASADENA,CA,91109
7882,1310 SOUTHERN AVENUE  SE,WASHINGTON,DC,20032
7883,20103 LAKE CHABOT ROAD,CASTRO VALLEY,CA,94546
7884,3033 W ORANGE AVENUE,ANAHEIM,CA,92804
7885,400 HEALTH PARK BLVD,SAINT AUGUSTINE,FL,32086
7886,56 FRANKLIN ST,WATERBURY,CT,6706
7887,900 23RD ST NW,WASHINGTON,DC,20037
7888,26520 CACTUS AVENUE,MORENO VALLEY,CA,92555
7889,1325 COTTONWOOD STREET,WOODLAND,CA,95695
7890,101 CITY DRIVE SOUTH,ORANGE,CA,92868
7891,27200 CALAROGA AVE,HAYWARD,CA,94545
7892,400 NORTHWOOD DR,CENTRE,AL,35960
7893,147 N BRENT ST,VENTURA,CA,93003
7894,1500 SAN PABLO ST,LOS ANGELES,CA,90033
7895,400 N EDWARDS STREET,ENTERPRISE,AL,36330
7896,800 S 3RD ST,MONTROSE,CO,81401
7897,1601 YGNACIO VALLEY RD,WALNUT CREEK,CA,94598
7898,1701 S SHACKLEFORD ROAD,LITTLE ROCK,AR,72211
7899,2302 COLLEGE AVENUE,CONWAY,AR,72034
7900,210 W  SAN BERNARDINO ROAD,COVINA,CA,91723
7901,83825 HIGHWAY 9    P O BOX 1270,ASHLAND,AL,36251
7902,1710 HARRISON STREET,BATESVILLE,AR,72503
7903,200 SE HOSPITAL AVE,STUART,FL,34995
7904,1200 B  GALE WILSON BLVD,FAIRFIELD,CA,94533
7905,2400 SOUTH AVENUE A,YUMA,AZ,85364
7906,2505 U S HIGHWAY 431 NORTH,BOAZ,AL,35957
7907,4800 EAST JOHNSON AVENUE,JONESBORO,AR,72401
7908,2500 GRANT ROAD,MOUNTAIN VIEW,CA,94040
7909,300 WERNER STREET,HOT SPRINGS,AR,71903
7910,1000 36TH ST,VERO BEACH,FL,32960
7911,869 CHERRY AVENUE,TULARE,CA,93274
7912,2105 EAST SOUTH BOULEVARD,MONTGOMERY,AL,36116
7913,619 SOUTH 19TH STREET,BIRMINGHAM,AL,35233
7914,2823 FRESNO STREET,FRESNO,CA,93715
7915,3700 E SOUTH ST,LAKEWOOD,CA,90712
7916,38600 MEDICAL CENTER DRIVE,PALMDALE,CA,93552
7917,"9601 INTERSTATE 630, EXIT 7",LITTLE ROCK,AR,72205
7918,1015 MEDICAL CENTER PARKWAY,SELMA,AL,36701
7919,2601 EAST ROOSEVELT STREET,PHOENIX,AZ,85008
7920,1600 SW ARCHER RD,GAINESVILLE,FL,32610
7921,309 W BEVERLY BLVD,MONTEBELLO,CA,90640
7922,801 MIDDLEFORD RD,SEAFORD,DE,19973
7923,4650 LINCOLN BLVD,MARINA DEL REY,CA,90291
7924,4755 OGLETOWN-STANTON ROAD,NEWARK,DE,19718
7925,200 WEST ARBOR DRIVE,SAN DIEGO,CA,92103
7926,350 NORTH WILMOT ROAD,TUCSON,AZ,85711
7927,301 EAST 18TH ST,ANNISTON,AL,36201
7928,#1 MEDICAL PARK DRIVE,BENTON,AR,72015
7929,1912 ALABAMA HIGHWAY 157,CULLMAN,AL,35058
7930,1300 SOUTH MONTGOMERY AVENUE,SHEFFIELD,AL,35660
7931,300 W HUNTINGTON DR,ARCADIA,CA,91006
7932,110 IRVING ST NW,WASHINGTON,DC,20010
7933,200 TYLER,WEST MEMPHIS,AR,72301
7934,6200 SW 73RD ST,SOUTH MIAMI,FL,33143
7935,8383 N DAVIS HWY,PENSACOLA,FL,32514
7936,836 WEST WELLINGTON AVENUE,CHICAGO,IL,60657
7937,405 W JACKSON,CARBONDALE,IL,62902
7938,4201 BELFORT RD,JACKSONVILLE,FL,32216
7939,2800 W 95TH ST,EVERGREEN PARK,IL,60805
7940,325 MAINE STREET,LAWRENCE,KS,66044
7941,2122 MANCHESTER EXPRESSWAY,COLUMBUS,GA,31995
7942,800 E CARPENTER ST,SPRINGFIELD,IL,62769
7943,1325 N HIGHLAND AVENUE,AURORA,IL,60506
7944,ONE MEADOWS PARKWAY,VIDALIA,GA,30474
7945,800 ROSE STREET,LEXINGTON,KY,40536
7946,1625 NASHVILLE STREET,RUSSELLVILLE,KY,42276
7947,7800 US HWY 98 W,MIRAMAR BEACH,FL,32550
7948,200 HIGH PARK AVE,GOSHEN,IN,46526
7949,1304 FRANKLIN AVENUE,NORMAL,IL,61761
7950,2701 N DECATUR ROAD,DECATUR,GA,30033
7951,163 E TOLLISON STREET,BAXLEY,GA,31513
7952,901 E 18TH STREET,TIFTON,GA,31793
7953,1221 SOUTH GEAR AVENUE,WEST BURLINGTON,IA,52655
7954,13695 US HWY 1,SEBASTIAN,FL,32978
7955,1941 VIRGINIA AVE,CONNERSVILLE,IN,47331
7956,8012 SOUTH CRANDON AVENUE,CHICAGO,IL,60617
7957,1324 LAKELAND HILLS BLVD,LAKELAND,FL,33805
7958,2525 S MICHIGAN AVE,CHICAGO,IL,60616
7959,710 CENTER ST BOX 951,COLUMBUS,GA,31901
7960,1915 LAKE AVE,PLYMOUTH,IN,46563
7961,1425 NORTH RANDALL ROAD,ELGIN,IL,60123
7962,2401 UNIVERSITY AVE,MUNCIE,IN,47303
7963,8111 S EMERSON AVE,INDIANAPOLIS,IN,46237
7964,2460 WASHINGTON ROAD,THOMSON,GA,30824
7965,800 MEADOWS RD,BOCA RATON,FL,33486
7966,660 N WESTMORELAND ROAD,LAKE FOREST,IL,60045
7967,BROADWAY AT 11TH STREET,QUINCY,IL,62301
7968,20333 WEST 151ST STREET,OLATHE,KS,66061
7969,5665 PEACHTREE DUNWOODY ROAD,ATLANTA,GA,30342
7970,77 N AIRLITE STREET,ELGIN,IL,60123
7971,3701 DOTY ROAD,WOODSTOCK,IL,60098
7972,225 FALCON DRIVE,MOUNT STERLING,KY,40353
7973,3901 RAINBOW BLVD,KANSAS CITY,KS,66103
7974,695 N KELLOGG ST,GALESBURG,IL,61401
7975,1300 MICCOSUKEE RD,TALLAHASSEE,FL,32308
7976,1000 N 16TH ST,NEW CASTLE,IN,47362
7977,415 SIXTH STREET,LEWISTON,ID,83501
7978,ONE TRILLIUM WAY,CORBIN,KY,40701
7979,913 NORTH DIXIE AVENUE,ELIZABETHTOWN,KY,42701
7980,3630 GUION RD,INDIANAPOLIS,IN,46222
7981,9100 W 74TH STREET,SHAWNEE MISSION,KS,66204
7982,1968 PEACHTREE RD NW,ATLANTA,GA,30309
7983,812 N LOGAN,DANVILLE,IL,61832
7984,600 E 1ST ST,SPRING VALLEY,IL,61362
7985,350 NORTH GRANDVIEW AVENUE,DUBUQUE,IA,52001
7986,800 W BIESTERFIELD RD,ELK GROVE VILLA,IL,60007
7987,1 MEDICAL VILLAGE DRIVE,EDGEWOOD,KY,41017
7988,600 GRANT ST,GARY,IN,46402
7989,503 N MAPLE STREET,EFFINGHAM,IL,62401
7990,2100 MADISON AVENUE,GRANITE CITY,IL,62040
7991,520 S MAPLE AVE,OAK PARK,IL,60304
7992,1100 EAST NORRIS DRIVE,OTTAWA,IL,61350
7993,2605 N LEBANON ST,LEBANON,IN,46052
7994,2875 WEST 19TH STREET,CHICAGO,IL,60623
7995,11705 MERCY BOULEVARD,SAVANNAH,GA,31419
7996,1700 S 23RD ST,FORT PIERCE,FL,34950
7997,411 W TIPTON ST,SEYMOUR,IN,47274
7998,120 NORTH OAK ST,HINSDALE,IL,60521
