31499,374 STOCKHOLM STREET,BROOKLYN,NY,11237
31500,230 EAST RIDGEWOOD AVE,PARAMUS,NJ,7652
31501,"726 EXCHANGE STREET, SUITE 522",BUFFALO,NY,14210
31502,396 BROADWAY,KINGSTON,NY,12401
31503,600 NORTHERN BOULEVARD,ALBANY,NY,12204
31504,2500 METROHEALTH DRIVE,CLEVELAND,OH,44109
31505,100 JACKSON PIKE,GALLIPOLIS,OH,45631
31506,736 IRVING AVENUE,SYRACUSE,NY,13210
31507,585 SCHENECTADY AVENUE,BROOKLYN,NY,11203
31508,270 - 05 76TH AVENUE,NEW HYDE PARK,NY,11040
31509,45TH AVENUE AND PARSONS BOULEVARD,FLUSHING,NY,11355
31510,100 PARK STREET,GLENS FALLS,NY,12801
31511,5300 MILITARY ROAD,LEWISTON,NY,14092
31512,1100 CENTRAL AVENUE SE,ALBUQUERQUE,NM,87106
31513,2215 BURDETT AVENUE,TROY,NY,12180
31514,FIRST AVENUE AT 16TH STREET,NEW YORK,NY,10003
31515,3000 32ND AVE SOUTH,FARGO,ND,58104
31516,1200 S COLUMBIA RD,GRAND FORKS,ND,58201
31517,1000 SOUTH AVENUE,ROCHESTER,NY,14620
31518,300 N 7TH ST,BISMARCK,ND,58506
31519,801 BROADWAY NORTH,FARGO,ND,58122
31520,407 3RD ST SE,MINOT,ND,58701
31521,255 LAFAYETTE AVENUE,SUFFERN,NY,10901
31522,830 WASHINGTON STREET,WATERTOWN,NY,13601
31523,1101 NOTT STREET,SCHENECTADY,NY,12308
31524,411 CANISTEO STREET,HORNELL,NY,14843
31525,3333 SILAS CREEK PARKWAY,WINSTON-SALEM,NC,27103
31526,2211 LOMAS BOULEVARD NE,ALBUQUERQUE,NM,87106
31527,ONE ATWELL ROAD,COOPERSTOWN,NY,13326
31528,1425 PORTLAND AVENUE,ROCHESTER,NY,14621
31529,100 EAST 77TH STREET,NEW YORK,NY,10021
31530,160 NORTH MIDLAND AVENUE,NYACK,NY,10960
31531,525 EAST 68TH STREET,NEW YORK,NY,10021
31532,200 HAWTHORNE LANE BOX 33549,CHARLOTTE,NC,28233
31533,71 PROSPECT AVENUE,HUDSON,NY,12534
31534,MEDICAL CENTER BOULEVARD,WINSTON-SALEM,NC,27157
31535,12 NORTH 7TH AVENUE,MOUNT VERNON,NY,10550
31536,321 MULBERRY ST SW,LENOIR,NC,28645
31537,2525 COURT DR,GASTONIA,NC,28052
31538,2233 STATE ROUTE 86,SARANAC LAKE,NY,12983
31539,1638 OWEN DRIVE P O BOX 2000,FAYETTEVILLE,NC,28302
31540,1001 PROVIDENCE DRIVE,NEWBERG,OR,97132
31541,1305 W 18TH ST  POST OFFICE BOX 5039,SIOUX FALLS,SD,57117
31542,1325 S CLIFF AVE  POST OFFICE BOX 5045,SIOUX FALLS,SD,57117
31543,1255 HILYARD STREET,EUGENE,OR,97401
31544,801 E SIOUX,PIERRE,SD,57501
31545,5501 SOUTH MCCOLL,EDINBURG,TX,78539
31546,300 22ND AVE,BROOKINGS,SD,57006
31547,1600 WEST GIRARD AVENUE,PHILADELPHIA,PA,19130
31548,175 PATEWOOD DRIVE,GREENVILLE,SC,29615
31549,24800 SE STARK STREET,GRESHAM,OR,97030
31550,701 GROVE RD,GREENVILLE,SC,29605
31551,1046 6TH AVENUE SW,ALBANY,OR,97321
31552,34TH & SPRUCE STS,PHILADELPHIA,PA,19104
31553,1086 FRANKLIN STREET,JOHNSTOWN,PA,15905
31554,100 NORTH ACADEMY AVENUE,DANVILLE,PA,17822
31555,2525 HOLLY HALL,HOUSTON,TX,77054
31556,169 ASHLEY AVE,CHARLESTON,SC,29425
31557,200 W OLLIE,LLANO,TX,78643
31558,100 HOSPITAL AVENUE,DUBOIS,PA,15801
31559,"1015 NW 22ND AVENUE, W121",PORTLAND,OR,97210
31560,"414 NAVARRO, SUITE 600",SAN ANTONIO,TX,78205
31561,800 EAST DAWSON,TYLER,TX,75701
31562,3600 NW SAMARITAN DRIVE,CORVALLIS,OR,97330
31563,1000 EAST MOUNTAIN BOULEVARD,WILKES BARRE,PA,18711
31564,19300 SW 65TH AVENUE,TUALATIN,OR,97062
31565,2401 31ST ST,TEMPLE,TX,76508
31566,500 UNIVERSITY DRIVE,HERSHEY,PA,17033
31567,3181 SW SAM JACKSON PARK ROAD,PORTLAND,OR,97239
31568,301 UNIVERSITY BOULEVARD,GALVESTON,TX,77555
31569,5201 HARRY HINES BLVD,DALLAS,TX,75235
31570,2801 FRANCISCAN DR,BRYAN,TX,77802
31571,1600 11TH STREET,WICHITA FALLS,TX,76301
31572,51 NORTH 39TH STREET,PHILADELPHIA,PA,19104
31573,4805 NE GLISAN STREET,PORTLAND,OR,97213
31574,4050 WEST MEMORIAL ROAD,OKLAHOMA CITY,OK,73120
31575,ONE MELLON WAY,LATROBE,PA,15650
31576,81 HILLCREST DRIVE,PUNXSUTAWNEY,PA,15767
31577,2801 N GANTENBEIN AVENUE,PORTLAND,OR,97227
31578,351 SW 9TH STREET,ONTARIO,OR,97914
31579,100 LANCASTER AVE,WYNNEWOOD,PA,19096
31580,1818 ALBION STREET,NASHVILLE,TN,37208
31581,1001 SOUTH GEORGE STREET,YORK,PA,17403
31582,2865 DAGGETT AVENUE,KLAMATH FALLS,OR,97601
31583,9205 SW BARNES ROAD,PORTLAND,OR,97225
31584,SIXTH AVENUE AND SPRUCE ST,READING,PA,19603
31585,1161 21ST AVENUE SOUTH,NASHVILLE,TN,37232
31586,133 FAIRFIELD STREET,SAINT ALBANS,VT,5478
31587,1615 DELAWARE STREET,LONGVIEW,WA,98632
31588,2520 CHERRY AVENUE,BREMERTON,WA,98310
31589,2811 TIETON DRIVE,YAKIMA,WA,98902
31590,9200 W WISCONSIN AVE,MILWAUKEE,WI,53226
31591,2901 SQUALICUM PARKWAY,BELLINGHAM,WA,98225
31592,2300 WESTERN AVE,MANITOWOC,WI,54221
31593,1969 W HART RD,BELOIT,WI,53511
31594,600 HIGHLAND AVENUE,MADISON,WI,53792
31595,3801 SPRING ST,RACINE,WI,53405
31596,260 26TH STREET,PRAIRIE DU SAC,WI,53578
31597,1321 COLBY AVENUE,EVERETT,WA,98201
31598,202 S PARK ST,MADISON,WI,53715
31599,1910 SOUTH AVE,LA CROSSE,WI,54601
31600,1959 NE PACIFIC ST  BOX 356151,SEATTLE,WA,98195
31601,111 COLCHESTER AVE,BURLINGTON,VT,5401
31602,611 SHERMAN AVE E,FORT ATKINSON,WI,53538
31603,1380 EAST MEDICAL CENTER DRIVE,ST GEORGE,UT,84790
31604,925 SENECA ST,SEATTLE,WA,98101
31605,1000 MINERAL POINT AVE,JANESVILLE,WI,53548
31606,1415 KINCAID STREET,MOUNT VERNON,WA,98274
31607,2323 N LAKE DR,MILWAUKEE,WI,53211
31608,1250 EAST MARSHALL STREET - BOX 980510,RICHMOND,VA,23298
31609,BOX 547,BARRE,VT,5641
31610,13710 ST FRANCIS BOULEVARD,MIDLOTHIAN,VA,23114
31611,"1906 BELLEVIEW AVENUE, SE",ROANOKE,VA,24014
31612,410 DEWEY ST,WISCONSIN RAPID,WI,54495
31613,333 PINE RIDGE BLVD,WAUSAU,WI,54401
31614,2005 5TH STREET,MONROE,WI,53566
31615,13111 N PORT WASHINGTON RD,MEQUON,WI,53097
31616,2251 NORTH SHORE DR,RHINELANDER,WI,54501
31617,700 WEST AVENUE SOUTH,LA CROSSE,WI,54601
31618,900 ILLINOIS AVE,STEVENS POINT,WI,54481
31619,1340 HAL GREER BOULEVARD,HUNTINGTON,WV,25701
31620,1 MEDICAL PARK,WHEELING,WV,26003
31621,3636 HIGH STREET,PORTSMOUTH,VA,23707
31622,150 KINGSLEY LANE,NORFOLK,VA,23505
31623,JEFFERSON PARK AVE,CHARLOTTESVILLE,VA,22908
31624,MEDICAL CENTER DRIVE,MORGANTOWN,WV,26506
31625,8260 ATLEE ROAD,MECHANICSVILLE,VA,23116
31626,2211 NE 139TH STREET,VANCOUVER,WA,98686
31627,600 GRESHAM DR,NORFOLK,VA,23507
31628,315 S MLK JR WAY,TACOMA,WA,98415
31629,12040 NE 128TH STREET,KIRKLAND,WA,98034
31630,1717 SOUTH J STREET,TACOMA,WA,98405
31631,5801 BREMO RD,RICHMOND,VA,23226
31632,5633 NORTH LIDGERWOOD,SPOKANE,WA,99208
31633,939 CAROLINE ST,PORT ANGELES,WA,98362
31634,325 9TH AVENUE,SEATTLE,WA,98104
31635,300 UNIVERSITY BLVD,ROUND ROCK,TX,78664
31636,888 SWIFT BLVD,RICHLAND,WA,99352
31637,101 WEST 8TH AVENUE,SPOKANE,WA,99204
31638,600 HIGHLAND AVENUE,MADISON,WI,53792
31639,1910 SOUTH AVE,LA CROSSE,WI,54601
31640,327 MEDICAL PARK DRIVE,BRIDGEPORT,WV,26330
31641,MEDICAL CENTER DRIVE,MORGANTOWN,WV,26506
31642,1200 SOUTH CEDAR CREST BOULVARD,ALLENTOWN,PA,18105
31643,1325 SPRING STREET,GREENWOOD,SC,29646
31644,800 N FANT ST,ANDERSON,SC,29621
31645,1635  NORTH LOOP WEST,HOUSTON,TX,77008
31646,500 W 4TH STREET,ODESSA,TX,79761
31647,4050 WEST MEMORIAL ROAD,OKLAHOMA CITY,OK,73120
31648,801 OSTRUM STREET,BETHLEHEM,PA,18015
31649,6161 SOUTH YALE,TULSA,OK,74136
31650,509 BILTMORE AVE,ASHEVILLE,NC,28801
31651,223 N VAN DIEN AVENUE,RIDGEWOOD,NJ,7450
31652,94 OLD SHORT HILLS ROAD,LIVINGSTON,NJ,7039
31653,300 SECOND AVENUE,LONG BRANCH,NJ,7740
31654,1600 HADDON AVENUE,CAMDEN,NJ,8103
31655,9500 EUCLID AVENUE,CLEVELAND,OH,44195
31656,272 HOSPITAL ROAD,CHILLICOTHE,OH,45601
31657,11100 EUCLID AVENUE,CLEVELAND,OH,44106
31658,410 WEST 10TH AVENUE,COLUMBUS,OH,43210
31659,1320 MERCY DRIVE NW,CANTON,OH,44708
31660,2222 PHILADELPHIA DRIVE,DAYTON,OH,45406
31661,ONE WYOMING STREET,DAYTON,OH,45409
31662,7007 POWERS BOULEVARD,PARMA,OH,44129
31663,525 EAST MARKET STREET,AKRON,OH,44309
31664,155 5TH STREET N E,BARBERTON,OH,44203
31665,2131 S 17TH ST BOX 9000,WILMINGTON,NC,28402
31666,99 RT 37 WEST,TOMS RIVER,NJ,8755
31667,2100 STANTONSBURG RD,GREENVILLE,NC,27834
31668,107 LINCOLN STREET,WORCESTER,MA,1605
31669,7500 SOUTH 91ST ST,LINCOLN,NE,68526
31670,85 HERRICK STREET,BEVERLY,MA,1915
31671,987400 NEBRASKA MEDICAL CENTER,OMAHA,NE,68198
31672,416 CONNABLE AVE,PETOSKEY,MI,49770
31673,4401 WORNALL ROAD,KANSAS CITY,MO,64111
31674,1102 WEST 32ND STREET,JOPLIN,MO,64804
31675,946 EAST REED,HAYTI,MO,63851
31676,1500 E SHERMAN BOULEVARD,MUSKEGON,MI,49444
31677,205 N CHERRY ST,MAGNOLIA,MS,39652
31678,830 S GLOSTER,TUPELO,MS,38801
31679,4100 JOHN R,DETROIT,MI,48201
31680,200 EAST CHESTNUT STREET,LOUISVILLE,KY,40202
31681,217 SOUTH THIRD STREET,DANVILLE,KY,40422
31682,701 N FIRST ST,SPRINGFIELD,IL,62781
31683,1199 PRINCE AVENUE,ATHENS,GA,30606
31684,1200 PLEASANT STREET,DES MOINES,IA,50309
31685,800 MEADOWS RD,BOCA RATON,FL,33486
31686,4601 MEDICAL PLAZA WAY,CLARKSVILLE,IN,47129
31687,2000 OGDEN AVENUE,AURORA,IL,60504
31688,915 GORDON AVENUE & MIMOSA DRIVE,THOMASVILLE,GA,31792
31689,601 W SECOND ST,BLOOMINGTON,IN,47403
31690,600 E BLVD,ELKHART,IN,46514
31691,1007 LINCOLNWAY,LA PORTE,IN,46350
31692,4440 W 95TH STREET,OAK LAWN,IL,60453
31693,"11 UPPER RIVERDALE ROAD, SW",RIVERDALE,GA,30274
31694,1000 HEALTH CENTER DRIVE P O BOX 372,MATTOON,IL,61938
31695,11234 ANDERSON ST,LOMA LINDA,CA,92354
31696,1 TAMPA GENERAL CIR,TAMPA,FL,33606
31697,600 E DIXIE AVE,LEESBURG,FL,34748
31698,1798 N GAREY AVE,POMONA,CA,91767
31699,751 MEDICAL CENTER COURT,CHULA VISTA,CA,91911
31700,4755 OGLETOWN-STANTON ROAD,NEWARK,DE,19718
31701,50 MEDICAL PARK EAST DRIVE,BIRMINGHAM,AL,35235
31702,4445 MAGNOLIA AVENUE,RIVERSIDE,CA,92501
31703,2105 EAST SOUTH BOULEVARD,MONTGOMERY,AL,36116
31704,10666 NORTH TORREY PINES ROAD,LA JOLLA,CA,92037
31705,2400 SOUTH AVENUE A,YUMA,AZ,85364
31706,1710 HARRISON STREET,BATESVILLE,AR,72503
31707,849 SOUTH THREE NOTCH STREET,ANDALUSIA,AL,36420
31708,800 SOUTH MAIN STREET,CORONA,CA,92882
31709,11234 ANDERSON ST,LOMA LINDA,CA,92354
31710,269 SOUTH CANDY LANE,COTTONWOOD,AZ,86326
31711,1600 WEST 40TH AVENUE,PINE BLUFF,AR,71603
31712,1520 N DIVISION STREET,BLYTHEVILLE,AR,72315
31713,1411 E 31ST STREET,OAKLAND,CA,94602
31714,101 HOSPITAL DRIVE,MAGNOLIA,AR,71754
31715,1700 MOUNT VERNON AVENUE,BAKERSFIELD,CA,93306
31716,5301 EAST GRANT ROAD,TUCSON,AZ,85712
31717,7301 ROGERS AVE,FORT SMITH,AR,72917
31718,1420 N TRACY BLVD,TRACY,CA,95376
31719,ONE MEDICAL PLAZA,ROSEVILLE,CA,95661
31720,1 TAMPA GENERAL CIR,TAMPA,FL,33606
31721,1001 TOWSON AVENUE,FORT SMITH,AR,72902
31722,300 PINELLAS ST,CLEARWATER,FL,33756
31723,2450 ASHBY AVE,BERKELEY,CA,94705
31724,1501 PASADENA AVE S,SAINT PETERSBUR,FL,33707
31725,1530 U S HIGHWAY 43,WINFIELD,AL,35594
31726,6002 BERRYHILL RD,MILTON,FL,32570
31727,275 HOSPITAL DRIVE,UKIAH,CA,95482
31728,151 REDSTONE AVE SE,CRESTVIEW,FL,32539
31729,1111 EAST MCDOWELL ROAD,PHOENIX,AZ,85006
31730,2200 OSPREY BLVD,BARTOW,FL,33831
31731,778 SCOGIN DRIVE,MONTICELLO,AR,71655
31732,18300 HIGHWAY 18,APPLE VALLEY,CA,92307
31733,60 MEMORIAL MEDICAL PKWY,PALM COAST,FL,32164
31734,1912 ALABAMA HIGHWAY 157,CULLMAN,AL,35058
31735,1350 13TH AVE S,JACKSONVILLE BE,FL,32250
31736,1300 SOUTH MONTGOMERY AVENUE,SHEFFIELD,AL,35660
31737,1600 SW ARCHER RD,GAINESVILLE,FL,32610
31738,638 CALIFORNIA AVENUE,CAMDEN,AR,71701
31739,2215 TRUXTUN AVENUE,BAKERSFIELD,CA,93301
31740,700 WEST OAK STREET,KISSIMMEE,FL,34741
31741,4200 SUN N LAKE BLVD,SEBRING,FL,33871
31742,2801 MEDICAL CENTER DRIVE,POCAHONTAS,AR,72455
31743,26520 CACTUS AVENUE,MORENO VALLEY,CA,92555
31744,1500 LEE BLVD,LEHIGH ACRES,FL,33936
31745,200 TYLER,WEST MEMPHIS,AR,72301
31746,30 MARK WEST SPRINGS ROAD,SANTA ROSA,CA,95403
31747,1000 36TH ST,VERO BEACH,FL,32960
31748,1201 7TH STREET SE,DECATUR,AL,35601
31749,368 NE FRANKLIN ST,LAKE CITY,FL,32055
31750,2121 SANTA MONICA BLVD,SANTA MONICA,CA,90404
31751,410 S 11TH ST,LAKE WALES,FL,33853
31752,1808 WEST MAIN STREET,RUSSELLVILLE,AR,72801
31753,1000 W MORENO ST,PENSACOLA,FL,32501
31754,110 LONGWOOD AVE,ROCKLEDGE,FL,32955
31755,1900 SULLIVAN AVENUE,DALY CITY,CA,94015
31756,400 HEALTH PARK BLVD,SAINT AUGUSTINE,FL,32086
31757,250 HOSPITAL PLACE,SOLDOTNA,AK,99669
31758,800 PRUDENTIAL DR,JACKSONVILLE,FL,32207
31759,1700 S TAMIAMI TRL,SARASOTA,FL,34239
31760,"2175 ROSALINE AVE, CLAIRMONT HGTS",REDDING,CA,96001
31761,201 E SAMPLE RD,POMPANO BEACH,FL,33064
31762,3333 SPRINGHILL DRIVE,NORTH LITTLE RO,AR,72117
31763,600 E DIXIE AVE,LEESBURG,FL,34748
31764,6601 WHITE FEATHER ROAD,JOSHUA TREE,CA,92252
31765,4413 US HWY 331 S,DEFUNIAK SPRING,FL,32435
31766,5301 S CONGRESS AVE,ATLANTIS,FL,33462
31767,2500 HARBOR BLVD,PORT CHARLOTTE,FL,33952
31768,2302 COLLEGE AVENUE,CONWAY,AR,72034
31769,5959 NW 7TH ST,MIAMI,FL,33126
31770,3001 W MARTIN LUTHER KING JR BLVD,TAMPA,FL,33677
31771,2500 ALHAMBRA AVE,MARTINEZ,CA,94553
31772,4725 N FEDERAL HWY,FORT LAUDERDALE,FL,33308
31773,2801 DEBARR ROAD,ANCHORAGE,AK,99508
31774,1055 SAXON BLVD,ORANGE CITY,FL,32763
31775,350 TERRACINA BLVD,REDLANDS,CA,92373
31776,624 HOSPITAL DRIVE,MOUNTAIN HOME,AR,72653
31777,17240 CORTEZ BLVD,BROOKSVILLE,FL,34601
31778,702 N MAIN ST,OPP,AL,36467
31779,540 THE RIALTO,VENICE,FL,34285
31780,757 WESTWOOD PLAZA,LOS ANGELES,CA,90095
31781,1613 NORTH MCKENZIE STREET,FOLEY,AL,36535
31782,7171 N DALE MABRY HWY,TAMPA,FL,33614
31783,301 MEMORIAL MEDICAL PARKWAY,DAYTONA BEACH,FL,32117
31784,1200 SEVENTH AVE N,SAINT PETERSBUR,FL,33705
31785,465 W PUTNAM AVE,PORTERVILLE,CA,93257
31786,6600 MADISON ST,NEW PORT RICHEY,FL,34652
31787,300 WERNER STREET,HOT SPRINGS,AR,71903
31788,1650 COWLES STREET,FAIRBANKS,AK,99701
31789,1500 SW 1ST AVE,OCALA,FL,34474
31790,901 OLIVE DRIVE,BAKERSFIELD,CA,93308
31791,1000 WATERMAN WAY,TAVARES,FL,32778
31792,1100 MARSHALL WAY,PLACERVILLE,CA,95667
31793,1395 S PINELLAS AVE,TARPON SPRINGS,FL,34689
31794,2190 HWY 85 N,NICEVILLE,FL,32578
31795,651 E 25TH ST,HIALEAH,FL,33013
31796,609 WEST MAPLE AVENUE,SPRINGDALE,AR,72764
31797,1441 CONSTITUTION BOULEVARD,SALINAS,CA,93906
31798,200 AVE F NE,WINTER HAVEN,FL,33881
31799,1900 DON WICKHAM DR,CLERMONT,FL,34711
31800,400 NORTH PEPPER AVENUE,COLTON,CA,92324
31801,1475 W 49TH ST,HIALEAH,FL,33012
31802,3600 S HIGHLANDS AVE,SEBRING,FL,33870
31803,225 E JACKSON,JONESBORO,AR,72401
31804,809 E MARION AVE,PUNTA GORDA,FL,33950
31805,7050 GALL BLVD,ZEPHYRHILLS,FL,33541
31806,3260 HOSPITAL DR,JUNEAU,AK,99801
31807,1150 NORTH INDIAN CANYON DRIVE,PALM SPRINGS,CA,92262
31808,701 W PLYMOUTH AVE,DELAND,FL,32720
31809,200 SE HOSPITAL AVE,STUART,FL,34995
31810,1555 SOQUEL DRIVE,SANTA CRUZ,CA,95065
31811,601 MAIN ST,DUNEDIN,FL,34698
31812,1 SHIRCLIFF WAY,JACKSONVILLE,FL,32204
31813,1509 E WILSON TERRACE,GLENDALE,CA,91206
31814,700 WEST MARKET STREET,ATHENS,AL,35611
31815,1600 S ANDREWS AVE,FORT LAUDERDALE,FL,33316
31816,3501 JOHNSON ST,HOLLYWOOD,FL,33021
31817,2500 SOUTH WOODWORTH LOOP,PALMER,AK,99645
31818,300 W HUNTINGTON DR,ARCADIA,CA,91006
31819,620 NORTH MAIN STREET,HARRISON,AR,72601
31820,206 2ND ST E,BRADENTON,FL,34208
31821,4300 ALTON RD,MIAMI BEACH,FL,33140
31822,701 6TH ST S,SAINT PETERSBUR,FL,33701
31823,501 SOUTH BUENA VISTA,BURBANK,CA,91505
31824,10000 W COLONIAL DR,OCOEE,FL,34761
31825,4301 WEST MARKHAM STREET MAIL SLOT 612,LITTLE ROCK,AR,72205
31826,1100 NW 95TH ST,MIAMI,FL,33150
31827,BOX 196604,ANCHORAGE,AK,99508
31828,951 N WASHINGTON AVE,TITUSVILLE,FL,32796
31829,615 N BONITA AVE,PANAMA CITY,FL,32401
31830,5151 N 9TH AVE,PENSACOLA,FL,32504
31831,1798 N GAREY AVE,POMONA,CA,91767
31832,502 W HIGHLAND BLVD,INVERNESS,FL,34452
31833,1611 NW 12TH AVE,MIAMI,FL,33136
31834,619 SOUTH 19TH STREET,BIRMINGHAM,AL,35233
31835,311 NORTH MORROW STREET,MENA,AR,71953
31836,12601 GARDEN GROVE BLVD,GARDEN GROVE,CA,92843
31837,1350 S HICKORY ST,MELBOURNE,FL,32901
31838,1001 POTRERO AVENUE,SAN FRANCISCO,CA,94110
31839,400 EAST 10TH STREET,ANNISTON,AL,36207
31840,350 7TH ST N,NAPLES,FL,34102
31841,3214 EAST RACE AVENUE,SEARCY,AR,72143
31842,303 N CLYDE MORRIS BLVD,DAYTONA BEACH,FL,32114
31843,1111 W LA PALMA AVENUE,ANAHEIM,CA,92801
31844,401 PALMETTO ST,NEW SMYRNA BEAC,FL,32170
31845,2776 CLEVELAND AVE,FORT MYERS,FL,33901
31846,1000 FIRST STREET NORTH,ALABASTER,AL,35007
31847,5974 PENTZ ROAD,PARADISE,CA,95969
31848,1400 NW 12TH AVE,MIAMI,FL,33136
31849,8900 N KENDALL DR,MIAMI,FL,33176
31850,ONE HOAG DRIVE,NEWPORT BEACH,CA,92663
31851,719 DETROIT STREET,DANVILLE,AR,72833
31852,601 E ROLLINS ST,ORLANDO,FL,32803
31853,1414 KUHL AVE,ORLANDO,FL,32806
31854,2710 RIFE MEDICAL LANE,ROGERS,AR,72758
31855,751 MEDICAL CENTER COURT,CHULA VISTA,CA,91911
31856,2815 S SEACREST BLVD,BOYNTON BEACH,FL,33435
31857,315 W HICKORY ST,SYLACAUGA,AL,35150
31858,655 W 8TH ST,JACKSONVILLE,FL,32209
31859,2070 CLINTON AVE,ALAMEDA,CA,94501
31860,110 IRVING ST NW,WASHINGTON,DC,20010
31861,38600 MEDICAL CENTER DRIVE,PALMDALE,CA,93552
31862,TWO ST VINCENT CIRCLE,LITTLE ROCK,AR,72205
31863,170 ALAMEDA DE LAS PULGAS,REDWOOD CITY,CA,94062
31864,1310 SOUTHERN AVENUE  SE,WASHINGTON,DC,20032
31865,1150 VARNUM ST NE,WASHINGTON,DC,20017
31866,2000 MOWRY AVE,FREMONT,CA,94538
31867,5255 LOUGHBORO RD NW,WASHINGTON,DC,20016
31868,83825 HIGHWAY 9    P O BOX 1270,ASHLAND,AL,36251
31869,3800 RESERVOIR RD,WASHINGTON,DC,20007
31870,75 NIELSON STREET,WATSONVILLE,CA,95076
31871,2041 GEORGIA AVE NW,WASHINGTON,DC,20060
31872,3215 N NORTH HILLS BLVD,FAYETTEVILLE,AR,72703
31873,900 23RD ST NW,WASHINGTON,DC,20037
31874,1050 LINDEN AVE,LONG BEACH,CA,90813
31875,424 SAVANNAH RD,LEWES,DE,19958
31876,801 MIDDLEFORD RD,SEAFORD,DE,19973
31877,1601 YGNACIO VALLEY RD,WALNUT CREEK,CA,94598
31878,820 W WASHINGTON ST,EUFAULA,AL,36027
31879,640 S STATE STREET,DOVER,DE,19901
31880,4755 OGLETOWN-STANTON ROAD,NEWARK,DE,19718
31881,825 DELBON AVE,TURLOCK,CA,95382
31882,22 MASONIC AVE,WALLINGFORD,CT,6492
31883,263 FARMINGTON AVE,FARMINGTON,CT,6032
31884,1165 MONTGOMERY DR,SANTA ROSA,CA,95405
31885,100 GRAND STREET,NEW BRITAIN,CT,6050
31886,3316 HIGHWAY 280,ALEXANDER CITY,AL,35010
31887,12401 E WASHINGTON BLVD,WHITTIER,CA,90602
31888,24 STEVENS STREET,NORWALK,CT,6856
31889,24 HOSPITAL AVE,DANBURY,CT,6810
31890,101 E VALENCIA MESA DRIVE,FULLERTON,CA,92835
31891,130 DIVISION ST,DERBY,CT,6418
31892,1900 NORTH HIGLEY ROAD,GILBERT,AZ,85234
31893,BREWSTER RD,BRISTOL,CT,6010
31894,2800 MAIN ST,BRIDGEPORT,CT,6606
31895,500 W HOSPITAL ROAD,FRENCH CAMP,CA,95231
31896,71 HAYNES ST,MANCHESTER,CT,6040
31897,3291 LOMA VISTA RD,VENTURA,CA,93003
31898,1301 SOUTH CRISMON ROAD,MESA,AZ,85209
31899,80 SEYMOUR STREET,HARTFORD,CT,6102
31900,2105 FOREST AVENUE,SAN JOSE,CA,95128
31901,326 WASHINGTON ST,NORWICH,CT,6360
31902,1701 SOUTH PELHAM ROAD,JACKSONVILLE,AL,36265
31903,20 YORK ST,NEW HAVEN,CT,6504
31904,3555 SOUTH VAL VISTA DRIVE,GILBERT,AZ,85296
31905,900 HYDE ST,SAN FRANCISCO,CA,94109
31906,112 MANSFIELD AVE,WILLIMANTIC,CT,6226
31907,205 MARENGO STREET,FLORENCE,AL,35631
31908,155 GLASSON WAY,GRASS VALLEY,CA,95945
31909,28 CRESCENT ST,MIDDLETOWN,CT,6457
31910,7700 EAST FLORENTINE ROAD,PRESCOTT VALLEY,AZ,86314
31911,300 SEASIDE AVENUE,MILFORD,CT,6460
31912,1401 SOUTH GRAND AVENUE,LOS ANGELES,CA,90015
31913,3719 DAUPHIN STREET,MOBILE,AL,36608
31914,5 PERRYRIDGE RD,GREENWICH,CT,6830
31915,5330 SOUTH HIGHWAY 95,FORT MOHAVE,AZ,86426
31916,23625 W R HOLMAN HIGHWAY,MONTEREY,CA,93940
31917,435 LEWIS AVE,MERIDEN,CT,6450
31918,56 FRANKLIN ST,WATERBURY,CT,6706
31919,21 ELM ST,NEW MILFORD,CT,6776
31920,31 UNION ST,ROCKVILLE,CT,6066
31921,540 LITCHFIELD ST,TORRINGTON,CT,6790
31922,6245 DE LONGPRE AVE,HOLLYWOOD,CA,90028
31923,267 GRANT STREET,BRIDGEPORT,CT,6610
31924,726 4TH ST,MARYSVILLE,CA,95901
31925,201 CHESTNUT HILL RD,STAFFORD SPRING,CT,6076
31926,2800 EAST AJO WAY,TUCSON,AZ,85713
31927,365 MONTAUK AVE,NEW LONDON,CT,6320
31928,2010 BROOKWOOD MEDICAL CENTER DRIVE,BIRMINGHAM,AL,35209
31929,180 ROWLAND WAY,NOVATO,CA,94945
31930,30 SHELBURNE ROAD,STAMFORD,CT,6904
31931,380 WOODS COVE ROAD,SCOTTSBORO,AL,35768
31932,2101 N WATERMAN AVE,SAN BERNARDINO,CA,92404
31933,64 ROBBINS ST,WATERBURY,CT,6721
31934,"50 HOSPITAL HILL ROAD, PO BOX 789",SHARON,CT,6069
31935,4002 VISTA WAY,OCEANSIDE,CA,92056
31936,320 POMFRET STREET,PUTNAM,CT,6260
31937,13677 WEST MCDOWELL ROAD,GOODYEAR,AZ,85395
31938,114 WOODLAND STREET,HARTFORD,CT,6105
31939,1325 COTTONWOOD STREET,WOODLAND,CA,95695
31940,15107 VANOWEN ST,VAN NUYS,CA,91406
31941,2500 ROCKY MOUNTAIN AVENUE,LOVELAND,CO,80538
31942,340 PEAK ONE DRIVE,FRISCO,CO,80443
31943,575 RIVERGATE LANE,DURANGO,CO,81301
31944,225 N JACKSON AVENUE,SAN JOSE,CA,95116
31945,200 EXEMPLA CIRCLE,LAFAYETTE,CO,80026
31946,9395 CROWN CREST BLVD,PARKER,CO,80138
31947,ONE HOSPITAL DR SE,HUNTSVILLE,AL,35801
31948,1812 VERDUGO BLVD,GLENDALE,CA,91209
31949,5777 EAST MAYO BOULEVARD,PHOENIX,AZ,85054
31950,202 HOSPITAL STREET,MOULTON,AL,35650
31951,525 WEST ACACIA STREET,STOCKTON,CA,95203
31952,10101 RIDGE GATE PARKWAY,LONE TREE,CO,80124
31953,2000 PEPPERELL PARKWAY,OPELIKA,AL,36801
31954,14300 ORCHARD PARKWAY,BROOMFIELD,CO,80023
31955,115 MALL DRIVE,HANFORD,CA,93230
31956,1501 S POTOMAC ST,AURORA,CO,80012
31957,1205 E NORTH ST,MANTECA,CA,95336
31958,181 W MEADOW DRIVE,VAIL,CO,81657
31959,615 FAIRHURST ST,STERLING,CO,80751
31960,2735 SILVER CREEK ROAD,BULLHEAD CITY,AZ,86442
31961,18300 ROSCOE BLVD,NORTHRIDGE,CA,91325
31962,1906 BLAKE AVE,GLENWOOD SPRING,CO,81601
31963,1501 E 3RD STREET,DELTA,CO,81416
31964,7063 VETERANS PARKWAY,PELL CITY,AL,35125
31965,555 E VALLEY PARKWAY,ESCONDIDO,CA,92025
31966,2525 S DOWNING ST,DENVER,CO,80210
31967,18701 NORTH 67TH AVENUE,GLENDALE,AZ,85308
31968,222 W 39TH AVE,SAN MATEO,CA,94403
31969,1024 CENTRAL PARK DR,STEAMBOAT SPRIN,CO,80487
31970,1000 LINCOLN ST,FORT MORGAN,CO,80701
31971,1250 16TH STREET,SANTA MONICA,CA,90404
31972,1100 CARSON AVENUE,LA JUNTA,CO,81050
31973,200 MED CENTER DRIVE,FORT PAYNE,AL,35968
31974,501 E HAMPDEN AVENUE,ENGLEWOOD,CO,80113
31975,4567 E 9TH AVENUE,DENVER,CO,80220
31976,2222 N NEVADA AVE,COLORADO SPRING,CO,80907
31977,2801 L STREET,SACRAMENTO,CA,95816
31978,2000 BOISE AVE,LOVELAND,CO,80538
31979,1375 EAST 19TH AVE,DENVER,CO,80218
31980,4747 ARAPAHOE AVENUE,BOULDER,CO,80304
31981,1400 E CHURCH ST,SANTA MARIA,CA,93454
31982,12605 EAST 16TH AVENUE,AURORA,CO,80045
31983,1330 HIGHWAY 231 SOUTH,TROY,AL,36081
31984,5555 WEST THUNDERBIRD ROAD,GLENDALE,AZ,85306
31985,3630 EAST IMPERIAL HIGHWAY,LYNWOOD,CA,90262
31986,2635 N 7TH STREET,GRAND JUNCTION,CO,81502
31987,1720 E CESAR AVENUE,LOS ANGELES,CA,90033
31988,1400 E BOULDER ST,COLORADO SPRING,CO,80909
31989,400 W 16TH STREET,PUEBLO,CO,81003
31990,6644 EAST BAYWOOD AVENUE,MESA,AZ,85206
31991,3865 JACKSON STREET,RIVERSIDE,CA,92503
31992,300 HOSPITAL DR,VALLEJO,CA,94589
31993,11600 WEST 2ND PLACE,LAKEWOOD,CO,80228
31994,7901 FROST ST,SAN DIEGO,CA,92123
31995,1719 E 19TH AVE,DENVER,CO,80218
31996,1010 THREE SPRINGS BLVD,DURANGO,CO,81301
31997,1008 MINNEQUA AVE,PUEBLO,CO,81004
31998,9003 EAST SHEA BOULEVARD,SCOTTSDALE,AZ,85260
