33999,1000 OAKLEAF WAY,ALTOONA,WI,54720
34000,475 W RIVER WOODS PKWY,GLENDALE,WI,53212
34001,502 W FOURTH AVE,TOPPENISH,WA,98948
34002,2845 GREENBRIER RD,GREEN BAY,WI,54311
34003,2811 TIETON DRIVE,YAKIMA,WA,98902
34004,10400 75TH ST,KENOSHA,WI,53142
34005,830 KEMPSVILLE ROAD,NORFOLK,VA,23502
34006,100 HOSPITAL DRIVE,BENNINGTON,VT,5201
34007,9200 W WISCONSIN AVE,MILWAUKEE,WI,53226
34008,1818 N MEADE ST,APPLETON,WI,54911
34009,915 ANDERSON DRIVE,ABERDEEN,WA,98520
34010,8901 W LINCOLN AVE,WEST ALLIS,WI,53227
34011,1000 NORTH MAIN STREET,RICHFIELD,UT,84701
34012,2901 SQUALICUM PARKWAY,BELLINGHAM,WA,98225
34013,8700 SUDLEY RD,MANASSAS,VA,20110
34014,2900 W OKLAHOMA AVE,MILWAUKEE,WI,53215
34015,5000 W CHAMBERS ST,MILWAUKEE,WI,53210
34016,747 BROADWAY,SEATTLE,WA,98122
34017,125 HOSPITAL DRIVE,WATERTOWN,WI,53098
34018,17 BELMONT AVE,BRATTLEBORO,VT,5301
34019,2800 GODWIN BOULEVARD,SUFFOLK,VA,23439
34020,3100 SHORE DRIVE,MARINETTE,WI,54143
34021,21601 76TH AVENUE WEST,EDMONDS,WA,98026
34022,1050 DIVISION ST,MAUSTON,WI,53948
34023,2300 WESTERN AVE,MANITOWOC,WI,54221
34024,500 17TH AVENUE,SEATTLE,WA,98122
34025,W180 N8085 TOWN HALL RD,MENOMONEE FALLS,WI,53051
34026,413 LILLY ROAD NE,OLYMPIA,WA,98506
34027,44045 RIVERSIDE PARKWAY,LEESBURG,VA,20176
34028,W3985 COUNTY ROAD NN,ELKHORN,WI,53121
34029,1969 W HART RD,BELOIT,WI,53511
34030,11315 BRIDGEPORT WAY S W,LAKEWOOD,WA,98499
34031,170 NORTH 1100 EAST,AMERICAN FORK,UT,84003
34032,160 ALLEN ST,RUTLAND,VT,5701
34033,600 HIGHLAND AVENUE,MADISON,WI,53792
34034,914 S SCHEUBER ROAD,CENTRALIA,WA,98531
34035,2900 LAMB CIRCLE,CHRISTIANSBURG,VA,24073
34036,1034 NORTH 500 WEST,PROVO,UT,84604
34037,1201 SOUTH MILLER STREET,WENATCHEE,WA,98807
34038,1726 SHAWANO AVE,GREEN BAY,WI,54303
34039,3801 SPRING ST,RACINE,WI,53405
34040,202 NORTH DIVISION STREET PLAZA ONE,AUBURN,WA,98001
34041,260 26TH STREET,PRAIRIE DU SAC,WI,53578
34042,240 MAPLE ST,WOODRUFF,WI,54568
34043,1321 COLBY AVENUE,EVERETT,WA,98201
34044,2 BERNARDINE DRIVE,NEWPORT NEWS,VA,23602
34045,202 S PARK ST,MADISON,WI,53715
34046,110 SOUTH NINTH AVE,YAKIMA,WA,98902
34047,430 E DIVISON ST,FOND DU LAC,WI,54935
34048,16251 SYLVESTER ROAD SW,BURIEN,WA,98166
34049,1910 SOUTH AVE,LA CROSSE,WI,54601
34050,4320 SEMINARY RD,ALEXANDRIA,VA,22304
34051,50 NORTH MEDICAL DRIVE,SALT LAKE CITY,UT,84132
34052,700 SOUTH PARK ST,MADISON,WI,53715
34053,1959 NE PACIFIC ST  BOX 356151,SEATTLE,WA,98195
34054,111 COLCHESTER AVE,BURLINGTON,VT,5401
34055,3237 S 16TH ST,MILWAUKEE,WI,53215
34056,707 S UNIVERSITY AVE,BEAVER DAM,WI,53916
34057,245 MEDICAL PARK DRIVE,MARION,VA,24354
34058,835 S VAN BUREN ST,GREEN BAY,WI,54301
34059,1211  24TH STREET,ANACORTES,WA,98221
34060,1380 EAST MEDICAL CENTER DRIVE,ST GEORGE,UT,84790
34061,611 SHERMAN AVE E,FORT ATKINSON,WI,53538
34062,9507 HOSPITAL AVENUE,NASSAWADOX,VA,23413
34063,925 SENECA ST,SEATTLE,WA,98101
34064,1221 WHIPPLE ST,EAU CLAIRE,WI,54703
34065,1000 MINERAL POINT AVE,JANESVILLE,WI,53548
34066,3200 PLEASANT VALLEY ROAD,WEST BEND,WI,53095
34067,1415 KINCAID STREET,MOUNT VERNON,WA,98274
34068,1000 NORTH SHENANDOAH AVE,FRONT ROYAL,VA,22630
34069,791 E SUMMIT AVE,OCONOMOWOC,WI,53066
34070,252 MCHENRY ST,BURLINGTON,WI,53105
34071,707 14TH ST,BARABOO,WI,53913
34072,401 W POPLAR ST,WALLA WALLA,WA,99362
34073,2323 N LAKE DR,MILWAUKEE,WI,53211
34074,1250 EAST MARSHALL STREET - BOX 980510,RICHMOND,VA,23298
34075,1550 NORTH 115TH STREET,SEATTLE,WA,98133
34076,744 S WEBSTER AVE,GREEN BAY,WI,54305
34077,500 S OAKWOOD RD,OSHKOSH,WI,54904
34078,BOX 547,BARRE,VT,5641
34079,4600 SPOTSYLVANIA PARKWAY,FREDERICKSBURG,VA,22408
34080,130 2ND ST,NEENAH,WI,54956
34081,"101 HOSPITAL CENTER BOULEVARD, SUITE 307",STAFFORD,VA,22554
34082,5475 SOUTH 500 EAST,OGDEN,UT,84405
34083,3100 SUPERIOR AVE,SHEBOYGAN,WI,53081
34084,13710 ST FRANCIS BOULEVARD,MIDLOTHIAN,VA,23114
34085,1032 E SUMNER ST,HARTFORD,WI,53027
34086,7519 HOSPITAL ROAD,GLOUCESTER,VA,23061
34087,"1906 BELLEVIEW AVENUE, SE",ROANOKE,VA,24014
34088,2629 N 7TH ST,SHEBOYGAN,WI,53083
34089,5000 MEMORIAL DRIVE,TWO RIVERS,WI,54241
34090,ONE ARH LANE - PO BOX 7,LOW MOOR,VA,24457
34091,410 DEWEY ST,WISCONSIN RAPID,WI,54495
34092,101 HARRIS ROAD,KILMARNOCK,VA,22482
34093,333 PINE RIDGE BLVD,WAUSAU,WI,54401
34094,2501 PARKERS LANE,ALEXANDRIA,VA,22306
34095,2005 5TH STREET,MONROE,WI,53566
34096,3741 WEST 12600 SOUTH,RIVERTON,UT,84065
34097,"736 BATTLEFIELD BLVD, NORTH",CHESAPEAKE,VA,23320
34098,500 HOSPITAL DRIVE,WARRENTON,VA,20186
34099,13111 N PORT WASHINGTON RD,MEQUON,WI,53097
34100,6308 EIGHTH AVE,KENOSHA,WI,53143
34101,2025 GLENN MITCHELL DRIVE,VIRGINIA BEACH,VA,23456
34102,2251 NORTH SHORE DR,RHINELANDER,WI,54501
34103,950 SOUTH MEDICAL DRIVE,BRIGHAM CITY,UT,84302
34104,1001 SAM PERRY BOULEVARD,FREDERICKSBURG,VA,22401
34105,1602 SKIPWITH ROAD,RICHMOND,VA,23229
34106,2661 COUNTY HWY I,CHIPPEWA FALLS,WI,54729
34107,900 W CLAIREMONT AVE,EAU CLAIRE,WI,54701
34108,1506 S ONEIDA ST,APPLETON,WI,54915
34109,2400 LEE HIGHWAY,PULASKI,VA,24301
34110,725 AMERICAN AVE,WAUKESHA,WI,53188
34111,200 HOSPITAL DRIVE,GALAX,VA,24333
34112,1920 ATHERHOLT ROAD,LYNCHBURG,VA,24501
34113,2380 NORTH 400 EAST,NORTH LOGAN,UT,84341
34114,700 WEST AVENUE SOUTH,LA CROSSE,WI,54601
34115,1990 HOLTON AVENUE EAST,BIG STONE GAP,VA,24219
34116,900 ILLINOIS AVE,STEVENS POINT,WI,54481
34117,2300 OPITZ BOULEVARD,WOODBRIDGE,VA,22191
34118,1400 HOSPITAL DRIVE,HURRICANE,WV,25526
34119,500 EAST 1400 NORTH,LOGAN,UT,84341
34120,7101 JAHNKE ROAD,RICHMOND,VA,23235
34121,#3 EAST BENJAMIN DRIVE,NEW MARTINSVILL,WV,26155
34122,1710 HARPER ROAD,BECKLEY,WV,25801
34123,600 WEST RIDGE ROAD,WYTHEVILLE,VA,24382
34124,501 SUNSET LANE,CULPEPER,VA,22701
34125,306 STANAFORD ROAD,BECKLEY,WV,25801
34126,800 GARFIELD AVE,PARKERSBURG,WV,26101
34127,1850 TOWN CENTER PARKWAY,RESTON,VA,20190
34128,3580 WEST 9000 SOUTH,WEST JORDAN,UT,84088
34129,1340 HAL GREER BOULEVARD,HUNTINGTON,WV,25701
34130,78 MEDICAL CENTER DRIVE,FISHERSVILLE,VA,22939
34131,3600 JOSEPH SIEWICK DRIVE,FAIRFAX,VA,22033
34132,1 MEDICAL PARK,WHEELING,WV,26003
34133,125 BUENA VISTA CIRCLE,SOUTH HILL,VA,23970
34134,1325 LOCUST AVENUE,FAIRMONT,WV,26554
34135,122 12TH STREET,PRINCETON,WV,24740
34136,3636 HIGH STREET,PORTSMOUTH,VA,23707
34137,2000 EOFF STREET,WHEELING,WV,26003
34138,1500 N. 28TH STREET,RICHMOND,VA,23223
34139,230 HOSPITAL PLAZA,WESTON,WV,26452
34140,3000 COLISEUM DRIVE,HAMPTON,VA,23666
34141,333 LAIDLEY ST,CHARLESTON,WV,25301
34142,5848 SOUTH 300 EAST,MURRAY,UT,84107
34143,4605 MACCORKLE AVE SW,SOUTH CHARLESTO,WV,25309
34144,1303 NORTH MAIN STREET,CEDAR CITY,UT,84721
34145,2204 WILBORN AVENUE,HALIFAX,VA,24558
34146,1200 JD ANDERSON DR,MORGANTOWN,WV,26505
34147,601 COLLIERS WAY,WEIRTON,WV,26062
34148,1200 EAST 3900 SOUTH,SALT LAKE CITY,UT,84124
34149,501 MORRIS STREET,CHARLESTON,WV,25301
34150,800 OAK STREET,FARMVILLE,VA,23901
34151,150 KINGSLEY LANE,NORFOLK,VA,23505
34152,800 WHEELING AVE,GLEN DALE,WV,26038
34153,2520 VALLEY DRIVE,POINT PLEASANT,WV,25550
34154,2500 HOSPITAL DRIVE,MARTINSBURG,WV,25401
34155,618 HOSPITAL ROAD,TAPPAHANNOCK,VA,22560
34156,2900 1ST AVENUE,HUNTINGTON,WV,25702
34157,320 HOSPITAL DRIVE,MARTINSVILLE,VA,24115
34158,327 MEDICAL PARK DRIVE,BRIDGEPORT,WV,26330
34159,JEFFERSON PARK AVE,CHARLOTTESVILLE,VA,22908
34160,202 MAPLEWOOD AVENUE  PO BOX 497,RONCEVERTE,WV,24970
34161,500 MARTHA JEFFERSON DRIVE,CHARLOTTESVILLE,VA,22911
34162,9660 SOUTH 1300 EAST,SANDY,UT,84094
34163,MEDICAL CENTER DRIVE,MORGANTOWN,WV,26506
34164,142 SOUTH MAIN STREET,DANVILLE,VA,24541
34165,751 NE BLAKELY DR,ISSAQUAH,WA,98029
34166,11567 CANTERWOOD BOULEVARD NW,GIG HARBOR,WA,98332
34167,8260 ATLEE ROAD,MECHANICSVILLE,VA,23116
34168,2211 NE 139TH STREET,VANCOUVER,WA,98686
34169,820 NORTH CHELAN AVENUE,WENATCHEE,WA,98801
34170,600 GRESHAM DR,NORFOLK,VA,23507
34171,200 MEDICAL PARK BOULEVARD,PETERSBURG,VA,23805
34172,34515 9TH AVENUE SOUTH,FEDERAL WAY,WA,98003
34173,630 EAST MEDICAL DRIVE,BOUNTIFUL,UT,84010
34174,3900 CAPITAL MALL DR SW,OLYMPIA,WA,98502
34175,315 S MLK JR WAY,TACOMA,WA,98415
34176,100 SENTARA CIRCLE,WILLIAMSBURG,VA,23188
34177,12040 NE 128TH STREET,KIRKLAND,WA,98034
34178,4401 HARRISON BOULEVARD,OGDEN,UT,84403
34179,"8110 GATEHOUSE ROAD, 400 WEST",FALLS CHURCH,VA,22042
34180,12606 EAST MISSION AVENUE,SPOKANE,WA,99216
34181,1717 SOUTH J STREET,TACOMA,WA,98405
34182,1840 AMHERST ST,WINCHESTER,VA,22601
34183,400 S 43RD ST,RENTON,WA,98055
34184,2949 WEST FRONT STREET,RICHLANDS,VA,24641
34185,1600 WEST ANTELOPE DRIVE,LAYTON,UT,84041
34186,14701 179TH SE,MONROE,WA,98272
34187,401 15TH AVENUE SE,PUYALLUP,WA,98372
34188,18500 KATY FREEWAY,HOUSTON,TX,77094
34189,5801 BREMO RD,RICHMOND,VA,23226
34190,5633 NORTH LIDGERWOOD,SPOKANE,WA,99208
34191,939 CAROLINE ST,PORT ANGELES,WA,98362
34192,8TH AVENUE AND C STREET,SALT LAKE CITY,UT,84143
34193,2010 HEALTH CAMPUS DRIVE,HARRISONBURG,VA,22801
34194,325 9TH AVENUE,SEATTLE,WA,98104
34195,1060 FIRST COLONIAL ROAD,VIRGINIA BEACH,VA,23454
34196,3280 JOE BATTLE BLVD,EL PASO,TX,79938
34197,3150 HORIZON ROAD,ROCKWALL,TX,75032
34198,1401 MEDICAL PARKWAY,CEDAR PARK,TX,78613
34199,330 S STILLAGUAMISH AVE,ARLINGTON,WA,98223
34200,300 UNIVERSITY BLVD,ROUND ROCK,TX,78664
34201,888 SWIFT BLVD,RICHLAND,WA,99352
34202,4600 EAST SAM HOUSTON PARKWAY SOUTH,PASADENA,TX,77505
34203,16000 JOHNSTON MEMORIAL DRIVE,ABINGDON,VA,24211
34204,5121 SOUTH COTTONWOOD STREET,MURRAY,UT,84107
34205,1100 ALLIED DRIVE,PLANO,TX,75093
34206,905 NORTH 1000 WEST,TREMONTON,UT,84337
34207,101 WEST 8TH AVENUE,SPOKANE,WA,99204
34208,21214 NORTHWEST FREEWAY,CYPRESS,TX,77429
34209,2700 E BROAD STREET,MANSFIELD,TX,76063
34210,7501 FANNIN,HOUSTON,TX,77054
34211,900 SOUTH AUBURN STREET,KENNEWICK,WA,99336
34212,500 J CLYDE MORRIS BLVD,NEWPORT NEWS,VA,23601
34213,2929  SOUTH HAMPTON ROAD,DALLAS,TX,75224
34214,1035-116TH AVE NE,BELLEVUE,WA,98004
34215,190 ARROWHEAD DR,EVANSTON,WY,82930
34216,255 N 30TH,LARAMIE,WY,82072
34217,625 EAST BROADWAY,JACKSON,WY,83001
34218,400 NE MOTHER JOSEPH PLACE,VANCOUVER,WA,98668
34219,100  15TH ST NW,NORTON,VA,24273
34220,214 EAST 23RD STREET,CHEYENNE,WY,82001
34221,1401 W 5TH ST,SHERIDAN,WY,82801
34222,975 PORT WASHINGTON ROAD,GRAFTON,WI,53024
34223,1615 DELAWARE STREET,LONGVIEW,WA,98632
34224,150 WEST 100 NORTH,VERNAL,UT,84078
34225,1900 ELECTRIC ROAD,SALEM,VA,24153
34226,2845 GREENBRIER RD,GREEN BAY,WI,54311
34227,2811 TIETON DRIVE,YAKIMA,WA,98902
34228,830 KEMPSVILLE ROAD,NORFOLK,VA,23502
34229,100 HOSPITAL DRIVE,BENNINGTON,VT,5201
34230,9200 W WISCONSIN AVE,MILWAUKEE,WI,53226
34231,1818 N MEADE ST,APPLETON,WI,54911
34232,2901 SQUALICUM PARKWAY,BELLINGHAM,WA,98225
34233,2900 W OKLAHOMA AVE,MILWAUKEE,WI,53215
34234,5000 W CHAMBERS ST,MILWAUKEE,WI,53210
34235,125 HOSPITAL DRIVE,WATERTOWN,WI,53098
34236,2800 GODWIN BOULEVARD,SUFFOLK,VA,23439
34237,1050 DIVISION ST,MAUSTON,WI,53948
34238,2300 WESTERN AVE,MANITOWOC,WI,54221
34239,500 17TH AVENUE,SEATTLE,WA,98122
34240,W180 N8085 TOWN HALL RD,MENOMONEE FALLS,WI,53051
34241,1969 W HART RD,BELOIT,WI,53511
34242,160 ALLEN ST,RUTLAND,VT,5701
34243,600 HIGHLAND AVENUE,MADISON,WI,53792
34244,914 S SCHEUBER ROAD,CENTRALIA,WA,98531
34245,2900 LAMB CIRCLE,CHRISTIANSBURG,VA,24073
34246,1726 SHAWANO AVE,GREEN BAY,WI,54303
34247,3801 SPRING ST,RACINE,WI,53405
34248,260 26TH STREET,PRAIRIE DU SAC,WI,53578
34249,240 MAPLE ST,WOODRUFF,WI,54568
34250,202 S PARK ST,MADISON,WI,53715
34251,430 E DIVISON ST,FOND DU LAC,WI,54935
34252,1910 SOUTH AVE,LA CROSSE,WI,54601
34253,50 NORTH MEDICAL DRIVE,SALT LAKE CITY,UT,84132
34254,1959 NE PACIFIC ST  BOX 356151,SEATTLE,WA,98195
34255,700 SOUTH PARK ST,MADISON,WI,53715
34256,111 COLCHESTER AVE,BURLINGTON,VT,5401
34257,3237 S 16TH ST,MILWAUKEE,WI,53215
34258,707 S UNIVERSITY AVE,BEAVER DAM,WI,53916
34259,245 MEDICAL PARK DRIVE,MARION,VA,24354
34260,611 SHERMAN AVE E,FORT ATKINSON,WI,53538
34261,9507 HOSPITAL AVENUE,NASSAWADOX,VA,23413
34262,925 SENECA ST,SEATTLE,WA,98101
34263,1000 MINERAL POINT AVE,JANESVILLE,WI,53548
34264,1415 KINCAID STREET,MOUNT VERNON,WA,98274
34265,1000 NORTH SHENANDOAH AVE,FRONT ROYAL,VA,22630
34266,707 14TH ST,BARABOO,WI,53913
34267,401 W POPLAR ST,WALLA WALLA,WA,99362
34268,1250 EAST MARSHALL STREET - BOX 980510,RICHMOND,VA,23298
34269,2323 N LAKE DR,MILWAUKEE,WI,53211
34270,744 S WEBSTER AVE,GREEN BAY,WI,54305
34271,BOX 547,BARRE,VT,5641
34272,500 S OAKWOOD RD,OSHKOSH,WI,54904
34273,2817 NEW PINERY ROAD,PORTAGE,WI,53901
34274,"1906 BELLEVIEW AVENUE, SE",ROANOKE,VA,24014
34275,611 ST JOSEPH AVE,MARSHFIELD,WI,54449
34276,5000 MEMORIAL DRIVE,TWO RIVERS,WI,54241
34277,333 PINE RIDGE BLVD,WAUSAU,WI,54401
34278,2005 5TH STREET,MONROE,WI,53566
34279,"736 BATTLEFIELD BLVD, NORTH",CHESAPEAKE,VA,23320
34280,13111 N PORT WASHINGTON RD,MEQUON,WI,53097
34281,6308 EIGHTH AVE,KENOSHA,WI,53143
34282,2025 GLENN MITCHELL DRIVE,VIRGINIA BEACH,VA,23456
34283,2251 NORTH SHORE DR,RHINELANDER,WI,54501
34284,725 AMERICAN AVE,WAUKESHA,WI,53188
34285,1920 ATHERHOLT ROAD,LYNCHBURG,VA,24501
34286,700 WEST AVENUE SOUTH,LA CROSSE,WI,54601
34287,1990 HOLTON AVENUE EAST,BIG STONE GAP,VA,24219
34288,900 ILLINOIS AVE,STEVENS POINT,WI,54481
34289,3700 SOUTH MAIN STREET,BLACKSBURG,VA,24060
34290,800 GARFIELD AVE,PARKERSBURG,WV,26101
34291,1340 HAL GREER BOULEVARD,HUNTINGTON,WV,25701
34292,78 MEDICAL CENTER DRIVE,FISHERSVILLE,VA,22939
34293,1 MEDICAL PARK,WHEELING,WV,26003
34294,125 BUENA VISTA CIRCLE,SOUTH HILL,VA,23970
34295,1325 LOCUST AVENUE,FAIRMONT,WV,26554
34296,122 12TH STREET,PRINCETON,WV,24740
34297,727 NORTH MAIN STREET,EMPORIA,VA,23847
34298,3000 COLISEUM DRIVE,HAMPTON,VA,23666
34299,1200 JD ANDERSON DR,MORGANTOWN,WV,26505
34300,100 FAIRVIEW DRIVE - PO BOX 817,FRANKLIN,VA,23851
34301,601 COLLIERS WAY,WEIRTON,WV,26062
34302,501 MORRIS STREET,CHARLESTON,WV,25301
34303,180 FLOYD AVENUE,ROCKY MOUNT,VA,24151
34304,2520 VALLEY DRIVE,POINT PLEASANT,WV,25550
34305,2500 HOSPITAL DRIVE,MARTINSBURG,WV,25401
34306,2900 1ST AVENUE,HUNTINGTON,WV,25702
34307,JEFFERSON PARK AVE,CHARLOTTESVILLE,VA,22908
34308,500 MARTHA JEFFERSON DRIVE,CHARLOTTESVILLE,VA,22911
34309,MEDICAL CENTER DRIVE,MORGANTOWN,WV,26506
34310,8260 ATLEE ROAD,MECHANICSVILLE,VA,23116
34311,2211 NE 139TH STREET,VANCOUVER,WA,98686
34312,820 NORTH CHELAN AVENUE,WENATCHEE,WA,98801
34313,600 GRESHAM DR,NORFOLK,VA,23507
34314,200 MEDICAL PARK BOULEVARD,PETERSBURG,VA,23805
34315,100 SENTARA CIRCLE,WILLIAMSBURG,VA,23188
34316,12040 NE 128TH STREET,KIRKLAND,WA,98034
34317,1840 AMHERST ST,WINCHESTER,VA,22601
34318,5801 BREMO RD,RICHMOND,VA,23226
34319,939 CAROLINE ST,PORT ANGELES,WA,98362
34320,325 9TH AVENUE,SEATTLE,WA,98104
34321,1060 FIRST COLONIAL ROAD,VIRGINIA BEACH,VA,23454
34322,300 UNIVERSITY BLVD,ROUND ROCK,TX,78664
34323,888 SWIFT BLVD,RICHLAND,WA,99352
34324,5121 SOUTH COTTONWOOD STREET,MURRAY,UT,84107
34325,16000 JOHNSTON MEMORIAL DRIVE,ABINGDON,VA,24211
34326,1100 ALLIED DRIVE,PLANO,TX,75093
34327,1050 EAST SOUTH TEMPLE,SALT LAKE CITY,UT,84102
34328,500 J CLYDE MORRIS BLVD,NEWPORT NEWS,VA,23601
34329,625 EAST BROADWAY,JACKSON,WY,83001
34330,400 NE MOTHER JOSEPH PLACE,VANCOUVER,WA,98668
34331,100  15TH ST NW,NORTON,VA,24273
34332,TWO CRESCENT PARK WEST,WARREN,PA,16365
34333,532 WEST PITTSBURGH STREET,GREENSBURG,PA,15601
34334,4500 W 69TH ST,SIOUX FALLS,SD,57108
34335,353 FAIRMONT BLVD  POST OFFICE BOX 6000,RAPID CITY,SD,57701
34336,1305 W 18TH ST  POST OFFICE BOX 5039,SIOUX FALLS,SD,57117
34337,1325 S CLIFF AVE  POST OFFICE BOX 5045,SIOUX FALLS,SD,57117
34338,501 EAST MAIN ST,WAYNESBORO,PA,17268
34339,801 E SIOUX,PIERRE,SD,57501
34340,4810 NORTH LOOP 289,LUBBOCK,TX,79416
34341,305 S STATE ST  POST OFFICE BOX 4450,ABERDEEN,SD,57401
34342,525 N FOSTER,MITCHELL,SD,57301
34343,1700 E 19TH STREET,THE DALLES,OR,97058
34344,700 EAST NORWEGIAN STREET,POTTSVILLE,PA,17901
34345,401 9TH AVENUE NW  POST OFFICE BOX 1210,WATERTOWN,SD,57201
34346,2500 E MAIN STREET,ALICE,TX,78332
34347,420 SOUTH JACKSON STREET,POTTSVILLE,PA,17901
34348,2700 NW STEWART PARKWAY,ROSEBURG,OR,97471
34349,2600 ST MICHAEL DR,TEXARKANA,TX,75504
34350,1400 LOCUST STREET,PITTSBURGH,PA,15219
34351,24800 SE STARK STREET,GRESHAM,OR,97030
34352,3401 NORTH BROAD STREET,PHILADELPHIA,PA,19140
34353,701 GROVE RD,GREENVILLE,SC,29605
34354,2720 SUNSET BLVD,WEST COLUMBIA,SC,29169
34355,1325 SPRING STREET,GREENWOOD,SC,29646
34356,4920 NE STALLINGS DRIVE,NACOGDOCHES,TX,75961
34357,5200 EAST I-240 SERVICE ROAD,OKLAHOMA CITY,OK,73135
34358,3901 W 15TH ST,PLANO,TX,75075
34359,1046 6TH AVENUE SW,ALBANY,OR,97321
34360,10700 MCPHERSON ROAD,LAREDO,TX,78041
34361,3000 ST MATTHEWS RD BOX 1806,ORANGEBURG,SC,29115
34362,1501 BURNET DR,BROWNWOOD,TX,76801
34363,34TH & SPRUCE STS,PHILADELPHIA,PA,19104
34364,ONE HOSPITAL DRIVE,LEWISBURG,PA,17837
34365,400 SOUTHWEST 25 AVE,MINERAL WELLS,TX,76067
34366,6250 HWY 83/84,ABILENE,TX,79606
34367,9100 BABCOCK BOULEVARD,PITTSBURGH,PA,15237
34368,232 WEST 25TH STREET,ERIE,PA,16544
34369,501 ROBERTSON BOULEVARD,WALTERBORO,SC,29488
34370,800 N FANT ST,ANDERSON,SC,29621
34371,815 FREEPORT ROAD,PITTSBURGH,PA,15215
34372,2435 FOREST DR,COLUMBIA,SC,29204
34373,1460 G STREET,SPRINGFIELD,OR,97477
34374,110 SHULT DR,COLUMBUS,TX,78934
34375,6565 FANNIN,HOUSTON,TX,77030
34376,ONE ST FRANCIS DR,GREENVILLE,SC,29601
34377,724 PERSHING STREET,ELLWOOD CITY,PA,16117
34378,325 SOUTH BELMONT STREET,YORK,PA,17403
34379,555 NORTH DUKE STREET,LANCASTER,PA,17604
34380,100 NORTH ACADEMY AVENUE,DANVILLE,PA,17822
34381,2525 HOLLY HALL,HOUSTON,TX,77054
34382,1648 HUNTINGDON PIKE,MEADOWBROOK,PA,19046
34383,2825 E BARNETT ROAD,MEDFORD,OR,97504
34384,101 E WOOD ST,SPARTANBURG,SC,29303
34385,1900 PINE,ABILENE,TX,79601
34386,271 PERKINS ROAD,CLARION,PA,16214
34387,169 ASHLEY AVE,CHARLESTON,SC,29425
34388,4502 MEDICAL DR,SAN ANTONIO,TX,78229
34389,503 NORTH 21ST STREET,CAMP HILL,PA,17011
34390,100 FAIRFIELD DRIVE,SENECA,PA,16346
34391,409 WEST COTTAGE,CARTHAGE,TX,75633
34392,164 SUMMIT AVENUE,PROVIDENCE,RI,2906
34393,4800 FRIENDSHIP AVENUE,PITTSBURGH,PA,15224
34394,6720 BERTNER,HOUSTON,TX,77030
34395,"1015 NW 22ND AVENUE, W121",PORTLAND,OR,97210
34396,455 TOLL GATE RD,WARWICK,RI,2886
34397,100 HOSPITAL AVENUE,DUBOIS,PA,15801
34398,1025 GARNER FIELD ROAD,UVALDE,TX,78801
34399,100 KENYON AVE,WAKEFIELD,RI,2879
34400,1311 EAST GENERAL CAVAZOS BLVD,KINGSVILLE,TX,78363
34401,593 EDDY STREET,PROVIDENCE,RI,2903
34402,801 BEDELL AVE,DEL RIO,TX,78840
34403,"414 NAVARRO, SUITE 600",SAN ANTONIO,TX,78205
34404,1923 SOUTH UTICA AVENUE,TULSA,OK,74104
34405,111 BREWSTER STREET,PAWTUCKET,RI,2860
34406,7600 CENTRAL AVENUE,PHILADELPHIA,PA,19111
34407,499 10TH STREET,FLORESVILLE,TX,78114
34408,ONE GUTHRIE SQUARE,SAYRE,PA,18840
34409,1503 CEDAR CREST BOULEVARD,ALLENTOWN,PA,18104
34410,800 EAST DAWSON,TYLER,TX,75701
34411,3333 RIVERBEND DRIVE,SPRINGFIELD,OR,97477
34412,100 HILLCREST MEDICAL BLVD,WACO,TX,76712
34413,5800 RIDGE AVE,PHILADELPHIA,PA,19128
34414,3600 NW SAMARITAN DRIVE,CORVALLIS,OR,97330
34415,10501 EAST 91ST STREET SOUTH,TULSA,OK,74133
34416,1000 EAST MOUNTAIN BOULEVARD,WILKES BARRE,PA,18711
34417,1901 N MACARTHUR BLVD,IRVING,TX,75061
34418,100 MEDICAL DRIVE,LAKE JACKSON,TX,77566
34419,6411 FANNIN,HOUSTON,TX,77030
34420,701 EAST 16TH STREET,BERWICK,PA,18603
34421,2570 HAYMAKER ROAD,MONROEVILLE,PA,15146
34422,19300 SW 65TH AVENUE,TUALATIN,OR,97062
34423,1201 W 38TH ST,AUSTIN,TX,78705
34424,631 NORTH BROAD STREET EXT.,GROVE CITY,PA,16127
34425,2401 31ST ST,TEMPLE,TX,76508
34426,6201 HARRY HINES BLVD,DALLAS,TX,75390
34427,6901 MEDICAL PARKWAY,WACO,TX,76712
34428,1500 S MAIN ST,FORT WORTH,TX,76104
34429,409 SOUTH SECOND STREET,HARRISBURG,PA,17105
34430,500 UNIVERSITY DRIVE,HERSHEY,PA,17033
34431,3181 SW SAM JACKSON PARK ROAD,PORTLAND,OR,97239
34432,300 HIGHLAND AVE,HANOVER,PA,17331
34433,2701 HOSPITAL DRIVE,VICTORIA,TX,77901
34434,147 GETTYS STREET,GETTYSBURG,PA,17325
34435,1200 OLD YORK ROAD,ABINGTON,PA,19001
34436,301 UNIVERSITY BOULEVARD,GALVESTON,TX,77555
34437,1000 BOWER HILL ROAD,PITTSBURGH,PA,15243
34438,5201 HARRY HINES BLVD,DALLAS,TX,75235
34439,201 STATE STREET,ERIE,PA,16550
34440,800 SPRUCE STREET,PHILADELPHIA,PA,19107
34441,169 MARTIN AVENUE,EPHRATA,PA,17522
34442,51 NORTH 39TH STREET,PHILADELPHIA,PA,19104
34443,4805 NE GLISAN STREET,PORTLAND,OR,97213
34444,4050 WEST MEMORIAL ROAD,OKLAHOMA CITY,OK,73120
34445,361 ALEXANDER SPRING ROAD,CARLISLE,PA,17015
34446,ONE MELLON WAY,LATROBE,PA,15650
34447,508 SOUTH CHURCH STREET,MOUNT PLEASANT,PA,15666
34448,700 LAWN AVENUE,SELLERSVILLE,PA,18960
34449,740 EAST STATE STREET,SHARON,PA,16146
34450,2000 BROOKSIDE DR,KINGSPORT,TN,37660
34451,1225 WARM SPRINGS AVE,HUNTINGDON,PA,16652
34452,206 EAST BROWN STREET,EAST STROUDSBUR,PA,18301
34453,2801 N GANTENBEIN AVENUE,PORTLAND,OR,97227
34454,320 EAST NORTH AVENUE,PITTSBURGH,PA,15212
34455,301 TYSON AV,PARIS,TN,38242
34456,900 EAST OAK HILL AVENUE,KNOXVILLE,TN,37917
34457,801 OSTRUM STREET,BETHLEHEM,PA,18015
34458,700 EAST BROAD STREET,HAZLETON,PA,18201
34459,975 E 3RD ST,CHATTANOOGA,TN,37403
34460,ONE MEDICAL CENTER BOULEVARD,UPLAND,PA,19013
34461,1224 TROTWOOD AVE,COLUMBIA,TN,38401
34462,110 NORTH MAIN STREET,GREENVILLE,PA,16125
34463,2865 DAGGETT AVENUE,KLAMATH FALLS,OR,97601
34464,400 N STATE OF FRANKLIN RD,JOHNSON CITY,TN,37604
34465,835 HOSPITAL ROAD,INDIANA,PA,15701
34466,700 HIGH STREET,WILLIAMSPORT,PA,17701
34467,110 HOSPITAL DRIVE,JEFFERSON CITY,TN,37760
34468,ONE HOSPITAL WAY,BUTLER,PA,16001
34469,401 TAKOMA AVE,GREENEVILLE,TN,37743
34470,200 LOTHROP STREET,PITTSBURGH,PA,15213
34471,9205 SW BARNES ROAD,PORTLAND,OR,97225
34472,6019 WALNUT GROVE ROAD,MEMPHIS,TN,38120
34473,ONE NOLTE DRIVE,KITTANNING,PA,16201
34474,1161 21ST AVENUE SOUTH,NASHVILLE,TN,37232
34475,32-36 CENTRAL AVENUE,WELLSBORO,PA,16901
34476,500 WEST BERKELEY STREET,UNIONTOWN,PA,15401
34477,112 NORTH SEVENTH STREET,CHAMBERSBURG,PA,17201
34478,500 SW RAMSEY AVENUE,GRANTS PASS,OR,97527
34479,350 BONAR AVENUE,WAYNESBURG,PA,15370
34480,607 BEAMAN ST,CLINTON,NC,28328
34481,100 HOSPITAL DRIVE,HENDERSONVILLE,NC,28792
34482,127 NORTH STREET,BATAVIA,NY,14020
34483,68 HOSPITAL RD,SYLVA,NC,28779
34484,3333 SILAS CREEK PARKWAY,WINSTON-SALEM,NC,27103
34485,2825 PARKLAWN DRIVE,MIDWEST CITY,OK,73110
34486,700 NE 13TH STREET,OKLAHOMA CITY,OK,73104
34487,6161 SOUTH YALE,TULSA,OK,74136
34488,111 EAST 210TH STREET,BRONX,NY,10467
34489,1400 EAST DOWNING STREET,TAHLEQUAH,OK,74465
34490,600 RIVER AVE,LAKEWOOD,NJ,8701
34491,744 WEST 9TH STREET,TULSA,OK,74127
34492,3401 WEST GORE BLVD,LAWTON,OK,73505
34493,830 ROCKFORD ST,MOUNT AIRY,NC,27030
34494,1323 WEST 6TH STREET,STILLWATER,OK,74076
34495,223 N VAN DIEN AVENUE,RIDGEWOOD,NJ,7450
34496,196 -198 NORTH STREET,GENEVA,NY,14456
34497,"1011 FOURTEENTH AVENUE, NORTHWEST",ARDMORE,OK,73401
34498,1000 NORTH LEE AVENUE,OKLAHOMA CITY,OK,73101
