8999,6200 W PARKER RD,PLANO,TX,75093
9000,25 HOSPITAL CENTER BLVD,HILTON HEAD ISL,SC,29925
9001,110 MEMORIAL HOSPITAL DRIVE,HUNTSVILLE,TX,77340
9002,200 LOTHROP STREET,PITTSBURGH,PA,15213
9003,9440 POPPY DR,DALLAS,TX,75218
9004,ONE ST FRANCIS DR,GREENVILLE,SC,29601
9005,1501 BURNET DR,BROWNWOOD,TX,76801
9006,525 N FOSTER,MITCHELL,SD,57301
9007,2570 HAYMAKER ROAD,MONROEVILLE,PA,15146
9008,4800 FRIENDSHIP AVENUE,PITTSBURGH,PA,15224
9009,2669 KINARD ST PO BOX 497,NEWBERRY,SC,29108
9010,ONE HOSPITAL DRIVE,LEWISBURG,PA,17837
9011,1034 NORTH 500 WEST,PROVO,UT,84604
9012,9330 MEDICAL PLAZA DR,CHARLESTON,SC,29406
9013,975 E 3RD ST,CHATTANOOGA,TN,37403
9014,"414 NAVARRO, SUITE 600",SAN ANTONIO,TX,78205
9015,3441 DICKERSON PIKE,NASHVILLE,TN,37207
9016,1000 PINE STREET,TEXARKANA,TX,75501
9017,300 WILSON STREET,HENDERSON,TX,75652
9018,2825 E BARNETT ROAD,MEDFORD,OR,97504
9019,2500 E MAIN STREET,ALICE,TX,78332
9020,500 UNIVERSITY DRIVE,HERSHEY,PA,17033
9021,5016 S US HIGHWAY 75,DENISON,TX,75020
9022,111 DALLAS STREET,SAN ANTONIO,TX,78205
9023,9100 BABCOCK BOULEVARD,PITTSBURGH,PA,15237
9024,111 BREWSTER STREET,PAWTUCKET,RI,2860
9025,315 OAK ST BOX 550,LIVINGSTON,TN,38570
9026,4500 MEDICAL CENTER DRIVE,MCKINNEY,TX,75069
9027,2865 DAGGETT AVENUE,KLAMATH FALLS,OR,97601
9028,1460 G STREET,SPRINGFIELD,OR,97477
9029,HWY 43 S BOX 847,LAWRENCEBURG,TN,38464
9030,6201 HARRY HINES BLVD,DALLAS,TX,75390
9031,6250 HWY 83/84,ABILENE,TX,79606
9032,12141 RICHMOND AVE,HOUSTON,TX,77082
9033,2400 N INTERSTATE HIGHWAY 35E,WAXAHACHIE,TX,75165
9034,7700 FLOYD CURL DR,SAN ANTONIO,TX,78229
9035,350 BONAR AVENUE,WAYNESBURG,PA,15370
9036,FOURTH AND WALNUT STREETS,LEBANON,PA,17042
9037,2001 N OREGON ST,EL PASO,TX,79902
9038,2801 FRANCISCAN DR,BRYAN,TX,77802
9039,115 CASS AVE,WOONSOCKET,RI,2895
9040,169 MARTIN AVENUE,EPHRATA,PA,17522
9041,555 NORTH DUKE STREET,LANCASTER,PA,17604
9042,620 HOWARD AVENUE,ALTOONA,PA,16601
9043,2525 HOLLY HALL,HOUSTON,TX,77054
9044,2500 BERNVILLE ROAD,READING,PA,19605
9045,129 N WASHINGTON ST,SUMTER,SC,29150
9046,271 PERKINS ROAD,CLARION,PA,16214
9047,333 NORTH SANTA ROSA STEET,SAN ANTONIO,TX,78207
9048,1800 EAST PARK AVE,STATE COLLEGE,PA,16803
9049,6411 FANNIN,HOUSTON,TX,77030
9050,100 HOSPITAL AVENUE,DUBOIS,PA,15801
9051,ONE HOSPITAL WAY,BUTLER,PA,16001
9052,10141 US 59 NORTH,WHARTON,TX,77488
9053,2333 MCCALLIE AVE,CHATTANOOGA,TN,37404
9054,815 FREEPORT ROAD,PITTSBURGH,PA,15215
9055,3600 NW SAMARITAN DRIVE,CORVALLIS,OR,97330
9056,501 NORTH LANSDOWNE AVE,DREXEL HILL,PA,19026
9057,120 EAST HARRIS AVENUE,SAN ANGELO,TX,76903
9058,1700 EAST SAUNDERS,LAREDO,TX,78044
9059,746 JEFFERSON AVENUE,SCRANTON,PA,18501
9060,900 EAST OAK HILL AVENUE,KNOXVILLE,TN,37917
9061,1625 MEDICAL CENTER DR,EL PASO,TX,79902
9062,4401 GARTH ROAD,BAYTOWN,TX,77521
9063,1046 6TH AVENUE SW,ALBANY,OR,97321
9064,2700 NW STEWART PARKWAY,ROSEBURG,OR,97471
9065,907 E LAMAR ALEXANDER PARKWAY,MARYVILLE,TN,37804
9066,100 KENYON AVE,WAKEFIELD,RI,2879
9067,593 EDDY STREET,PROVIDENCE,RI,2903
9068,700 EAST NORWEGIAN STREET,POTTSVILLE,PA,17901
9069,FRIENDSHIP STREET,NEWPORT,RI,2840
9070,1500 FIFTH AVENUE,MC KEESPORT,PA,15132
9071,2000 HOSPITAL DR,MOUNT PLEASANT,SC,29464
9072,551 HILL COUNTRY DRIVE,KERRVILLE,TX,78028
9073,713 E ANDERSON ST,WEATHERFORD,TX,76086
9074,900 SOUTH BRYAN ROAD,MISSION,TX,78572
9075,504 MEDICAL CENTER BLVD,CONROE,TX,77304
9076,2700 SE STRATUS AVE.,MCMINNVILLE,OR,97128
9077,825 CHALKSTONE AVENUE,PROVIDENCE,RI,2908
9078,18951 MEMORIAL NORTH,HUMBLE,TX,77338
9079,1755 CURIE SUITE A,EL PASO,TX,79902
9080,19300 SW 65TH AVENUE,TUALATIN,OR,97062
9081,322 COLEMAN STREET,MARLIN,TX,76661
9082,201 REECEVILLE ROAD,COATESVILLE,PA,19320
9083,ONE MEDICAL PARK BLVD,BRISTOL,TN,37620
9084,5201 HARRY HINES BLVD,DALLAS,TX,75235
9085,500 N HIGHLAND AVENUE,SHERMAN,TX,75091
9086,1215 E COURT ST,SEGUIN,TX,78155
9087,800 EAST DAWSON,TYLER,TX,75701
9088,8200 WALNUT HILL LANE,DALLAS,TX,75231
9089,2829 E HWY 76,MULLINS,SC,29574
9090,320 EAST NORTH AVENUE,PITTSBURGH,PA,15212
9091,100 HILLCREST MEDICAL BLVD,WACO,TX,76712
9092,5800 RIDGE AVE,PHILADELPHIA,PA,19128
9093,2101 PEASE ST,HARLINGEN,TX,78550
9094,350 NORTH 11TH STREET,SUNBURY,PA,17801
9095,3333 N FOSTER MALDONADO BLVD,EAGLE PASS,TX,78852
9096,280 MAPLE STREET,ASHLAND,OR,97520
9097,ONE MEDICAL CENTER BOULEVARD,UPLAND,PA,19013
9098,500 W 4TH STREET,ODESSA,TX,79761
9099,255 WEST LANCASTER AVENUE,PAOLI,PA,19301
9100,250 COLLEGE AVENUE,LANCASTER,PA,17604
9101,1000 EAST MOUNTAIN BOULEVARD,WILKES BARRE,PA,18711
9102,188 HOSPITAL LANE,JELLICO,TN,37762
9103,101 E WOOD ST,SPARTANBURG,SC,29303
9104,100 MEDICAL DRIVE,LAKE JACKSON,TX,77566
9105,1110 NORTH SARAH DEWITT DRIVE,GONZALES,TX,78629
9106,200 STADIUM DRIVE,SEYMOUR,TX,76380
9107,605 HOLDERRIETH,TOMBALL,TX,77375
9108,1021 PARK AVENUE,QUAKERTOWN,PA,18951
9109,1086 FRANKLIN STREET,JOHNSTOWN,PA,15905
9110,24800 SE STARK STREET,GRESHAM,OR,97030
9111,710 CYPRESS CREEK PARKWAY,HOUSTON,TX,77090
9112,1901 N MACARTHUR BLVD,IRVING,TX,75061
9113,1401 ST. JOSEPH PARKWAY,HOUSTON,TX,77002
9114,1600 EAST HIGH STREET AND ARMAND HAMMER BLVD,POTTSTOWN,PA,19464
9115,565 COAL VALLEY RD,PITTSBURGH,PA,15236
9116,100 LANCASTER AVE,WYNNEWOOD,PA,19096
9117,600 ELIZABETH STREET,CORPUS CHRISTI,TX,78404
9118,2545 SCHOENERSVILLE ROAD,BETHLEHEM,PA,18017
9119,955 RIBAUT RD,BEAUFORT,SC,29902
9120,2412 50TH ST,LUBBOCK,TX,79412
9121,ONE MELLON WAY,LATROBE,PA,15650
9122,TWO CRESCENT PARK WEST,WARREN,PA,16365
9123,1648 HUNTINGDON PIKE,MEADOWBROOK,PA,19046
9124,549 EAST FAIR STREET,BLOOMSBURG,PA,17815
9125,130 SOUTH BRYN MAWR AVE,BRYN MAWR,PA,19010
9126,1200 SOUTH CEDAR CREST BOULVARD,ALLENTOWN,PA,18105
9127,23900 KATY FREEWAY,KATY,TX,77494
9128,409 SOUTH SECOND STREET,HARRISBURG,PA,17105
9129,361 ALEXANDER SPRING ROAD,CARLISLE,PA,17015
9130,919 E 32ND ST,AUSTIN,TX,78705
9131,1201 WEST FRANK STREET,LUFKIN,TX,75901
9132,100 NORTH ACADEMY AVENUE,DANVILLE,PA,17822
9133,305 S STATE ST  POST OFFICE BOX 4450,ABERDEEN,SD,57401
9134,300 22ND AVE,BROOKINGS,SD,57006
9135,300 HIGHLAND AVE,HANOVER,PA,17331
9136,2305 CHAMBLISS AVE NW,CLEVELAND,TN,37311
9137,132 HOSPITAL DR,ANGLETON,TX,77515
9138,1000 BOWER HILL ROAD,PITTSBURGH,PA,15243
9139,601 PARK STREET,HONESDALE,PA,18431
9140,400 ROSALIND REDFERN GROVER PARKWAY,MIDLAND,TX,79701
9141,130 WEST RAVINE ROAD,KINGSPORT,TN,37662
9142,104 7TH STREET,BAY CITY,TX,77414
9143,3000 N I-35,DENTON,TX,76201
9144,222 S HERLONG AVE,ROCK HILL,SC,29730
9145,1600 11TH STREET,WICHITA FALLS,TX,76301
9146,201 STATE STREET,ERIE,PA,16550
9147,501 ROBERTSON BOULEVARD,WALTERBORO,SC,29488
9148,2986 KATE BOND RD,BARTLETT,TN,38133
9149,1301 PENNSYLVANIA AVENUE,FORT WORTH,TX,76104
9150,316 CALHOUN ST,CHARLESTON,SC,29401
9151,175 PATEWOOD DRIVE,GREENVILLE,SC,29615
9152,200 STONECREST BOULEVARD,SMYRNA,TN,37167
9153,1211 WILMINGTON AVENUE,NEW CASTLE,PA,16105
9154,391 WALLACE RD,NASHVILLE,TN,37211
9155,51 NORTH 39TH STREET,PHILADELPHIA,PA,19104
9156,4810 NORTH LOOP 289,LUBBOCK,TX,79416
9157,1068 WEST BALTIMORE PIKE,MEDIA,PA,19063
9158,4502 MEDICAL DR,SAN ANTONIO,TX,78229
9159,10123 SE MARKET STREET,PORTLAND,OR,97216
9160,1313 HERMANN DR,HOUSTON,TX,77004
9161,701 EAST MARSHALL STREET,WEST CHESTER,PA,19380
9162,4805 NE GLISAN STREET,PORTLAND,OR,97213
9163,232 WEST 25TH STREET,ERIE,PA,16544
9164,"HAILE AND ROBERTS STREETS, BOX 7003",CAMDEN,SC,29020
9165,10700 MCPHERSON ROAD,LAREDO,TX,78041
9166,5959 PARK AVE,MEMPHIS,TN,38119
9167,508 SOUTH CHURCH STREET,MOUNT PLEASANT,PA,15666
9168,2435 FOREST DR,COLUMBIA,SC,29204
9169,2900 S LOOP 256,PALESTINE,TX,75801
9170,34TH & SPRUCE STS,PHILADELPHIA,PA,19104
9171,700 LAWN AVENUE,SELLERSVILLE,PA,18960
9172,1650 W COLLEGE ST,GRAPEVINE,TX,76051
9173,1000 SOUTH BECKHAM STREET,TYLER,TX,75701
9174,2601 HOLME AVE,PHILADELPHIA,PA,19152
9175,2300 PATTERSON STREET,NASHVILLE,TN,37203
9176,1905 HWY 97 EAST,JOURDANTON,TX,78026
9177,1225 WARM SPRINGS AVE,HUNTINGDON,PA,16652
9178,206 EAST BROWN STREET,EAST STROUDSBUR,PA,18301
9179,2701 HOSPITAL DRIVE,VICTORIA,TX,77901
9180,400 N STATE OF FRANKLIN RD,JOHNSON CITY,TN,37604
9181,1559 SPARTA STREET,MC MINNVILLE,TN,37110
9182,4920 NE STALLINGS DRIVE,NACOGDOCHES,TX,75961
9183,5515 PEACH STREET,ERIE,PA,16509
9184,101 CIRCLE DRIVE,HILLSBORO,TX,76645
9185,1420 TUSCULUM BLVD,GREENEVILLE,TN,37745
9186,421 CHEW STREET,ALLENTOWN,PA,18102
9187,PO BOX 2129,EASLEY,SC,29641
9188,2000 CHURCH ST,NASHVILLE,TN,37236
9189,"1201 BISHOP ST, PO BOX 310",UNION CITY,TN,38261
9190,1901 W CLINCH AVE,KNOXVILLE,TN,37916
9191,298 MEMORIAL DRIVE,SENECA,SC,29672
9192,1325 S CLIFF AVE  POST OFFICE BOX 5045,SIOUX FALLS,SD,57117
9193,100 A ALTON GLOOR,BROWNSVILLE,TX,78526
9194,302 UNIVERSITY PARKWAY,AIKEN,SC,29801
9195,520 W MAIN ST,SMITHVILLE,TN,37166
9196,2201 WEST LAMPASAS STREET,ENNIS,TX,75119
9197,401 EAST MURPHY AVENUE,CONNELLSVILLE,PA,15425
9198,935 WAYNE ROAD,SAVANNAH,TN,38372
9199,2720 SUNSET BLVD,WEST COLUMBIA,SC,29169
9200,360 W RUDDLE STREET,COALDALE,PA,18218
9201,1301 CARLISLE ST,NATRONA,PA,15065
9202,2550 N ESPLANADE,CUERO,TX,77954
9203,501 BATH ROAD,BRISTOL,PA,19007
9204,801 OSTRUM STREET,BETHLEHEM,PA,18015
9205,800 N FANT ST,ANDERSON,SC,29621
9206,1501 COULTER ROAD,AMARILLO,TX,79106
9207,651 DUNLOP LANE,CLARKSVILLE,TN,37040
9208,7 MEDICAL PARKWAY,DALLAS,TX,75234
9209,110 NORTH MAIN STREET,GREENVILLE,PA,16125
9210,2555 JIMMY JOHNSON BLVD,PORT ARTHUR,TX,77640
9211,2401 31ST ST,TEMPLE,TX,76508
9212,400 HIGHLAND AVENUE,LEWISTOWN,PA,17044
9213,"890 OAK STREET, SE",SALEM,OR,97301
9214,5 RICHLAND MEDICAL PARK,COLUMBIA,SC,29203
9215,1011 NORTH GALLOWAY AVENUE,MESQUITE,TX,75149
9216,6565 FANNIN,HOUSTON,TX,77030
9217,100 NORTHCREST DRIVE,SPRINGFIELD,TN,37172
9218,111 SOUTH 11TH STREET,PHILADELPHIA,PA,19107
9219,4372 ROUTE 6,KANE,PA,16735
9220,1001 SOUTH GEORGE STREET,YORK,PA,17403
9221,1400 LOCUST STREET,PITTSBURGH,PA,15219
9222,4401 BOOTH CALLOWAY ROAD,NORTH RICHLAND,TX,76180
9223,185 HOSPITAL ROAD,WINCHESTER,TN,37398
9224,1850 OLD KNOXVILLE HIGHWAY,TAZEWELL,TN,37879
9225,835 HOSPITAL ROAD,INDIANA,PA,15701
9226,700 HIGH STREET,WILLIAMSPORT,PA,17701
9227,501 SUMMIT,YANKTON,SD,57078
9228,3501 KNICKERBOCKER ROAD,SAN ANGELO,TX,76904
9229,1600 WALLACE BLVD,AMARILLO,TX,79106
9230,1265 UNION AVE SUITE 700,MEMPHIS,TN,38104
9231,1000 MEDICAL CENTER DRIVE,HARDEEVILLE,SC,29927
9232,18300 ST JOHN DRIVE,NASSAU BAY,TX,77058
9233,6019 WALNUT GROVE ROAD,MEMPHIS,TN,38120
9234,420 SOUTH JACKSON STREET,POTTSVILLE,PA,17901
9235,3333 RIVERBEND DRIVE,SPRINGFIELD,OR,97477
9236,135 LAFAYETTE AVENUE,PALMERTON,PA,18071
9237,ONE NOLTE DRIVE,KITTANNING,PA,16201
9238,1161 21ST AVENUE SOUTH,NASHVILLE,TN,37232
9239,740 EAST STATE STREET,SHARON,PA,16146
9240,SIXTH AVENUE AND SPRUCE ST,READING,PA,19603
9241,250 SOUTH 21ST STREET,EASTON,PA,18042
9242,436 CENTRAL AVENUE WEST,JAMESTOWN,TN,38556
9243,520 MEDICAL DRIVE,GUYMON,OK,73942
9244,100 MEDICAL BOULEVARD,CANONSBURG,PA,15317
9245,3080 COLLEGE STREET,BEAUMONT,TX,77701
9246,851 LOCUST STREET,ROGERSVILLE,TN,37857
9247,751 LIBERTY STREET,MEADVILLE,PA,16335
9248,1500 HIGHLANDS DRIVE,LITITZ,PA,17543
9249,6901 MEDICAL PARKWAY,WACO,TX,76712
9250,4321 CAROTHERS PARKWAY,FRANKLIN,TN,37067
9251,2500 NE NEFF ROAD,BEND,OR,97701
9252,3301 MATLOCK ROAD,ARLINGTON,TX,76015
9253,2830 CALDER AVENUE,BEAUMONT,TX,77702
9254,LANSDOWNE & BAILY RDS,DARBY,PA,19023
9255,355 NEW SHACKLE ISLAND RD,HENDERSONVILLE,TN,37075
9256,155 WILSON AVENUE,WASHINGTON,PA,15301
9257,631 RB WILSON DR,HUNTINGDON,TN,38344
9258,9205 SW BARNES ROAD,PORTLAND,OR,97225
9259,2600 ST MICHAEL DR,TEXARKANA,TX,75504
9260,1924 ALCOA HIGHWAY,KNOXVILLE,TN,37920
9261,3500 HIGHWAY 17 NORTH,MOUNT PLEASANT,SC,29466
9262,1 MEDICAL CENTER BOULEVARD,COOKEVILLE,TN,38501
9263,421 S MAIN ST,CROSSVILLE,TN,38555
9264,4215 JOE RAMSEY BLVD,GREENVILLE,TX,75401
9265,225 SOUTH CENTER AVENUE,SOMERSET,PA,15501
9266,3181 SW SAM JACKSON PARK ROAD,PORTLAND,OR,97239
9267,1200 WEST CHEROKEE STREET,WAGONER,OK,74467
9268,1163 COUNTRY CLUB ROAD,MONONGAHELA,PA,15063
9269,500 J CLYDE MORRIS BLVD,NEWPORT NEWS,VA,23601
9270,6308 EIGHTH AVE,KENOSHA,WI,53143
9271,800 OAK STREET,FARMVILLE,VA,23901
9272,9301 NORTH CENTRAL EXPRESSWAY SUITE 100,DALLAS,TX,75231
9273,10400 75TH ST,KENOSHA,WI,53142
9274,707 S UNIVERSITY AVE,BEAVER DAM,WI,53916
9275,1 MEDICAL PARK,WHEELING,WV,26003
9276,830 KEMPSVILLE ROAD,NORFOLK,VA,23502
9277,1050 EAST SOUTH TEMPLE,SALT LAKE CITY,UT,84102
9278,1990 HOLTON AVENUE EAST,BIG STONE GAP,VA,24219
9279,2251 NORTH SHORE DR,RHINELANDER,WI,54501
9280,ONE ARH LANE - PO BOX 7,LOW MOOR,VA,24457
9281,400 NE MOTHER JOSEPH PLACE,VANCOUVER,WA,98668
9282,7101 JAHNKE ROAD,RICHMOND,VA,23235
9283,8700 SUDLEY RD,MANASSAS,VA,20110
9284,2300 WESTERN AVE,MANITOWOC,WI,54221
9285,150 KINGSLEY LANE,NORFOLK,VA,23505
9286,201 SETON PARKWAY,ROUND ROCK,TX,78664
9287,1726 SHAWANO AVE,GREEN BAY,WI,54303
9288,315 S MLK JR WAY,TACOMA,WA,98415
9289,1025 S SECOND AVE,WALLA WALLA,WA,99362
9290,160 ALLEN ST,RUTLAND,VT,5701
9291,BOX 547,BARRE,VT,5641
9292,1060 FIRST COLONIAL ROAD,VIRGINIA BEACH,VA,23454
9293,2323 N LAKE DR,MILWAUKEE,WI,53211
9294,5121 SOUTH COTTONWOOD STREET,MURRAY,UT,84107
9295,1000 NORTH MAIN STREET,RICHFIELD,UT,84701
9296,245 MEDICAL PARK DRIVE,MARION,VA,24354
9297,3000 COLISEUM DRIVE,HAMPTON,VA,23666
9298,625 EAST BROADWAY,JACKSON,WY,83001
9299,2 BERNARDINE DRIVE,NEWPORT NEWS,VA,23602
9300,600 HIGHLAND AVENUE,MADISON,WI,53792
9301,13710 ST FRANCIS BOULEVARD,MIDLOTHIAN,VA,23114
9302,700 WEST AVENUE SOUTH,LA CROSSE,WI,54601
9303,1321 COLBY AVENUE,EVERETT,WA,98201
9304,250 WEST 300 NORTH (75-2),ROOSEVELT,UT,84066
9305,700 SOUTH PARK ST,MADISON,WI,53715
9306,2800 GODWIN BOULEVARD,SUFFOLK,VA,23439
9307,8TH AVENUE AND C STREET,SALT LAKE CITY,UT,84143
9308,170 NORTH 1100 EAST,AMERICAN FORK,UT,84003
9309,4605 MACCORKLE AVE SW,SOUTH CHARLESTO,WV,25309
9310,3237 S 16TH ST,MILWAUKEE,WI,53215
9311,707 14TH ST,BARABOO,WI,53913
9312,1959 NE PACIFIC ST  BOX 356151,SEATTLE,WA,98195
9313,2501 PARKERS LANE,ALEXANDRIA,VA,22306
9314,3900 CAPITAL MALL DR SW,OLYMPIA,WA,98502
9315,21601 76TH AVENUE WEST,EDMONDS,WA,98026
9316,2010 HEALTH CAMPUS DRIVE,HARRISONBURG,VA,22801
9317,939 CAROLINE ST,PORT ANGELES,WA,98362
9318,36500 AURORA DRIVE,SUMMIT,WI,53066
9319,7519 HOSPITAL ROAD,GLOUCESTER,VA,23061
9320,1415 KINCAID STREET,MOUNT VERNON,WA,98274
9321,200 MEDICAL PARK BOULEVARD,PETERSBURG,VA,23805
9322,"1906 BELLEVIEW AVENUE, SE",ROANOKE,VA,24014
9323,125 HOSPITAL DRIVE,WATERTOWN,WI,53098
9324,925 SENECA ST,SEATTLE,WA,98101
9325,3200 PLEASANT VALLEY ROAD,WEST BEND,WI,53095
9326,"736 BATTLEFIELD BLVD, NORTH",CHESAPEAKE,VA,23320
9327,1340 HAL GREER BOULEVARD,HUNTINGTON,WV,25701
9328,900 SOUTH AUBURN STREET,KENNEWICK,WA,99336
9329,1000 NORTH SHENANDOAH AVE,FRONT ROYAL,VA,22630
9330,111 COLCHESTER AVE,BURLINGTON,VT,5401
9331,1000 MINERAL POINT AVE,JANESVILLE,WI,53548
9332,1250 EAST MARSHALL STREET - BOX 980510,RICHMOND,VA,23298
9333,975 PORT WASHINGTON ROAD,GRAFTON,WI,53024
9334,1380 EAST MEDICAL CENTER DRIVE,ST GEORGE,UT,84790
9335,214 EAST 23RD STREET,CHEYENNE,WY,82001
9336,1700 WEST STOUT STREET,RICE LAKE,WI,54868
9337,ONE ST MARK'S PLACE,LA GRANGE,TX,78945
9338,1550 NORTH 115TH STREET,SEATTLE,WA,98133
9339,1850 TOWN CENTER PARKWAY,RESTON,VA,20190
9340,240 MAPLE ST,WOODRUFF,WI,54568
9341,2817 NEW PINERY ROAD,PORTAGE,WI,53901
9342,1506 S ONEIDA ST,APPLETON,WI,54915
9343,1032 E SUMNER ST,HARTFORD,WI,53027
9344,1050 DIVISION ST,MAUSTON,WI,53948
9345,2005 5TH STREET,MONROE,WI,53566
9346,2300 OPITZ BOULEVARD,WOODBRIDGE,VA,22191
9347,5000 MEMORIAL DRIVE,TWO RIVERS,WI,54241
9348,1840 AMHERST ST,WINCHESTER,VA,22601
9349,618 HOSPITAL ROAD,TAPPAHANNOCK,VA,22560
9350,1910 SOUTH AVE,LA CROSSE,WI,54601
9351,13111 N PORT WASHINGTON RD,MEQUON,WI,53097
9352,11315 BRIDGEPORT WAY S W,LAKEWOOD,WA,98499
9353,255 N 30TH,LARAMIE,WY,82072
9354,2845 GREENBRIER RD,GREEN BAY,WI,54311
9355,2025 GLENN MITCHELL DRIVE,VIRGINIA BEACH,VA,23456
9356,8901 W LINCOLN AVE,WEST ALLIS,WI,53227
9357,1602 SKIPWITH ROAD,RICHMOND,VA,23229
9358,900 ROUND VALLEY DRIVE,PARK CITY,UT,84060
9359,2500 HOSPITAL DRIVE,MARTINSBURG,WV,25401
9360,430 E DIVISON ST,FOND DU LAC,WI,54935
9361,231 SOUTH COLLINS ROAD,SUNNYVALE,TX,75182
9362,3100 SUPERIOR AVE,SHEBOYGAN,WI,53081
9363,260 26TH STREET,PRAIRIE DU SAC,WI,53578
9364,122 12TH STREET,PRINCETON,WV,24740
9365,411 WEST RANDOLPH ROAD,HOPEWELL,VA,23860
9366,500 CHERRY ST,BLUEFIELD,WV,24701
9367,4401 HARRISON BOULEVARD,OGDEN,UT,84403
9368,401 W POPLAR ST,WALLA WALLA,WA,99362
9369,3801 SPRING ST,RACINE,WI,53405
9370,100 FAIRVIEW DRIVE - PO BOX 817,FRANKLIN,VA,23851
9371,501 SUNSET LANE,CULPEPER,VA,22701
9372,800 GARFIELD AVE,PARKERSBURG,WV,26101
9373,330 S STILLAGUAMISH AVE,ARLINGTON,WA,98223
9374,130 2ND ST,NEENAH,WI,54956
9375,888 SWIFT BLVD,RICHLAND,WA,99352
9376,1613 OAKWOOD STREET,BEDFORD,VA,24523
9377,7501 FANNIN,HOUSTON,TX,77054
9378,16000 JOHNSTON MEMORIAL DRIVE,ABINGDON,VA,24211
9379,727 NORTH MAIN STREET,EMPORIA,VA,23847
9380,JEFFERSON PARK AVE,CHARLOTTESVILLE,VA,22908
9381,2000 EOFF STREET,WHEELING,WV,26003
9382,2901 SQUALICUM PARKWAY,BELLINGHAM,WA,98225
9383,230 HOSPITAL PLAZA,WESTON,WV,26452
9384,835 S VAN BUREN ST,GREEN BAY,WI,54301
9385,6001 KYLE PKWY,KYLE,TX,78640
9386,W 800 FIFTH AVENUE,SPOKANE,WA,99210
9387,3636 HIGH STREET,PORTSMOUTH,VA,23707
9388,500 EAST 1400 NORTH,LOGAN,UT,84341
9389,5475 SOUTH 500 EAST,OGDEN,UT,84405
9390,200 HOSPITAL DRIVE,GALAX,VA,24333
9391,1200 JD ANDERSON DR,MORGANTOWN,WV,26505
9392,4320 SEMINARY RD,ALEXANDRIA,VA,22304
9393,3600 JOSEPH SIEWICK DRIVE,FAIRFAX,VA,22033
9394,1701 NORTH GEORGE MASON DRIVE,ARLINGTON,VA,22205
9395,601 COLLIERS WAY,WEIRTON,WV,26062
9396,1001 SAM PERRY BOULEVARD,FREDERICKSBURG,VA,22401
9397,501 MORRIS STREET,CHARLESTON,WV,25301
9398,725 AMERICAN AVE,WAUKESHA,WI,53188
9399,180 FLOYD AVENUE,ROCKY MOUNT,VA,24151
9400,800 WHEELING AVE,GLEN DALE,WV,26038
9401,744 S WEBSTER AVE,GREEN BAY,WI,54305
9402,3700 SOUTH MAIN STREET,BLACKSBURG,VA,24060
9403,2900 W OKLAHOMA AVE,MILWAUKEE,WI,53215
9404,855 N WESTHAVEN DRIVE,OSHKOSH,WI,54904
9405,1325 LOCUST AVENUE,FAIRMONT,WV,26554
9406,333 PINE RIDGE BLVD,WAUSAU,WI,54401
9407,2811 TIETON DRIVE,YAKIMA,WA,98902
9408,5000 W CHAMBERS ST,MILWAUKEE,WI,53210
9409,2661 COUNTY HWY I,CHIPPEWA FALLS,WI,54729
9410,1900 ELECTRIC ROAD,SALEM,VA,24153
9411,327 MEDICAL PARK DRIVE,BRIDGEPORT,WV,26330
9412,2900 LAMB CIRCLE,CHRISTIANSBURG,VA,24073
9413,125 BUENA VISTA CIRCLE,SOUTH HILL,VA,23970
9414,MEDICAL CENTER DRIVE,MORGANTOWN,WV,26506
9415,751 NE BLAKELY DR,ISSAQUAH,WA,98029
9416,9507 HOSPITAL AVENUE,NASSAWADOX,VA,23413
9417,2900 1ST AVENUE,HUNTINGTON,WV,25702
9418,9660 SOUTH 1300 EAST,SANDY,UT,84094
9419,8260 ATLEE ROAD,MECHANICSVILLE,VA,23116
9420,820 NORTH CHELAN AVENUE,WENATCHEE,WA,98801
9421,1221 WHIPPLE ST,EAU CLAIRE,WI,54703
9422,4600 EAST SAM HOUSTON PARKWAY SOUTH,PASADENA,TX,77505
9423,100 SENTARA CIRCLE,WILLIAMSBURG,VA,23188
9424,12040 NE 128TH STREET,KIRKLAND,WA,98034
9425,600 GRESHAM DR,NORFOLK,VA,23507
9426,78 MEDICAL CENTER DRIVE,FISHERSVILLE,VA,22939
9427,630 EAST MEDICAL DRIVE,BOUNTIFUL,UT,84010
9428,1710 HARPER ROAD,BECKLEY,WV,25801
9429,1717 SOUTH J STREET,TACOMA,WA,98405
9430,44045 RIVERSIDE PARKWAY,LEESBURG,VA,20176
9431,"8110 GATEHOUSE ROAD, 400 WEST",FALLS CHURCH,VA,22042
9432,1818 N MEADE ST,APPLETON,WI,54911
9433,3741 WEST 12600 SOUTH,RIVERTON,UT,84065
9434,1109 NORTH 100 WEST,BEAVER,UT,84713
9435,17 BELMONT AVE,BRATTLEBORO,VT,5301
9436,16251 SYLVESTER ROAD SW,BURIEN,WA,98166
9437,2700 E BROAD STREET,MANSFIELD,TX,76063
9438,W180 N8085 TOWN HALL RD,MENOMONEE FALLS,WI,53051
9439,914 S SCHEUBER ROAD,CENTRALIA,WA,98531
9440,320 HOSPITAL DRIVE,MARTINSVILLE,VA,24115
9441,101 WEST 8TH AVENUE,SPOKANE,WA,99204
9442,500 HOSPITAL DRIVE,WARRENTON,VA,20186
9443,900 W CLAIREMONT AVE,EAU CLAIRE,WI,54701
9444,5801 BREMO RD,RICHMOND,VA,23226
9445,611 SHERMAN AVE E,FORT ATKINSON,WI,53538
9446,17400 ST LUKES WAY,THE WOODLANDS,TX,77384
9447,325 9TH AVENUE,SEATTLE,WA,98104
9448,1969 W HART RD,BELOIT,WI,53511
9449,1920 ATHERHOLT ROAD,LYNCHBURG,VA,24501
9450,410 DEWEY ST,WISCONSIN RAPID,WI,54495
9451,9200 W WISCONSIN AVE,MILWAUKEE,WI,53226
9452,50 NORTH MEDICAL DRIVE,SALT LAKE CITY,UT,84132
9453,3150 HORIZON ROAD,ROCKWALL,TX,75032
9454,500 17TH AVENUE,SEATTLE,WA,98122
9455,300 UNIVERSITY BLVD,ROUND ROCK,TX,78664
9456,500 MARTHA JEFFERSON DRIVE,CHARLOTTESVILLE,VA,22911
9457,1615 DELAWARE STREET,LONGVIEW,WA,98632
9458,500 S OAKWOOD RD,OSHKOSH,WI,54904
9459,3100 SHORE DRIVE,MARINETTE,WI,54143
9460,1035-116TH AVE NE,BELLEVUE,WA,98004
9461,747 BROADWAY,SEATTLE,WA,98122
9462,11234 ANDERSON ST,LOMA LINDA,CA,92354
9463,7301 ROGERS AVE,FORT SMITH,AR,72917
9464,4300 ALTON RD,MIAMI BEACH,FL,33140
9465,2900 EUREKA WAY,REDDING,CA,96001
9466,809 UNIVERSITY BOULEVARD EAST,TUSCALOOSA,AL,35401
9467,2500 ROCKY MOUNTAIN AVENUE,LOVELAND,CO,80538
9468,2800 EAST AJO WAY,TUCSON,AZ,85713
9469,1475 W 49TH ST,HIALEAH,FL,33012
9470,619 SOUTH 19TH STREET,BIRMINGHAM,AL,35233
9471,101 E VALENCIA MESA DRIVE,FULLERTON,CA,92835
9472,30 SHELBURNE ROAD,STAMFORD,CT,6904
9473,EAST MAIN AND SOUTH 20TH STREET,VAN BUREN,AR,72956
9474,11600 WEST 2ND PLACE,LAKEWOOD,CO,80228
9475,501 SOUTH BUENA VISTA,BURBANK,CA,91505
9476,5151 N 9TH AVE,PENSACOLA,FL,32504
9477,2776 CLEVELAND AVE,FORT MYERS,FL,33901
9478,757 WESTWOOD PLAZA,LOS ANGELES,CA,90095
9479,1350 S HICKORY ST,MELBOURNE,FL,32901
9480,24 STEVENS STREET,NORWALK,CT,6856
9481,6125 NORTH FRESNO ST,FRESNO,CA,93710
9482,655 W 8TH ST,JACKSONVILLE,FL,32209
9483,300 PASTEUR DRIVE,STANFORD,CA,94305
9484,12401 E WASHINGTON BLVD,WHITTIER,CA,90602
9485,1000 W MORENO ST,PENSACOLA,FL,32501
9486,1800 EAST VAN BUREN STREET,PHOENIX,AZ,85006
9487,1301 SOUTH CRISMON ROAD,MESA,AZ,85209
9488,900 HYDE ST,SAN FRANCISCO,CA,94109
9489,2900 CHANTICLEER AVENUE,SANTA CRUZ,CA,95065
9490,3719 DAUPHIN STREET,MOBILE,AL,36608
9491,9201 WEST THOMAS ROAD,PHOENIX,AZ,85037
9492,5301 EAST GRANT ROAD,TUCSON,AZ,85712
9493,267 GRANT STREET,BRIDGEPORT,CT,6610
9494,726 4TH ST,MARYSVILLE,CA,95901
9495,1600 SW ARCHER RD,GAINESVILLE,FL,32610
9496,1400 E BOULDER ST,COLORADO SPRING,CO,80909
9497,4620 EAST BASELINE ROAD,MESA,AZ,85206
9498,624 HOSPITAL DRIVE,MOUNTAIN HOME,AR,72653
